%YAML 1.1
%TAG !u! tag:unity3d.com,2011:
--- !u!74 &7400000
AnimationClip:
  m_ObjectHideFlags: 0
  m_PrefabParentObject: {fileID: 0}
  m_PrefabInternal: {fileID: 0}
  m_Name: Retract
  serializedVersion: 4
  m_AnimationType: 2
  m_Compressed: 0
  m_UseHighQualityCurve: 1
  m_RotationCurves:
  - curve:
      serializedVersion: 2
      m_Curve:
      - time: 0
        value: {x: 0, y: 0, z: 0, w: 1}
        inSlope: {x: 0, y: 0, z: .151504546, w: -.000189542756}
        outSlope: {x: 0, y: 0, z: .151504546, w: -.000189542756}
        tangentMode: 0
      - time: .0166666675
        value: {x: 0, y: 0, z: .0025250758, w: .999996841}
        inSlope: {x: 0, y: 0, z: .15150407, w: -.00038266179}
        outSlope: {x: 0, y: 0, z: .15150407, w: -.00038266179}
        tangentMode: 0
      - time: .0333333351
        value: {x: 0, y: 0, z: .00505013578, w: .999987245}
        inSlope: {x: 0, y: 0, z: .151502609, w: -.000765323523}
        outSlope: {x: 0, y: 0, z: .151502609, w: -.000765323523}
        tangentMode: 1061100301
      - time: .0500000045
        value: {x: 0, y: 0, z: .00757516315, w: .99997133}
        inSlope: {x: 0, y: 0, z: .151500195, w: -.00114798546}
        outSlope: {x: 0, y: 0, z: .151500195, w: -.00114798546}
        tangentMode: 0
      - time: .0666666701
        value: {x: 0, y: 0, z: .010100143, w: .999948978}
        inSlope: {x: 0, y: 0, z: .151496828, w: -.00153064739}
        outSlope: {x: 0, y: 0, z: .151496828, w: -.00153064739}
        tangentMode: 0
      - time: .0833333358
        value: {x: 0, y: 0, z: .0126250573, w: .999920309}
        inSlope: {x: 0, y: 0, z: .151492462, w: -.00191152119}
        outSlope: {x: 0, y: 0, z: .151492462, w: -.00191152119}
        tangentMode: 1065353216
      - time: .100000001
        value: {x: 0, y: 0, z: .0151498914, w: .999885261}
        inSlope: {x: 0, y: 0, z: .151487201, w: -.00229597115}
        outSlope: {x: 0, y: 0, z: .151487201, w: -.00229597115}
        tangentMode: 0
      - time: .116666667
        value: {x: 0, y: 0, z: .0176746305, w: .999843776}
        inSlope: {x: 0, y: 0, z: .151480854, w: -.00267863227}
        outSlope: {x: 0, y: 0, z: .151480854, w: -.00267863227}
        tangentMode: 0
      - time: .13333334
        value: {x: 0, y: 0, z: .0201992542, w: .999795973}
        inSlope: {x: 0, y: 0, z: .151473597, w: -.00305950595}
        outSlope: {x: 0, y: 0, z: .151473597, w: -.00305950595}
        tangentMode: 2560
      - time: .150000006
        value: {x: 0, y: 0, z: .0227237511, w: .999741793}
        inSlope: {x: 0, y: 0, z: .151465416, w: -.00344216847}
        outSlope: {x: 0, y: 0, z: .151465416, w: -.00344216847}
        tangentMode: 0
      - time: .166666672
        value: {x: 0, y: 0, z: .025248101, w: .999681234}
        inSlope: {x: 0, y: 0, z: .151456252, w: -.00382483052}
        outSlope: {x: 0, y: 0, z: .151456252, w: -.00382483052}
        tangentMode: 1065353216
      - time: .183333337
        value: {x: 0, y: 0, z: .0277722925, w: .999614298}
        inSlope: {x: 0, y: 0, z: .151446134, w: -.00420749234}
        outSlope: {x: 0, y: 0, z: .151446134, w: -.00420749234}
        tangentMode: 1065353216
      - time: .200000003
        value: {x: 0, y: 0, z: .0302963052, w: .999540985}
        inSlope: {x: 0, y: 0, z: .151434958, w: -.00459015416}
        outSlope: {x: 0, y: 0, z: .151434958, w: -.00459015416}
        tangentMode: 0
      - time: .216666669
        value: {x: 0, y: 0, z: .0328201242, w: .999461293}
        inSlope: {x: 0, y: 0, z: .151423067, w: -.00497281598}
        outSlope: {x: 0, y: 0, z: .151423067, w: -.00497281598}
        tangentMode: 0
      - time: .233333334
        value: {x: 0, y: 0, z: .0353437401, w: .999375224}
        inSlope: {x: 0, y: 0, z: .151409924, w: -.0053554778}
        outSlope: {x: 0, y: 0, z: .151409924, w: -.0053554778}
        tangentMode: 0
      - time: .25
        value: {x: 0, y: 0, z: .0378671214, w: .999282777}
        inSlope: {x: 0, y: 0, z: .151395783, w: -.00573813682}
        outSlope: {x: 0, y: 0, z: .151395783, w: -.00573813682}
        tangentMode: 0
      - time: .266666681
        value: {x: 0, y: 0, z: .040390268, w: .999183953}
        inSlope: {x: 0, y: 0, z: .151380852, w: -.00611900771}
        outSlope: {x: 0, y: 0, z: .151380852, w: -.00611900771}
        tangentMode: 0
      - time: .283333361
        value: {x: 0, y: 0, z: .0429131538, w: .99907881}
        inSlope: {x: 0, y: 0, z: .151364982, w: -.00649988092}
        outSlope: {x: 0, y: 0, z: .151364982, w: -.00649988092}
        tangentMode: 0
      - time: .300000042
        value: {x: 0, y: 0, z: .0454357713, w: .99896729}
        inSlope: {x: 0, y: 0, z: .151348114, w: -.00688433088}
        outSlope: {x: 0, y: 0, z: .151348114, w: -.00688433088}
        tangentMode: 0
      - time: .316666722
        value: {x: 0, y: 0, z: .0479580946, w: .998849332}
        inSlope: {x: 0, y: 0, z: .151330113, w: -.00726699224}
        outSlope: {x: 0, y: 0, z: .151330113, w: -.00726699224}
        tangentMode: 0
      - time: .333333403
        value: {x: 0, y: 0, z: .0504801124, w: .998725057}
        inSlope: {x: 0, y: 0, z: .151311338, w: -.00764786545}
        outSlope: {x: 0, y: 0, z: .151311338, w: -.00764786545}
        tangentMode: 1065353216
      - time: .350000083
        value: {x: 0, y: 0, z: .0530018099, w: .998594403}
        inSlope: {x: 0, y: 0, z: .151291549, w: -.00803052727}
        outSlope: {x: 0, y: 0, z: .151291549, w: -.00803052727}
        tangentMode: 0
      - time: .366666764
        value: {x: 0, y: 0, z: .0555231683, w: .998457372}
        inSlope: {x: 0, y: 0, z: .151270881, w: -.00841140002}
        outSlope: {x: 0, y: 0, z: .151270881, w: -.00841140002}
        tangentMode: 0
      - time: .383333445
        value: {x: 0, y: 0, z: .0580441765, w: .998314023}
        inSlope: {x: 0, y: 0, z: .151249081, w: -.0087922737}
        outSlope: {x: 0, y: 0, z: .151249081, w: -.0087922737}
        tangentMode: 0
      - time: .400000125
        value: {x: 0, y: 0, z: .0605648085, w: .998164296}
        inSlope: {x: 0, y: 0, z: .151226521, w: -.00917672366}
        outSlope: {x: 0, y: 0, z: .151226521, w: -.00917672366}
        tangentMode: 0
      - time: .416666806
        value: {x: 0, y: 0, z: .0630850643, w: .998008132}
        inSlope: {x: 0, y: 0, z: .151202708, w: -.00955938548}
        outSlope: {x: 0, y: 0, z: .151202708, w: -.00955938548}
        tangentMode: -1
      - time: .433333486
        value: {x: 0, y: 0, z: .0656049028, w: .99784565}
        inSlope: {x: 0, y: 0, z: .151178122, w: -.00993847009}
        outSlope: {x: 0, y: 0, z: .151178122, w: -.00993847009}
        tangentMode: -1
      - time: .450000167
        value: {x: 0, y: 0, z: .068124339, w: .997676849}
        inSlope: {x: 0, y: 0, z: .151152864, w: -.0103211319}
        outSlope: {x: 0, y: 0, z: .151152864, w: -.0103211319}
        tangentMode: -1
      - time: .466666847
        value: {x: 0, y: 0, z: .0706433356, w: .997501612}
        inSlope: {x: 0, y: 0, z: .151126042, w: -.0107037928}
        outSlope: {x: 0, y: 0, z: .151126042, w: -.0107037928}
        tangentMode: -1
      - time: .483333528
        value: {x: 0, y: 0, z: .0731618777, w: .997320056}
        inSlope: {x: 0, y: 0, z: .15109846, w: -.0110828886}
        outSlope: {x: 0, y: 0, z: .15109846, w: -.0110828886}
        tangentMode: -1
      - time: .500000179
        value: {x: 0, y: 0, z: .0756799504, w: .997132182}
        inSlope: {x: 0, y: 0, z: .151069984, w: -.0114655606}
        outSlope: {x: 0, y: 0, z: .151069984, w: -.0114655606}
        tangentMode: -1
      - time: .51666683
        value: {x: 0, y: 0, z: .0781975389, w: .996937871}
        inSlope: {x: 0, y: 0, z: .15104048, w: -.0118482225}
        outSlope: {x: 0, y: 0, z: .15104048, w: -.0118482225}
        tangentMode: -1
      - time: .53333348
        value: {x: 0, y: 0, z: .0807146281, w: .996737242}
        inSlope: {x: 0, y: 0, z: .151010305, w: -.0122290961}
        outSlope: {x: 0, y: 0, z: .151010305, w: -.0122290961}
        tangentMode: -1
      - time: .550000131
        value: {x: 0, y: 0, z: .0832312107, w: .996530235}
        inSlope: {x: 0, y: 0, z: .150979012, w: -.0126099708}
        outSlope: {x: 0, y: 0, z: .150979012, w: -.0126099708}
        tangentMode: -1
      - time: .566666782
        value: {x: 0, y: 0, z: .0857472569, w: .99631691}
        inSlope: {x: 0, y: 0, z: .150946602, w: -.0129908444}
        outSlope: {x: 0, y: 0, z: .150946602, w: -.0129908444}
        tangentMode: 3
      - time: .583333433
        value: {x: 0, y: 0, z: .0882627591, w: .996097207}
        inSlope: {x: 0, y: 0, z: .150913298, w: -.013371719}
        outSlope: {x: 0, y: 0, z: .150913298, w: -.013371719}
        tangentMode: 6332
      - time: .600000083
        value: {x: 0, y: 0, z: .0907776952, w: .995871186}
        inSlope: {x: 0, y: 0, z: .150878876, w: -.0137525927}
        outSlope: {x: 0, y: 0, z: .150878876, w: -.0137525927}
        tangentMode: -1148756
      - time: .616666734
        value: {x: 0, y: 0, z: .0932920501, w: .995638788}
        inSlope: {x: 0, y: 0, z: .150843784, w: -.0141334664}
        outSlope: {x: 0, y: 0, z: .150843784, w: -.0141334664}
        tangentMode: -479918
      - time: .633333385
        value: {x: 0, y: 0, z: .0958058164, w: .995400071}
        inSlope: {x: 0, y: 0, z: .150807798, w: -.014514341}
        outSlope: {x: 0, y: 0, z: .150807798, w: -.014514341}
        tangentMode: -210754
      - time: .650000036
        value: {x: 0, y: 0, z: .0983189717, w: .995154977}
        inSlope: {x: 0, y: 0, z: .15077047, w: -.0148970028}
        outSlope: {x: 0, y: 0, z: .15077047, w: -.0148970028}
        tangentMode: -1116116
      - time: .666666687
        value: {x: 0, y: 0, z: .100831494, w: .994903505}
        inSlope: {x: 0, y: 0, z: .150732249, w: -.0152778774}
        outSlope: {x: 0, y: 0, z: .150732249, w: -.0152778774}
        tangentMode: -1226
      - time: .683333337
        value: {x: 0, y: 0, z: .103343375, w: .994645715}
        inSlope: {x: 0, y: 0, z: .150693357, w: -.015656963}
        outSlope: {x: 0, y: 0, z: .150693357, w: -.015656963}
        tangentMode: -1209790
      - time: .699999988
        value: {x: 0, y: 0, z: .105854601, w: .994381607}
        inSlope: {x: 0, y: 0, z: .150653347, w: -.0160360485}
        outSlope: {x: 0, y: 0, z: .150653347, w: -.0160360485}
        tangentMode: -316
      - time: .716666639
        value: {x: 0, y: 0, z: .108365148, w: .99411118}
        inSlope: {x: 0, y: 0, z: .150612444, w: -.0164169222}
        outSlope: {x: 0, y: 0, z: .150612444, w: -.0164169222}
        tangentMode: 6116
      - time: .73333329
        value: {x: 0, y: 0, z: .11087501, w: .993834376}
        inSlope: {x: 0, y: 0, z: .150570646, w: -.0167995859}
        outSlope: {x: 0, y: 0, z: .150570646, w: -.0167995859}
        tangentMode: 6688
      - time: .74999994
        value: {x: 0, y: 0, z: .113384165, w: .993551195}
        inSlope: {x: 0, y: 0, z: .150527507, w: -.0171786714}
        outSlope: {x: 0, y: 0, z: .150527507, w: -.0171786714}
        tangentMode: 6510
      - time: .766666591
        value: {x: 0, y: 0, z: .115892589, w: .993261755}
        inSlope: {x: 0, y: 0, z: .150483474, w: -.017557757}
        outSlope: {x: 0, y: 0, z: .150483474, w: -.017557757}
        tangentMode: -1222144
      - time: .783333242
        value: {x: 0, y: 0, z: .118400276, w: .992965937}
        inSlope: {x: 0, y: 0, z: .150438994, w: -.0179386307}
        outSlope: {x: 0, y: 0, z: .150438994, w: -.0179386307}
        tangentMode: -261698
      - time: .799999893
        value: {x: 0, y: 0, z: .120907217, w: .992663801}
        inSlope: {x: 0, y: 0, z: .150393173, w: -.0183177162}
        outSlope: {x: 0, y: 0, z: .150393173, w: -.0183177162}
        tangentMode: -96
      - time: .816666543
        value: {x: 0, y: 0, z: .123413377, w: .992355347}
        inSlope: {x: 0, y: 0, z: .150346458, w: -.0186968036}
        outSlope: {x: 0, y: 0, z: .150346458, w: -.0186968036}
        tangentMode: 6360
      - time: .833333194
        value: {x: 0, y: 0, z: .125918761, w: .992040575}
        inSlope: {x: 0, y: 0, z: .150298849, w: -.0190776773}
        outSlope: {x: 0, y: 0, z: .150298849, w: -.0190776773}
        tangentMode: -325450
      - time: .849999845
        value: {x: 0, y: 0, z: .128423333, w: .991719425}
        inSlope: {x: 0, y: 0, z: .150249898, w: -.0194567628}
        outSlope: {x: 0, y: 0, z: .150249898, w: -.0194567628}
        tangentMode: -322
      - time: .866666496
        value: {x: 0, y: 0, z: .130927086, w: .991392016}
        inSlope: {x: 0, y: 0, z: .150200278, w: -.0198358484}
        outSlope: {x: 0, y: 0, z: .150200278, w: -.0198358484}
        tangentMode: 7432
      - time: .883333147
        value: {x: 0, y: 0, z: .133430004, w: .99105823}
        inSlope: {x: 0, y: 0, z: .150149763, w: -.0202149339}
        outSlope: {x: 0, y: 0, z: .150149763, w: -.0202149339}
        tangentMode: -1189500
      - time: .899999797
        value: {x: 0, y: 0, z: .135932073, w: .990718186}
        inSlope: {x: 0, y: 0, z: .150098354, w: -.0205940194}
        outSlope: {x: 0, y: 0, z: .150098354, w: -.0205940194}
        tangentMode: -1075964
      - time: .916666448
        value: {x: 0, y: 0, z: .138433278, w: .990371764}
        inSlope: {x: 0, y: 0, z: .150045604, w: -.020974895}
        outSlope: {x: 0, y: 0, z: .150045604, w: -.020974895}
        tangentMode: 7568
      - time: .933333099
        value: {x: 0, y: 0, z: .140933588, w: .990019023}
        inSlope: {x: 0, y: 0, z: .149991959, w: -.0213521924}
        outSlope: {x: 0, y: 0, z: .149991959, w: -.0213521924}
        tangentMode: -357116
      - time: .94999975
        value: {x: 0, y: 0, z: .143433005, w: .989660025}
        inSlope: {x: 0, y: 0, z: .149937868, w: -.0217294898}
        outSlope: {x: 0, y: 0, z: .149937868, w: -.0217294898}
        tangentMode: -1183624
      - time: .9666664
        value: {x: 0, y: 0, z: .145931512, w: .989294708}
        inSlope: {x: 0, y: 0, z: .149882436, w: -.0221085753}
        outSlope: {x: 0, y: 0, z: .149882436, w: -.0221085753}
        tangentMode: -134324
      - time: .983333051
        value: {x: 0, y: 0, z: .148429081, w: .988923073}
        inSlope: {x: 0, y: 0, z: .149826556, w: -.0224874578}
        outSlope: {x: 0, y: 0, z: .149826556, w: -.0224874578}
        tangentMode: -241514
      - time: 1
        value: {x: 0, y: 0, z: .15092577, w: .98854512}
        inSlope: {x: 0, y: 0, z: .14979884, w: -.0226767994}
        outSlope: {x: 0, y: 0, z: .14979884, w: -.0226767994}
        tangentMode: -1211278
      m_PreInfinity: 2
      m_PostInfinity: 2
    path: 
  m_CompressedRotationCurves: []
  m_PositionCurves:
  - curve:
      serializedVersion: 2
      m_Curve:
      - time: 0
        value: {x: 0, y: 0, z: 0}
        inSlope: {x: .813230932, y: .533796728, z: 0}
        outSlope: {x: .813230932, y: .533796728, z: 0}
        tangentMode: 0
      - time: 1
        value: {x: .813230932, y: .533796728, z: 0}
        inSlope: {x: .813230932, y: .533796728, z: 0}
        outSlope: {x: .813230932, y: .533796728, z: 0}
        tangentMode: 7471201
      m_PreInfinity: 2
      m_PostInfinity: 2
    path: 
  m_ScaleCurves: []
  m_FloatCurves: []
  m_PPtrCurves: []
  m_SampleRate: 60
  m_WrapMode: 0
  m_Bounds:
    m_Center: {x: 0, y: 0, z: 0}
    m_Extent: {x: 0, y: 0, z: 0}
  m_ClipBindingConstant:
    genericBindings:
    - path: 0
      attribute: 1
      script: {fileID: 0}
      classID: 4
      customType: 0
      isPPtrCurve: 0
    - path: 0
      attribute: 2
      script: {fileID: 0}
      classID: 4
      customType: 0
      isPPtrCurve: 0
    pptrCurveMapping: []
  m_AnimationClipSettings:
    serializedVersion: 2
    m_StartTime: 0
    m_StopTime: 1
    m_OrientationOffsetY: 0
    m_Level: 0
    m_CycleOffset: 0
    m_LoopTime: 0
    m_LoopBlend: 0
    m_LoopBlendOrientation: 0
    m_LoopBlendPositionY: 0
    m_LoopBlendPositionXZ: 0
    m_KeepOriginalOrientation: 0
    m_KeepOriginalPositionY: 1
    m_KeepOriginalPositionXZ: 0
    m_HeightFromFeet: 0
    m_Mirror: 0
  m_EditorCurves:
  - curve:
      serializedVersion: 2
      m_Curve:
      - time: 0
        value: 0
        inSlope: .813230932
        outSlope: .813230932
        tangentMode: 10
      - time: 1
        value: .813230932
        inSlope: .813230932
        outSlope: .813230932
        tangentMode: 10
      m_PreInfinity: 2
      m_PostInfinity: 2
    attribute: m_LocalPosition.x
    path: 
    classID: 4
    script: {fileID: 0}
  - curve:
      serializedVersion: 2
      m_Curve:
      - time: 0
        value: 0
        inSlope: .533796728
        outSlope: .533796728
        tangentMode: 10
      - time: 1
        value: .533796728
        inSlope: .533796728
        outSlope: .533796728
        tangentMode: 10
      m_PreInfinity: 2
      m_PostInfinity: 2
    attribute: m_LocalPosition.y
    path: 
    classID: 4
    script: {fileID: 0}
  - curve:
      serializedVersion: 2
      m_Curve:
      - time: 0
        value: 0
        inSlope: 0
        outSlope: 0
        tangentMode: 10
      - time: 1
        value: 0
        inSlope: 0
        outSlope: 0
        tangentMode: 10
      m_PreInfinity: 2
      m_PostInfinity: 2
    attribute: m_LocalPosition.z
    path: 
    classID: 4
    script: {fileID: 0}
  - curve:
      serializedVersion: 2
      m_Curve:
      - time: 0
        value: 0
        inSlope: 0
        outSlope: 0
        tangentMode: 0
      - time: .0166666675
        value: 0
        inSlope: 0
        outSlope: 0
        tangentMode: 0
      - time: .0333333351
        value: 0
        inSlope: 0
        outSlope: 0
        tangentMode: 0
      - time: .0500000045
        value: 0
        inSlope: 0
        outSlope: 0
        tangentMode: 0
      - time: .0666666701
        value: 0
        inSlope: 0
        outSlope: 0
        tangentMode: 0
      - time: .0833333358
        value: 0
        inSlope: 0
        outSlope: 0
        tangentMode: 0
      - time: .100000001
        value: 0
        inSlope: 0
        outSlope: 0
        tangentMode: 0
      - time: .116666667
        value: 0
        inSlope: 0
        outSlope: 0
        tangentMode: 0
      - time: .13333334
        value: 0
        inSlope: 0
        outSlope: 0
        tangentMode: 0
      - time: .150000006
        value: 0
        inSlope: 0
        outSlope: 0
        tangentMode: 0
      - time: .166666672
        value: 0
        inSlope: 0
        outSlope: 0
        tangentMode: 0
      - time: .183333337
        value: 0
        inSlope: 0
        outSlope: 0
        tangentMode: 0
      - time: .200000003
        value: 0
        inSlope: 0
        outSlope: 0
        tangentMode: 0
      - time: .216666669
        value: 0
        inSlope: 0
        outSlope: 0
        tangentMode: 0
      - time: .233333334
        value: 0
        inSlope: 0
        outSlope: 0
        tangentMode: 0
      - time: .25
        value: 0
        inSlope: 0
        outSlope: 0
        tangentMode: 0
      - time: .266666681
        value: 0
        inSlope: 0
        outSlope: 0
        tangentMode: 0
      - time: .283333361
        value: 0
        inSlope: 0
        outSlope: 0
        tangentMode: 0
      - time: .300000042
        value: 0
        inSlope: 0
        outSlope: 0
        tangentMode: 0
      - time: .316666722
        value: 0
        inSlope: 0
        outSlope: 0
        tangentMode: 0
      - time: .333333403
        value: 0
        inSlope: 0
        outSlope: 0
        tangentMode: 0
      - time: .350000083
        value: 0
        inSlope: 0
        outSlope: 0
        tangentMode: 0
      - time: .366666764
        value: 0
        inSlope: 0
        outSlope: 0
        tangentMode: 0
      - time: .383333445
        value: 0
        inSlope: 0
        outSlope: 0
        tangentMode: 0
      - time: .400000125
        value: 0
        inSlope: 0
        outSlope: 0
        tangentMode: 0
      - time: .416666806
        value: 0
        inSlope: 0
        outSlope: 0
        tangentMode: 0
      - time: .433333486
        value: 0
        inSlope: 0
        outSlope: 0
        tangentMode: 0
      - time: .450000167
        value: 0
        inSlope: 0
        outSlope: 0
        tangentMode: 0
      - time: .466666847
        value: 0
        inSlope: 0
        outSlope: 0
        tangentMode: 0
      - time: .483333528
        value: 0
        inSlope: 0
        outSlope: 0
        tangentMode: 0
      - time: .500000179
        value: 0
        inSlope: 0
        outSlope: 0
        tangentMode: 0
      - time: .51666683
        value: 0
        inSlope: 0
        outSlope: 0
        tangentMode: 0
      - time: .53333348
        value: 0
        inSlope: 0
        outSlope: 0
        tangentMode: 0
      - time: .550000131
        value: 0
        inSlope: 0
        outSlope: 0
        tangentMode: 0
      - time: .566666782
        value: 0
        inSlope: 0
        outSlope: 0
        tangentMode: 0
      - time: .583333433
        value: 0
        inSlope: 0
        outSlope: 0
        tangentMode: 0
      - time: .600000083
        value: 0
        inSlope: 0
        outSlope: 0
        tangentMode: 0
      - time: .616666734
        value: 0
        inSlope: 0
        outSlope: 0
        tangentMode: 0
      - time: .633333385
        value: 0
        inSlope: 0
        outSlope: 0
        tangentMode: 0
      - time: .650000036
        value: 0
        inSlope: 0
        outSlope: 0
        tangentMode: 0
      - time: .666666687
        value: 0
        inSlope: 0
        outSlope: 0
        tangentMode: 0
      - time: .683333337
        value: 0
        inSlope: 0
        outSlope: 0
        tangentMode: 0
      - time: .699999988
        value: 0
        inSlope: 0
        outSlope: 0
        tangentMode: 0
      - time: .716666639
        value: 0
        inSlope: 0
        outSlope: 0
        tangentMode: 0
      - time: .73333329
        value: 0
        inSlope: 0
        outSlope: 0
        tangentMode: 0
      - time: .74999994
        value: 0
        inSlope: 0
        outSlope: 0
        tangentMode: 0
      - time: .766666591
        value: 0
        inSlope: 0
        outSlope: 0
        tangentMode: 0
      - time: .783333242
        value: 0
        inSlope: 0
        outSlope: 0
        tangentMode: 0
      - time: .799999893
        value: 0
        inSlope: 0
        outSlope: 0
        tangentMode: 0
      - time: .816666543
        value: 0
        inSlope: 0
        outSlope: 0
        tangentMode: 0
      - time: .833333194
        value: 0
        inSlope: 0
        outSlope: 0
        tangentMode: 0
      - time: .849999845
        value: 0
        inSlope: 0
        outSlope: 0
        tangentMode: 0
      - time: .866666496
        value: 0
        inSlope: 0
        outSlope: 0
        tangentMode: 0
      - time: .883333147
        value: 0
        inSlope: 0
        outSlope: 0
        tangentMode: 0
      - time: .899999797
        value: 0
        inSlope: 0
        outSlope: 0
        tangentMode: 0
      - time: .916666448
        value: 0
        inSlope: 0
        outSlope: 0
        tangentMode: 0
      - time: .933333099
        value: 0
        inSlope: 0
        outSlope: 0
        tangentMode: 0
      - time: .94999975
        value: 0
        inSlope: 0
        outSlope: 0
        tangentMode: 0
      - time: .9666664
        value: 0
        inSlope: 0
        outSlope: 0
        tangentMode: 0
      - time: .983333051
        value: 0
        inSlope: 0
        outSlope: 0
        tangentMode: 0
      - time: 1
        value: 0
        inSlope: 0
        outSlope: 0
        tangentMode: 0
      m_PreInfinity: 2
      m_PostInfinity: 2
    attribute: m_LocalRotation.x
    path: 
    classID: 4
    script: {fileID: 0}
  - curve:
      serializedVersion: 2
      m_Curve:
      - time: 0
        value: 0
        inSlope: 0
        outSlope: 0
        tangentMode: 0
      - time: .0166666675
        value: 0
        inSlope: 0
        outSlope: 0
        tangentMode: 0
      - time: .0333333351
        value: 0
        inSlope: 0
        outSlope: 0
        tangentMode: 0
      - time: .0500000045
        value: 0
        inSlope: 0
        outSlope: 0
        tangentMode: 0
      - time: .0666666701
        value: 0
        inSlope: 0
        outSlope: 0
        tangentMode: 0
      - time: .0833333358
        value: 0
        inSlope: 0
        outSlope: 0
        tangentMode: 0
      - time: .100000001
        value: 0
        inSlope: 0
        outSlope: 0
        tangentMode: 0
      - time: .116666667
        value: 0
        inSlope: 0
        outSlope: 0
        tangentMode: 0
      - time: .13333334
        value: 0
        inSlope: 0
        outSlope: 0
        tangentMode: 0
      - time: .150000006
        value: 0
        inSlope: 0
        outSlope: 0
        tangentMode: 0
      - time: .166666672
        value: 0
        inSlope: 0
        outSlope: 0
        tangentMode: 0
      - time: .183333337
        value: 0
        inSlope: 0
        outSlope: 0
        tangentMode: 0
      - time: .200000003
        value: 0
        inSlope: 0
        outSlope: 0
        tangentMode: 0
      - time: .216666669
        value: 0
        inSlope: 0
        outSlope: 0
        tangentMode: 0
      - time: .233333334
        value: 0
        inSlope: 0
        outSlope: 0
        tangentMode: 0
      - time: .25
        value: 0
        inSlope: 0
        outSlope: 0
        tangentMode: 0
      - time: .266666681
        value: 0
        inSlope: 0
        outSlope: 0
        tangentMode: 0
      - time: .283333361
        value: 0
        inSlope: 0
        outSlope: 0
        tangentMode: 0
      - time: .300000042
        value: 0
        inSlope: 0
        outSlope: 0
        tangentMode: 0
      - time: .316666722
        value: 0
        inSlope: 0
        outSlope: 0
        tangentMode: 0
      - time: .333333403
        value: 0
        inSlope: 0
        outSlope: 0
        tangentMode: 0
      - time: .350000083
        value: 0
        inSlope: 0
        outSlope: 0
        tangentMode: 0
      - time: .366666764
        value: 0
        inSlope: 0
        outSlope: 0
        tangentMode: 0
      - time: .383333445
        value: 0
        inSlope: 0
        outSlope: 0
        tangentMode: 0
      - time: .400000125
        value: 0
        inSlope: 0
        outSlope: 0
        tangentMode: 0
      - time: .416666806
        value: 0
        inSlope: 0
        outSlope: 0
        tangentMode: 0
      - time: .433333486
        value: 0
        inSlope: 0
        outSlope: 0
        tangentMode: 0
      - time: .450000167
        value: 0
        inSlope: 0
        outSlope: 0
        tangentMode: 0
      - time: .466666847
        value: 0
        inSlope: 0
        outSlope: 0
        tangentMode: 0
      - time: .483333528
        value: 0
        inSlope: 0
        outSlope: 0
        tangentMode: 0
      - time: .500000179
        value: 0
        inSlope: 0
        outSlope: 0
        tangentMode: 0
      - time: .51666683
        value: 0
        inSlope: 0
        outSlope: 0
        tangentMode: 0
      - time: .53333348
        value: 0
        inSlope: 0
        outSlope: 0
        tangentMode: 0
      - time: .550000131
        value: 0
        inSlope: 0
        outSlope: 0
        tangentMode: 0
      - time: .566666782
        value: 0
        inSlope: 0
        outSlope: 0
        tangentMode: 0
      - time: .583333433
        value: 0
        inSlope: 0
        outSlope: 0
        tangentMode: 0
      - time: .600000083
        value: 0
        inSlope: 0
        outSlope: 0
        tangentMode: 0
      - time: .616666734
        value: 0
        inSlope: 0
        outSlope: 0
        tangentMode: 0
      - time: .633333385
        value: 0
        inSlope: 0
        outSlope: 0
        tangentMode: 0
      - time: .650000036
        value: 0
        inSlope: 0
        outSlope: 0
        tangentMode: 0
      - time: .666666687
        value: 0
        inSlope: 0
        outSlope: 0
        tangentMode: 0
      - time: .683333337
        value: 0
        inSlope: 0
        outSlope: 0
        tangentMode: 0
      - time: .699999988
        value: 0
        inSlope: 0
        outSlope: 0
        tangentMode: 0
      - time: .716666639
        value: 0
        inSlope: 0
        outSlope: 0
        tangentMode: 0
      - time: .73333329
        value: 0
        inSlope: 0
        outSlope: 0
        tangentMode: 0
      - time: .74999994
        value: 0
        inSlope: 0
        outSlope: 0
        tangentMode: 0
      - time: .766666591
        value: 0
        inSlope: 0
        outSlope: 0
        tangentMode: 0
      - time: .783333242
        value: 0
        inSlope: 0
        outSlope: 0
        tangentMode: 0
      - time: .799999893
        value: 0
        inSlope: 0
        outSlope: 0
        tangentMode: 0
      - time: .816666543
        value: 0
        inSlope: 0
        outSlope: 0
        tangentMode: 0
      - time: .833333194
        value: 0
        inSlope: 0
        outSlope: 0
        tangentMode: 0
      - time: .849999845
        value: 0
        inSlope: 0
        outSlope: 0
        tangentMode: 0
      - time: .866666496
        value: 0
        inSlope: 0
        outSlope: 0
        tangentMode: 0
      - time: .883333147
        value: 0
        inSlope: 0
        outSlope: 0
        tangentMode: 0
      - time: .899999797
        value: 0
        inSlope: 0
        outSlope: 0
        tangentMode: 0
      - time: .916666448
        value: 0
        inSlope: 0
        outSlope: 0
        tangentMode: 0
      - time: .933333099
        value: 0
        inSlope: 0
        outSlope: 0
        tangentMode: 0
      - time: .94999975
        value: 0
        inSlope: 0
        outSlope: 0
        tangentMode: 0
      - time: .9666664
        value: 0
        inSlope: 0
        outSlope: 0
        tangentMode: 0
      - time: .983333051
        value: 0
        inSlope: 0
        outSlope: 0
        tangentMode: 0
      - time: 1
        value: 0
        inSlope: 0
        outSlope: 0
        tangentMode: 0
      m_PreInfinity: 2
      m_PostInfinity: 2
    attribute: m_LocalRotation.y
    path: 
    classID: 4
    script: {fileID: 0}
  - curve:
      serializedVersion: 2
      m_Curve:
      - time: 0
        value: 0
        inSlope: .151504546
        outSlope: .151504546
        tangentMode: 0
      - time: .0166666675
        value: .0025250758
        inSlope: .15150407
        outSlope: .15150407
        tangentMode: 0
      - time: .0333333351
        value: .00505013578
        inSlope: .151502609
        outSlope: .151502609
        tangentMode: 0
      - time: .0500000045
        value: .00757516315
        inSlope: .151500195
        outSlope: .151500195
        tangentMode: 0
      - time: .0666666701
        value: .010100143
        inSlope: .151496828
        outSlope: .151496828
        tangentMode: 0
      - time: .0833333358
        value: .0126250573
        inSlope: .151492462
        outSlope: .151492462
        tangentMode: 0
      - time: .100000001
        value: .0151498914
        inSlope: .151487201
        outSlope: .151487201
        tangentMode: 0
      - time: .116666667
        value: .0176746305
        inSlope: .151480854
        outSlope: .151480854
        tangentMode: 0
      - time: .13333334
        value: .0201992542
        inSlope: .151473597
        outSlope: .151473597
        tangentMode: 0
      - time: .150000006
        value: .0227237511
        inSlope: .151465416
        outSlope: .151465416
        tangentMode: 0
      - time: .166666672
        value: .025248101
        inSlope: .151456252
        outSlope: .151456252
        tangentMode: 0
      - time: .183333337
        value: .0277722925
        inSlope: .151446134
        outSlope: .151446134
        tangentMode: 0
      - time: .200000003
        value: .0302963052
        inSlope: .151434958
        outSlope: .151434958
        tangentMode: 0
      - time: .216666669
        value: .0328201242
        inSlope: .151423067
        outSlope: .151423067
        tangentMode: 0
      - time: .233333334
        value: .0353437401
        inSlope: .151409924
        outSlope: .151409924
        tangentMode: 0
      - time: .25
        value: .0378671214
        inSlope: .151395783
        outSlope: .151395783
        tangentMode: 0
      - time: .266666681
        value: .040390268
        inSlope: .151380852
        outSlope: .151380852
        tangentMode: 0
      - time: .283333361
        value: .0429131538
        inSlope: .151364982
        outSlope: .151364982
        tangentMode: 0
      - time: .300000042
        value: .0454357713
        inSlope: .151348114
        outSlope: .151348114
        tangentMode: 0
      - time: .316666722
        value: .0479580946
        inSlope: .151330113
        outSlope: .151330113
        tangentMode: 0
      - time: .333333403
        value: .0504801124
        inSlope: .151311338
        outSlope: .151311338
        tangentMode: 0
      - time: .350000083
        value: .0530018099
        inSlope: .151291549
        outSlope: .151291549
        tangentMode: 0
      - time: .366666764
        value: .0555231683
        inSlope: .151270881
        outSlope: .151270881
        tangentMode: 0
      - time: .383333445
        value: .0580441765
        inSlope: .151249081
        outSlope: .151249081
        tangentMode: 0
      - time: .400000125
        value: .0605648085
        inSlope: .151226521
        outSlope: .151226521
        tangentMode: 0
      - time: .416666806
        value: .0630850643
        inSlope: .151202708
        outSlope: .151202708
        tangentMode: 0
      - time: .433333486
        value: .0656049028
        inSlope: .151178122
        outSlope: .151178122
        tangentMode: 0
      - time: .450000167
        value: .068124339
        inSlope: .151152864
        outSlope: .151152864
        tangentMode: 0
      - time: .466666847
        value: .0706433356
        inSlope: .151126042
        outSlope: .151126042
        tangentMode: 0
      - time: .483333528
        value: .0731618777
        inSlope: .15109846
        outSlope: .15109846
        tangentMode: 0
      - time: .500000179
        value: .0756799504
        inSlope: .151069984
        outSlope: .151069984
        tangentMode: 0
      - time: .51666683
        value: .0781975389
        inSlope: .15104048
        outSlope: .15104048
        tangentMode: 0
      - time: .53333348
        value: .0807146281
        inSlope: .151010305
        outSlope: .151010305
        tangentMode: 0
      - time: .550000131
        value: .0832312107
        inSlope: .150979012
        outSlope: .150979012
        tangentMode: 0
      - time: .566666782
        value: .0857472569
        inSlope: .150946602
        outSlope: .150946602
        tangentMode: 0
      - time: .583333433
        value: .0882627591
        inSlope: .150913298
        outSlope: .150913298
        tangentMode: 0
      - time: .600000083
        value: .0907776952
        inSlope: .150878876
        outSlope: .150878876
        tangentMode: 0
      - time: .616666734
        value: .0932920501
        inSlope: .150843784
        outSlope: .150843784
        tangentMode: 0
      - time: .633333385
        value: .0958058164
        inSlope: .150807798
        outSlope: .150807798
        tangentMode: 0
      - time: .650000036
        value: .0983189717
        inSlope: .15077047
        outSlope: .15077047
        tangentMode: 0
      - time: .666666687
        value: .100831494
        inSlope: .150732249
        outSlope: .150732249
        tangentMode: 0
      - time: .683333337
        value: .103343375
        inSlope: .150693357
        outSlope: .150693357
        tangentMode: 0
      - time: .699999988
        value: .105854601
        inSlope: .150653347
        outSlope: .150653347
        tangentMode: 0
      - time: .716666639
        value: .108365148
        inSlope: .150612444
        outSlope: .150612444
        tangentMode: 0
      - time: .73333329
        value: .11087501
        inSlope: .150570646
        outSlope: .150570646
        tangentMode: 0
      - time: .74999994
        value: .113384165
        inSlope: .150527507
        outSlope: .150527507
        tangentMode: 0
      - time: .766666591
        value: .115892589
        inSlope: .150483474
        outSlope: .150483474
        tangentMode: 0
      - time: .783333242
        value: .118400276
        inSlope: .150438994
        outSlope: .150438994
        tangentMode: 0
      - time: .799999893
        value: .120907217
        inSlope: .150393173
        outSlope: .150393173
        tangentMode: 0
      - time: .816666543
        value: .123413377
        inSlope: .150346458
        outSlope: .150346458
        tangentMode: 0
      - time: .833333194
        value: .125918761
        inSlope: .150298849
        outSlope: .150298849
        tangentMode: 0
      - time: .849999845
        value: .128423333
        inSlope: .150249898
        outSlope: .150249898
        tangentMode: 0
      - time: .866666496
        value: .130927086
        inSlope: .150200278
        outSlope: .150200278
        tangentMode: 0
      - time: .883333147
        value: .133430004
        inSlope: .150149763
        outSlope: .150149763
        tangentMode: 0
      - time: .899999797
        value: .135932073
        inSlope: .150098354
        outSlope: .150098354
        tangentMode: 0
      - time: .916666448
        value: .138433278
        inSlope: .150045604
        outSlope: .150045604
        tangentMode: 0
      - time: .933333099
        value: .140933588
        inSlope: .149991959
        outSlope: .149991959
        tangentMode: 0
      - time: .94999975
        value: .143433005
        inSlope: .149937868
        outSlope: .149937868
        tangentMode: 0
      - time: .9666664
        value: .145931512
        inSlope: .149882436
        outSlope: .149882436
        tangentMode: 0
      - time: .983333051
        value: .148429081
        inSlope: .149826556
        outSlope: .149826556
        tangentMode: 0
      - time: 1
        value: .15092577
        inSlope: .14979884
        outSlope: .14979884
        tangentMode: 0
      m_PreInfinity: 2
      m_PostInfinity: 2
    attribute: m_LocalRotation.z
    path: 
    classID: 4
    script: {fileID: 0}
  - curve:
      serializedVersion: 2
      m_Curve:
      - time: 0
        value: 1
        inSlope: -.000189542756
        outSlope: -.000189542756
        tangentMode: 0
      - time: .0166666675
        value: .999996841
        inSlope: -.00038266179
        outSlope: -.00038266179
        tangentMode: 0
      - time: .0333333351
        value: .999987245
        inSlope: -.000765323523
        outSlope: -.000765323523
        tangentMode: 0
      - time: .0500000045
        value: .99997133
        inSlope: -.00114798546
        outSlope: -.00114798546
        tangentMode: 0
      - time: .0666666701
        value: .999948978
        inSlope: -.00153064739
        outSlope: -.00153064739
        tangentMode: 0
      - time: .0833333358
        value: .999920309
        inSlope: -.00191152119
        outSlope: -.00191152119
        tangentMode: 0
      - time: .100000001
        value: .999885261
        inSlope: -.00229597115
        outSlope: -.00229597115
        tangentMode: 0
      - time: .116666667
        value: .999843776
        inSlope: -.00267863227
        outSlope: -.00267863227
        tangentMode: 0
      - time: .13333334
        value: .999795973
        inSlope: -.00305950595
        outSlope: -.00305950595
        tangentMode: 0
      - time: .150000006
        value: .999741793
        inSlope: -.00344216847
        outSlope: -.00344216847
        tangentMode: 0
      - time: .166666672
        value: .999681234
        inSlope: -.00382483052
        outSlope: -.00382483052
        tangentMode: 0
      - time: .183333337
        value: .999614298
        inSlope: -.00420749234
        outSlope: -.00420749234
        tangentMode: 0
      - time: .200000003
        value: .999540985
        inSlope: -.00459015416
        outSlope: -.00459015416
        tangentMode: 0
      - time: .216666669
        value: .999461293
        inSlope: -.00497281598
        outSlope: -.00497281598
        tangentMode: 0
      - time: .233333334
        value: .999375224
        inSlope: -.0053554778
        outSlope: -.0053554778
        tangentMode: 0
      - time: .25
        value: .999282777
        inSlope: -.00573813682
        outSlope: -.00573813682
        tangentMode: 0
      - time: .266666681
        value: .999183953
        inSlope: -.00611900771
        outSlope: -.00611900771
        tangentMode: 0
      - time: .283333361
        value: .99907881
        inSlope: -.00649988092
        outSlope: -.00649988092
        tangentMode: 0
      - time: .300000042
        value: .99896729
        inSlope: -.00688433088
        outSlope: -.00688433088
        tangentMode: 0
      - time: .316666722
        value: .998849332
        inSlope: -.00726699224
        outSlope: -.00726699224
        tangentMode: 0
      - time: .333333403
        value: .998725057
        inSlope: -.00764786545
        outSlope: -.00764786545
        tangentMode: 0
      - time: .350000083
        value: .998594403
        inSlope: -.00803052727
        outSlope: -.00803052727
        tangentMode: 0
      - time: .366666764
        value: .998457372
        inSlope: -.00841140002
        outSlope: -.00841140002
        tangentMode: 0
      - time: .383333445
        value: .998314023
        inSlope: -.0087922737
        outSlope: -.0087922737
        tangentMode: 0
      - time: .400000125
        value: .998164296
        inSlope: -.00917672366
        outSlope: -.00917672366
        tangentMode: 0
      - time: .416666806
        value: .998008132
        inSlope: -.00955938548
        outSlope: -.00955938548
        tangentMode: 0
      - time: .433333486
        value: .99784565
        inSlope: -.00993847009
        outSlope: -.00993847009
        tangentMode: 0
      - time: .450000167
        value: .997676849
        inSlope: -.0103211319
        outSlope: -.0103211319
        tangentMode: 0
      - time: .466666847
        value: .997501612
        inSlope: -.0107037928
        outSlope: -.0107037928
        tangentMode: 0
      - time: .483333528
        value: .997320056
        inSlope: -.0110828886
        outSlope: -.0110828886
        tangentMode: 0
      - time: .500000179
        value: .997132182
        inSlope: -.0114655606
        outSlope: -.0114655606
        tangentMode: 0
      - time: .51666683
        value: .996937871
        inSlope: -.0118482225
        outSlope: -.0118482225
        tangentMode: 0
      - time: .53333348
        value: .996737242
        inSlope: -.0122290961
        outSlope: -.0122290961
        tangentMode: 0
      - time: .550000131
        value: .996530235
        inSlope: -.0126099708
        outSlope: -.0126099708
        tangentMode: 0
      - time: .566666782
        value: .99631691
        inSlope: -.0129908444
        outSlope: -.0129908444
        tangentMode: 0
      - time: .583333433
        value: .996097207
        inSlope: -.013371719
        outSlope: -.013371719
        tangentMode: 0
      - time: .600000083
        value: .995871186
        inSlope: -.0137525927
        outSlope: -.0137525927
        tangentMode: 0
      - time: .616666734
        value: .995638788
        inSlope: -.0141334664
        outSlope: -.0141334664
        tangentMode: 0
      - time: .633333385
        value: .995400071
        inSlope: -.014514341
        outSlope: -.014514341
        tangentMode: 0
      - time: .650000036
        value: .995154977
        inSlope: -.0148970028
        outSlope: -.0148970028
        tangentMode: 0
      - time: .666666687
        value: .994903505
        inSlope: -.0152778774
        outSlope: -.0152778774
        tangentMode: 0
      - time: .683333337
        value: .994645715
        inSlope: -.015656963
        outSlope: -.015656963
        tangentMode: 0
      - time: .699999988
        value: .994381607
        inSlope: -.0160360485
        outSlope: -.0160360485
        tangentMode: 0
      - time: .716666639
        value: .99411118
        inSlope: -.0164169222
        outSlope: -.0164169222
        tangentMode: 0
      - time: .73333329
        value: .993834376
        inSlope: -.0167995859
        outSlope: -.0167995859
        tangentMode: 0
      - time: .74999994
        value: .993551195
        inSlope: -.0171786714
        outSlope: -.0171786714
        tangentMode: 0
      - time: .766666591
        value: .993261755
        inSlope: -.017557757
        outSlope: -.017557757
        tangentMode: 0
      - time: .783333242
        value: .992965937
        inSlope: -.0179386307
        outSlope: -.0179386307
        tangentMode: 0
      - time: .799999893
        value: .992663801
        inSlope: -.0183177162
        outSlope: -.0183177162
        tangentMode: 0
      - time: .816666543
        value: .992355347
        inSlope: -.0186968036
        outSlope: -.0186968036
        tangentMode: 0
      - time: .833333194
        value: .992040575
        inSlope: -.0190776773
        outSlope: -.0190776773
        tangentMode: 0
      - time: .849999845
        value: .991719425
        inSlope: -.0194567628
        outSlope: -.0194567628
        tangentMode: 0
      - time: .866666496
        value: .991392016
        inSlope: -.0198358484
        outSlope: -.0198358484
        tangentMode: 0
      - time: .883333147
        value: .99105823
        inSlope: -.0202149339
        outSlope: -.0202149339
        tangentMode: 0
      - time: .899999797
        value: .990718186
        inSlope: -.0205940194
        outSlope: -.0205940194
        tangentMode: 0
      - time: .916666448
        value: .990371764
        inSlope: -.020974895
        outSlope: -.020974895
        tangentMode: 0
      - time: .933333099
        value: .990019023
        inSlope: -.0213521924
        outSlope: -.0213521924
        tangentMode: 0
      - time: .94999975
        value: .989660025
        inSlope: -.0217294898
        outSlope: -.0217294898
        tangentMode: 0
      - time: .9666664
        value: .989294708
        inSlope: -.0221085753
        outSlope: -.0221085753
        tangentMode: 0
      - time: .983333051
        value: .988923073
        inSlope: -.0224874578
        outSlope: -.0224874578
        tangentMode: 0
      - time: 1
        value: .98854512
        inSlope: -.0226767994
        outSlope: -.0226767994
        tangentMode: 0
      m_PreInfinity: 2
      m_PostInfinity: 2
    attribute: m_LocalRotation.w
    path: 
    classID: 4
    script: {fileID: 0}
  m_EulerEditorCurves:
  - curve:
      serializedVersion: 2
      m_Curve:
      - time: 0
        value: 0
        inSlope: 0
        outSlope: 0
        tangentMode: 10
      - time: 1
        value: 0
        inSlope: 0
        outSlope: 0
        tangentMode: 10
      m_PreInfinity: 2
      m_PostInfinity: 2
    attribute: localEulerAnglesBaked.x
    path: 
    classID: 4
    script: {fileID: 0}
  - curve:
      serializedVersion: 2
      m_Curve:
      - time: 0
        value: 0
        inSlope: 0
        outSlope: 0
        tangentMode: 10
      - time: 1
        value: 0
        inSlope: 0
        outSlope: 0
        tangentMode: 10
      m_PreInfinity: 2
      m_PostInfinity: 2
    attribute: localEulerAnglesBaked.y
    path: 
    classID: 4
    script: {fileID: 0}
  - curve:
      serializedVersion: 2
      m_Curve:
      - time: 0
        value: 0
        inSlope: 17.3611603
        outSlope: 17.3611603
        tangentMode: 10
      - time: 1
        value: 17.3611603
        inSlope: 17.3611603
        outSlope: 17.3611603
        tangentMode: 10
      m_PreInfinity: 2
      m_PostInfinity: 2
    attribute: localEulerAnglesBaked.z
    path: 
    classID: 4
    script: {fileID: 0}
  m_Events: []
