%YAML 1.1
%TAG !u! tag:unity3d.com,2011:
--- !u!74 &7400000
AnimationClip:
  m_ObjectHideFlags: 0
  m_PrefabParentObject: {fileID: 0}
  m_PrefabInternal: {fileID: 0}
  m_Name: Retract
  serializedVersion: 4
  m_AnimationType: 2
  m_Compressed: 0
  m_UseHighQualityCurve: 1
  m_RotationCurves:
  - curve:
      serializedVersion: 2
      m_Curve:
      - time: 0
        value: {x: 0, y: 0, z: 0, w: 1}
        inSlope: {x: 0, y: 0, z: 3.84345293, w: -.123227827}
        outSlope: {x: 0, y: 0, z: 3.84345293, w: -.123227827}
        tangentMode: 0
      - time: .0166666675
        value: {x: 0, y: 0, z: .0640575513, w: .997946203}
        inSlope: {x: 0, y: 0, z: 3.92206621, w: -.257481307}
        outSlope: {x: 0, y: 0, z: 3.92206621, w: -.257481307}
        tangentMode: 0
      - time: .0333333351
        value: {x: 0, y: 0, z: .130735546, w: .991417289}
        inSlope: {x: 0, y: 0, z: 4.04721069, w: -.538185179}
        outSlope: {x: 0, y: 0, z: 4.04721069, w: -.538185179}
        tangentMode: 1140457472
      - time: .0500000045
        value: {x: 0, y: 0, z: .198964596, w: .980006695}
        inSlope: {x: 0, y: 0, z: 4.10721493, w: -.836970806}
        outSlope: {x: 0, y: 0, z: 4.10721493, w: -.836970806}
        tangentMode: -1103999249
      - time: .0666666701
        value: {x: 0, y: 0, z: .267642707, w: .963518262}
        inSlope: {x: 0, y: 0, z: 4.10118008, w: -1.14081872}
        outSlope: {x: 0, y: 0, z: 4.10118008, w: -1.14081872}
        tangentMode: 0
      - time: .0833333358
        value: {x: 0, y: 0, z: .33567059, w: .941979408}
        inSlope: {x: 0, y: 0, z: 4.03039837, w: -1.43621755}
        outSlope: {x: 0, y: 0, z: 4.03039837, w: -1.43621755}
        tangentMode: 112981928
      - time: .100000001
        value: {x: 0, y: 0, z: .401989311, w: .915644348}
        inSlope: {x: 0, y: 0, z: 3.898422, w: -1.70980823}
        outSlope: {x: 0, y: 0, z: 3.898422, w: -1.70980823}
        tangentMode: 0
      - time: .116666667
        value: {x: 0, y: 0, z: .465617985, w: .884985805}
        inSlope: {x: 0, y: 0, z: 3.71094751, w: -1.94899821}
        outSlope: {x: 0, y: 0, z: 3.71094751, w: -1.94899821}
        tangentMode: 3
      - time: .13333334
        value: {x: 0, y: 0, z: .525687575, w: .850677729}
        inSlope: {x: 0, y: 0, z: 3.4755156, w: -2.14250708}
        outSlope: {x: 0, y: 0, z: 3.4755156, w: -2.14250708}
        tangentMode: -1056665941
      - time: .150000006
        value: {x: 0, y: 0, z: .581468523, w: .81356889}
        inSlope: {x: 0, y: 0, z: 3.20106125, w: -2.28081656}
        outSlope: {x: 0, y: 0, z: 3.20106125, w: -2.28081656}
        tangentMode: 2139095040
      - time: .166666672
        value: {x: 0, y: 0, z: .632389605, w: .774650514}
        inSlope: {x: 0, y: 0, z: 2.89731693, w: -2.35647464}
        outSlope: {x: 0, y: 0, z: 2.89731693, w: -2.35647464}
        tangentMode: 0
      - time: .183333337
        value: {x: 0, y: 0, z: .67804575, w: .735019743}
        inSlope: {x: 0, y: 0, z: 2.5741663, w: -2.3642621}
        outSlope: {x: 0, y: 0, z: 2.5741663, w: -2.3642621}
        tangentMode: 4
      - time: .200000003
        value: {x: 0, y: 0, z: .71819514, w: .695841789}
        inSlope: {x: 0, y: 0, z: 2.24095011, w: -2.3011961}
        outSlope: {x: 0, y: 0, z: 2.24095011, w: -2.3011961}
        tangentMode: 0
      - time: .216666669
        value: {x: 0, y: 0, z: .752744079, w: .658313215}
        inSlope: {x: 0, y: 0, z: 1.90576696, w: -2.16639376}
        outSlope: {x: 0, y: 0, z: 1.90576696, w: -2.16639376}
        tangentMode: 0
      - time: .233333334
        value: {x: 0, y: 0, z: .781720698, w: .623628676}
        inSlope: {x: 0, y: 0, z: 1.5748198, w: -1.9608469}
        outSlope: {x: 0, y: 0, z: 1.5748198, w: -1.9608469}
        tangentMode: 0
      - time: .25
        value: {x: 0, y: 0, z: .805238068, w: .592951655}
        inSlope: {x: 0, y: 0, z: 1.29531693, w: -1.75040889}
        outSlope: {x: 0, y: 0, z: 1.29531693, w: -1.75040889}
        tangentMode: 0
      - time: .266666681
        value: {x: 0, y: 0, z: .824897945, w: .565281689}
        inSlope: {x: 0, y: 0, z: 1.11327314, w: -1.62049103}
        outSlope: {x: 0, y: 0, z: 1.11327314, w: -1.62049103}
        tangentMode: 1009506122
      - time: .283333361
        value: {x: 0, y: 0, z: .842347205, w: .538935244}
        inSlope: {x: 0, y: 0, z: .986909032, w: -1.53868723}
        outSlope: {x: 0, y: 0, z: .986909032, w: -1.53868723}
        tangentMode: 0
      - time: .300000042
        value: {x: 0, y: 0, z: .85779494, w: .513992071}
        inSlope: {x: 0, y: 0, z: .872681022, w: -1.45281291}
        outSlope: {x: 0, y: 0, z: .872681022, w: -1.45281291}
        tangentMode: 2
      - time: .316666722
        value: {x: 0, y: 0, z: .871436596, w: .490508109}
        inSlope: {x: 0, y: 0, z: .76975584, w: -1.36419451}
        outSlope: {x: 0, y: 0, z: .76975584, w: -1.36419451}
        tangentMode: 15
      - time: .333333403
        value: {x: 0, y: 0, z: .883453488, w: .468518883}
        inSlope: {x: 0, y: 0, z: .677280426, w: -1.27399099}
        outSlope: {x: 0, y: 0, z: .677280426, w: -1.27399099}
        tangentMode: 0
      - time: .350000083
        value: {x: 0, y: 0, z: .89401263, w: .448041707}
        inSlope: {x: 0, y: 0, z: .594407439, w: -1.1832037}
        outSlope: {x: 0, y: 0, z: .594407439, w: -1.1832037}
        tangentMode: 3
      - time: .366666764
        value: {x: 0, y: 0, z: .903267086, w: .429078728}
        inSlope: {x: 0, y: 0, z: .520308733, w: -1.09269714}
        outSlope: {x: 0, y: 0, z: .520308733, w: -1.09269714}
        tangentMode: 0
      - time: .383333445
        value: {x: 0, y: 0, z: .91135627, w: .411618441}
        inSlope: {x: 0, y: 0, z: .454174489, w: -1.00320077}
        outSlope: {x: 0, y: 0, z: .454174489, w: -1.00320077}
        tangentMode: 0
      - time: .400000125
        value: {x: 0, y: 0, z: .918406248, w: .395638674}
        inSlope: {x: 0, y: 0, z: .395241052, w: -.915346861}
        outSlope: {x: 0, y: 0, z: .395241052, w: -.915346861}
        tangentMode: 112981928
      - time: .416666806
        value: {x: 0, y: 0, z: .924530983, w: .381106853}
        inSlope: {x: 0, y: 0, z: .342787802, w: -.829669118}
        outSlope: {x: 0, y: 0, z: .342787802, w: -.829669118}
        tangentMode: 0
      - time: .433333486
        value: {x: 0, y: 0, z: .929832518, w: .367983013}
        inSlope: {x: 0, y: 0, z: .296133518, w: -.7466048}
        outSlope: {x: 0, y: 0, z: .296133518, w: -.7466048}
        tangentMode: 2
      - time: .450000167
        value: {x: 0, y: 0, z: .934402108, w: .356220007}
        inSlope: {x: 0, y: 0, z: .254661232, w: -.666545391}
        outSlope: {x: 0, y: 0, z: .254661232, w: -.666545391}
        tangentMode: -1107265234
      - time: .466666847
        value: {x: 0, y: 0, z: .938321233, w: .345764816}
        inSlope: {x: 0, y: 0, z: .217798769, w: -.589802027}
        outSlope: {x: 0, y: 0, z: .217798769, w: -.589802027}
        tangentMode: 2139095040
      - time: .483333528
        value: {x: 0, y: 0, z: .941662073, w: .336559922}
        inSlope: {x: 0, y: 0, z: .185024142, w: -.516628325}
        outSlope: {x: 0, y: 0, z: .185024142, w: -.516628325}
        tangentMode: 0
      - time: .500000179
        value: {x: 0, y: 0, z: .944488704, w: .328543872}
        inSlope: {x: 0, y: 0, z: .155881196, w: -.447250724}
        outSlope: {x: 0, y: 0, z: .155881196, w: -.447250724}
        tangentMode: 4
      - time: .51666683
        value: {x: 0, y: 0, z: .946858108, w: .321651578}
        inSlope: {x: 0, y: 0, z: .12995851, w: -.38185662}
        outSlope: {x: 0, y: 0, z: .12995851, w: -.38185662}
        tangentMode: 0
      - time: .53333348
        value: {x: 0, y: 0, z: .948820651, w: .31581533}
        inSlope: {x: 0, y: 0, z: .106895074, w: -.320587754}
        outSlope: {x: 0, y: 0, z: .106895074, w: -.320587754}
        tangentMode: 0
      - time: .550000131
        value: {x: 0, y: 0, z: .950421274, w: .310965329}
        inSlope: {x: 0, y: 0, z: .0863779411, w: -.263564825}
        outSlope: {x: 0, y: 0, z: .0863779411, w: -.263564825}
        tangentMode: 0
      - time: .566666782
        value: {x: 0, y: 0, z: .951699913, w: .307029843}
        inSlope: {x: 0, y: 0, z: .0681371167, w: -.210883528}
        outSlope: {x: 0, y: 0, z: .0681371167, w: -.210883528}
        tangentMode: 0
      - time: .583333433
        value: {x: 0, y: 0, z: .952692509, w: .303935885}
        inSlope: {x: 0, y: 0, z: .0519562252, w: -.16263321}
        outSlope: {x: 0, y: 0, z: .0519562252, w: -.16263321}
        tangentMode: 58
      - time: .600000083
        value: {x: 0, y: 0, z: .953431785, w: .301608741}
        inSlope: {x: 0, y: 0, z: .0376510993, w: -.118873835}
        outSlope: {x: 0, y: 0, z: .0376510993, w: -.118873835}
        tangentMode: 0
      - time: .616666734
        value: {x: 0, y: 0, z: .953947544, w: .299973428}
        inSlope: {x: 0, y: 0, z: .0250697378, w: -.0796357542}
        outSlope: {x: 0, y: 0, z: .0250697378, w: -.0796357542}
        tangentMode: 2
      - time: .633333385
        value: {x: 0, y: 0, z: .954267442, w: .298954219}
        inSlope: {x: 0, y: 0, z: .0141066443, w: -.044982478}
        outSlope: {x: 0, y: 0, z: .0141066443, w: -.044982478}
        tangentMode: 15
      - time: .650000036
        value: {x: 0, y: 0, z: .954417765, w: .298474014}
        inSlope: {x: 0, y: 0, z: .00467420043, w: -.0149318725}
        outSlope: {x: 0, y: 0, z: .00467420043, w: -.0149318725}
        tangentMode: 0
      - time: .666666687
        value: {x: 0, y: 0, z: .954423249, w: .29845649}
        inSlope: {x: 0, y: 0, z: -.00329017942, w: .0105160568}
        outSlope: {x: 0, y: 0, z: -.00329017942, w: .0105160568}
        tangentMode: 1684105299
      - time: .683333337
        value: {x: 0, y: 0, z: .954308093, w: .298824549}
        inSlope: {x: 0, y: 0, z: -.00981510617, w: .0313291252}
        outSlope: {x: 0, y: 0, z: -.00981510617, w: .0313291252}
        tangentMode: 0
      - time: .699999988
        value: {x: 0, y: 0, z: .954096079, w: .299500793}
        inSlope: {x: 0, y: 0, z: -.0149166733, w: .0474983901}
        outSlope: {x: 0, y: 0, z: -.0149166733, w: .0474983901}
        tangentMode: 0
      - time: .716666639
        value: {x: 0, y: 0, z: .953810871, w: .300407827}
        inSlope: {x: 0, y: 0, z: -.0186020322, w: .0590408407}
        outSlope: {x: 0, y: 0, z: -.0186020322, w: .0590408407}
        tangentMode: 112981928
      - time: .73333329
        value: {x: 0, y: 0, z: .953476012, w: .301468819}
        inSlope: {x: 0, y: 0, z: -.0208586641, w: .0659600496}
        outSlope: {x: 0, y: 0, z: -.0208586641, w: .0659600496}
        tangentMode: 0
      - time: .74999994
        value: {x: 0, y: 0, z: .953115582, w: .302606493}
        inSlope: {x: 0, y: 0, z: -.0216669049, w: .068243511}
        outSlope: {x: 0, y: 0, z: -.0216669049, w: .068243511}
        tangentMode: 61
      - time: .766666591
        value: {x: 0, y: 0, z: .952753782, w: .303743601}
        inSlope: {x: 0, y: 0, z: -.0210088678, w: .0659081936}
        outSlope: {x: 0, y: 0, z: -.0210088678, w: .0659081936}
        tangentMode: 0
      - time: .783333242
        value: {x: 0, y: 0, z: .952415287, w: .304803431}
        inSlope: {x: 0, y: 0, z: -.0188631006, w: .0589612685}
        outSlope: {x: 0, y: 0, z: -.0188631006, w: .0589612685}
        tangentMode: 2139095040
      - time: .799999893
        value: {x: 0, y: 0, z: .952125013, w: .305708975}
        inSlope: {x: 0, y: 0, z: -.0152135044, w: .0474036187}
        outSlope: {x: 0, y: 0, z: -.0152135044, w: .0474036187}
        tangentMode: 1852797440
      - time: .816666543
        value: {x: 0, y: 0, z: .951908171, w: .30638355}
        inSlope: {x: 0, y: 0, z: -.0100529287, w: .031249553}
        outSlope: {x: 0, y: 0, z: -.0100529287, w: .031249553}
        tangentMode: 4
      - time: .833333194
        value: {x: 0, y: 0, z: .951789916, w: .306750625}
        inSlope: {x: 0, y: 0, z: -.00337779848, w: .0104883406}
        outSlope: {x: 0, y: 0, z: -.00337779848, w: .0104883406}
        tangentMode: 0
      - time: .849999845
        value: {x: 0, y: 0, z: .951795578, w: .306733161}
        inSlope: {x: 0, y: 0, z: .00479400577, w: -.0148898512}
        outSlope: {x: 0, y: 0, z: .00479400577, w: -.0148898512}
        tangentMode: 0
      - time: .866666496
        value: {x: 0, y: 0, z: .951949716, w: .306254297}
        inSlope: {x: 0, y: 0, z: .0144249331, w: -.0448814481}
        outSlope: {x: 0, y: 0, z: .0144249331, w: -.0448814481}
        tangentMode: 0
      - time: .883333147
        value: {x: 0, y: 0, z: .952276409, w: .305237114}
        inSlope: {x: 0, y: 0, z: .0254595522, w: -.0795150548}
        outSlope: {x: 0, y: 0, z: .0254595522, w: -.0795150548}
        tangentMode: 0
      - time: .899999797
        value: {x: 0, y: 0, z: .952798367, w: .303603798}
        inSlope: {x: 0, y: 0, z: .0378120318, w: -.118818402}
        outSlope: {x: 0, y: 0, z: .0378120318, w: -.118818402}
        tangentMode: 1399611747
      - time: .916666448
        value: {x: 0, y: 0, z: .953536808, w: .301276505}
        inSlope: {x: 0, y: 0, z: .0513715036, w: -.162816495}
        outSlope: {x: 0, y: 0, z: .0513715036, w: -.162816495}
        tangentMode: 0
      - time: .933333099
        value: {x: 0, y: 0, z: .954510748, w: .298176587}
        inSlope: {x: 0, y: 0, z: .0659895539, w: -.211570174}
        outSlope: {x: 0, y: 0, z: .0659895539, w: -.211570174}
        tangentMode: 2
      - time: .94999975
        value: {x: 0, y: 0, z: .955736458, w: .294224173}
        inSlope: {x: 0, y: 0, z: .0814766437, w: -.265123188}
        outSlope: {x: 0, y: 0, z: .0814766437, w: -.265123188}
        tangentMode: 15
      - time: .9666664
        value: {x: 0, y: 0, z: .957226634, w: .289339155}
        inSlope: {x: 0, y: 0, z: .0976074636, w: -.323531926}
        outSlope: {x: 0, y: 0, z: .0976074636, w: -.323531926}
        tangentMode: 0
      - time: .983333051
        value: {x: 0, y: 0, z: .958990037, w: .283439785}
        inSlope: {x: 0, y: 0, z: .114110917, w: -.386888266}
        outSlope: {x: 0, y: 0, z: .114110917, w: -.386888266}
        tangentMode: 10300
      - time: 1
        value: {x: 0, y: 0, z: .961030364, w: .276442766}
        inSlope: {x: 0, y: 0, z: .122417524, w: -.41981405}
        outSlope: {x: 0, y: 0, z: .122417524, w: -.41981405}
        tangentMode: 0
      m_PreInfinity: 2
      m_PostInfinity: 2
    path: 
  - curve:
      serializedVersion: 2
      m_Curve:
      - time: 0
        value: {x: 0, y: 0, z: 0, w: 1}
        inSlope: {x: 0, y: 0, z: 0, w: 0}
        outSlope: {x: 0, y: 0, z: 0, w: 0}
        tangentMode: 0
      - time: .0166666675
        value: {x: 0, y: 0, z: 0, w: 1}
        inSlope: {x: 0, y: 0, z: 0, w: 0}
        outSlope: {x: 0, y: 0, z: 0, w: 0}
        tangentMode: 0
      - time: .0333333351
        value: {x: 0, y: 0, z: 0, w: 1}
        inSlope: {x: 0, y: 0, z: 0, w: 0}
        outSlope: {x: 0, y: 0, z: 0, w: 0}
        tangentMode: 0
      - time: .0500000045
        value: {x: 0, y: 0, z: 0, w: 1}
        inSlope: {x: 0, y: 0, z: 0, w: 0}
        outSlope: {x: 0, y: 0, z: 0, w: 0}
        tangentMode: 1044102076
      - time: .0666666701
        value: {x: 0, y: 0, z: 0, w: 1}
        inSlope: {x: 0, y: 0, z: 0, w: 0}
        outSlope: {x: 0, y: 0, z: 0, w: 0}
        tangentMode: 0
      - time: .0833333358
        value: {x: 0, y: 0, z: 0, w: 1}
        inSlope: {x: 0, y: 0, z: 0, w: 0}
        outSlope: {x: 0, y: 0, z: 0, w: 0}
        tangentMode: 0
      - time: .100000001
        value: {x: 0, y: 0, z: 0, w: 1}
        inSlope: {x: 0, y: 0, z: 0, w: 0}
        outSlope: {x: 0, y: 0, z: 0, w: 0}
        tangentMode: 0
      - time: .116666667
        value: {x: 0, y: 0, z: 0, w: 1}
        inSlope: {x: 0, y: 0, z: 0, w: 0}
        outSlope: {x: 0, y: 0, z: 0, w: 0}
        tangentMode: 0
      - time: .13333334
        value: {x: 0, y: 0, z: 0, w: 1}
        inSlope: {x: 0, y: 0, z: 0, w: 0}
        outSlope: {x: 0, y: 0, z: 0, w: 0}
        tangentMode: 1054168410
      - time: .150000006
        value: {x: 0, y: 0, z: 0, w: 1}
        inSlope: {x: 0, y: 0, z: 0, w: 0}
        outSlope: {x: 0, y: 0, z: 0, w: 0}
        tangentMode: 0
      - time: .166666672
        value: {x: 0, y: 0, z: 0, w: 1}
        inSlope: {x: 0, y: 0, z: 0, w: 0}
        outSlope: {x: 0, y: 0, z: 0, w: 0}
        tangentMode: 0
      - time: .183333337
        value: {x: 0, y: 0, z: 0, w: 1}
        inSlope: {x: 0, y: 0, z: 0, w: 0}
        outSlope: {x: 0, y: 0, z: 0, w: 0}
        tangentMode: 0
      - time: .200000003
        value: {x: 0, y: 0, z: 0, w: 1}
        inSlope: {x: 0, y: 0, z: 0, w: 0}
        outSlope: {x: 0, y: 0, z: 0, w: 0}
        tangentMode: 0
      - time: .216666669
        value: {x: 0, y: 0, z: 0, w: 1}
        inSlope: {x: 0, y: 0, z: 0, w: 0}
        outSlope: {x: 0, y: 0, z: 0, w: 0}
        tangentMode: 1059481191
      - time: .233333334
        value: {x: 0, y: 0, z: 0, w: 1}
        inSlope: {x: 0, y: 0, z: 0, w: 0}
        outSlope: {x: 0, y: 0, z: 0, w: 0}
        tangentMode: 0
      - time: .25
        value: {x: 0, y: 0, z: 0, w: 1}
        inSlope: {x: 0, y: 0, z: 0, w: 0}
        outSlope: {x: 0, y: 0, z: 0, w: 0}
        tangentMode: 0
      - time: .266666681
        value: {x: 0, y: 0, z: 0, w: 1}
        inSlope: {x: 0, y: 0, z: 0, w: 0}
        outSlope: {x: 0, y: 0, z: 0, w: 0}
        tangentMode: 0
      - time: .283333361
        value: {x: 0, y: 0, z: 0, w: 1}
        inSlope: {x: 0, y: 0, z: 0, w: 0}
        outSlope: {x: 0, y: 0, z: 0, w: 0}
        tangentMode: 0
      - time: .300000042
        value: {x: 0, y: 0, z: 0, w: 1}
        inSlope: {x: 0, y: 0, z: 0, w: 0}
        outSlope: {x: 0, y: 0, z: 0, w: 0}
        tangentMode: 1063395871
      - time: .316666722
        value: {x: 0, y: 0, z: 0, w: 1}
        inSlope: {x: 0, y: 0, z: 0, w: 0}
        outSlope: {x: 0, y: 0, z: 0, w: 0}
        tangentMode: 0
      - time: .333333403
        value: {x: 0, y: 0, z: 0, w: 1}
        inSlope: {x: 0, y: 0, z: 0, w: 0}
        outSlope: {x: 0, y: 0, z: 0, w: 0}
        tangentMode: 0
      - time: .350000083
        value: {x: 0, y: 0, z: 0, w: 1}
        inSlope: {x: 0, y: 0, z: 0, w: 0}
        outSlope: {x: 0, y: 0, z: 0, w: 0}
        tangentMode: 1251
      - time: .366666764
        value: {x: 0, y: 0, z: 0, w: 1}
        inSlope: {x: 0, y: 0, z: 0, w: 0}
        outSlope: {x: 0, y: 0, z: 0, w: 0}
        tangentMode: 0
      - time: .383333445
        value: {x: 0, y: 0, z: 0, w: 1}
        inSlope: {x: 0, y: 0, z: 0, w: 0}
        outSlope: {x: 0, y: 0, z: 0, w: 0}
        tangentMode: 0
      - time: .400000125
        value: {x: 0, y: 0, z: 0, w: 1}
        inSlope: {x: 0, y: 0, z: 0, w: 0}
        outSlope: {x: 0, y: 0, z: 0, w: 0}
        tangentMode: 0
      - time: .416666806
        value: {x: 0, y: 0, z: 0, w: 1}
        inSlope: {x: 0, y: 0, z: 0, w: 0}
        outSlope: {x: 0, y: 0, z: 0, w: 0}
        tangentMode: 1042983595
      - time: .433333486
        value: {x: 0, y: 0, z: 0, w: 1}
        inSlope: {x: 0, y: 0, z: 0, w: 0}
        outSlope: {x: 0, y: 0, z: 0, w: 0}
        tangentMode: 0
      - time: .450000167
        value: {x: 0, y: 0, z: 0, w: 1}
        inSlope: {x: 0, y: 0, z: 0, w: 0}
        outSlope: {x: 0, y: 0, z: 0, w: 0}
        tangentMode: 0
      - time: .466666847
        value: {x: 0, y: 0, z: 0, w: 1}
        inSlope: {x: 0, y: 0, z: 0, w: 0}
        outSlope: {x: 0, y: 0, z: 0, w: 0}
        tangentMode: 0
      - time: .483333528
        value: {x: 0, y: 0, z: 0, w: 1}
        inSlope: {x: 0, y: 0, z: 0, w: 0}
        outSlope: {x: 0, y: 0, z: 0, w: 0}
        tangentMode: 0
      - time: .500000179
        value: {x: 0, y: 0, z: 0, w: 1}
        inSlope: {x: 0, y: 0, z: 0, w: 0}
        outSlope: {x: 0, y: 0, z: 0, w: 0}
        tangentMode: 1053609169
      - time: .51666683
        value: {x: 0, y: 0, z: 0, w: 1}
        inSlope: {x: 0, y: 0, z: 0, w: 0}
        outSlope: {x: 0, y: 0, z: 0, w: 0}
        tangentMode: 0
      - time: .53333348
        value: {x: 0, y: 0, z: 0, w: 1}
        inSlope: {x: 0, y: 0, z: 0, w: 0}
        outSlope: {x: 0, y: 0, z: 0, w: 0}
        tangentMode: 0
      - time: .550000131
        value: {x: 0, y: 0, z: 0, w: 1}
        inSlope: {x: 0, y: 0, z: 0, w: 0}
        outSlope: {x: 0, y: 0, z: 0, w: 0}
        tangentMode: 0
      - time: .566666782
        value: {x: 0, y: 0, z: 0, w: 1}
        inSlope: {x: 0, y: 0, z: 0, w: 0}
        outSlope: {x: 0, y: 0, z: 0, w: 0}
        tangentMode: 0
      - time: .583333433
        value: {x: 0, y: 0, z: 0, w: 1}
        inSlope: {x: 0, y: 0, z: 0, w: 0}
        outSlope: {x: 0, y: 0, z: 0, w: 0}
        tangentMode: 1059201571
      - time: .600000083
        value: {x: 0, y: 0, z: 0, w: 1}
        inSlope: {x: 0, y: 0, z: 0, w: 0}
        outSlope: {x: 0, y: 0, z: 0, w: 0}
        tangentMode: 0
      - time: .616666734
        value: {x: 0, y: 0, z: 0, w: 1}
        inSlope: {x: 0, y: 0, z: 0, w: 0}
        outSlope: {x: 0, y: 0, z: 0, w: 0}
        tangentMode: 0
      - time: .633333385
        value: {x: 0, y: 0, z: 0, w: 1}
        inSlope: {x: 0, y: 0, z: 0, w: 0}
        outSlope: {x: 0, y: 0, z: 0, w: 0}
        tangentMode: 0
      - time: .650000036
        value: {x: 0, y: 0, z: 0, w: 1}
        inSlope: {x: 0, y: 0, z: 0, w: 0}
        outSlope: {x: 0, y: 0, z: 0, w: 0}
        tangentMode: 0
      - time: .666666687
        value: {x: 0, y: 0, z: 0, w: 1}
        inSlope: {x: 0, y: 0, z: 0, w: 0}
        outSlope: {x: 0, y: 0, z: 0, w: 0}
        tangentMode: 1063116251
      - time: .683333337
        value: {x: 0, y: 0, z: 0, w: 1}
        inSlope: {x: 0, y: 0, z: 0, w: 0}
        outSlope: {x: 0, y: 0, z: 0, w: 0}
        tangentMode: 0
      - time: .699999988
        value: {x: 0, y: 0, z: 0, w: 1}
        inSlope: {x: 0, y: 0, z: 0, w: 0}
        outSlope: {x: 0, y: 0, z: 0, w: 0}
        tangentMode: 0
      - time: .716666639
        value: {x: 0, y: 0, z: 0, w: 1}
        inSlope: {x: 0, y: 0, z: 0, w: 0}
        outSlope: {x: 0, y: 0, z: 0, w: 0}
        tangentMode: 0
      - time: .73333329
        value: {x: 0, y: 0, z: 0, w: 1}
        inSlope: {x: 0, y: 0, z: 0, w: 0}
        outSlope: {x: 0, y: 0, z: 0, w: 0}
        tangentMode: 0
      - time: .74999994
        value: {x: 0, y: 0, z: 0, w: 1}
        inSlope: {x: 0, y: 0, z: 0, w: 0}
        outSlope: {x: 0, y: 0, z: 0, w: 0}
        tangentMode: 0
      - time: .766666591
        value: {x: 0, y: 0, z: 0, w: 1}
        inSlope: {x: 0, y: 0, z: 0, w: 0}
        outSlope: {x: 0, y: 0, z: 0, w: 0}
        tangentMode: 0
      - time: .783333242
        value: {x: 0, y: 0, z: 0, w: 1}
        inSlope: {x: 0, y: 0, z: 0, w: 0}
        outSlope: {x: 0, y: 0, z: 0, w: 0}
        tangentMode: 1041865114
      - time: .799999893
        value: {x: 0, y: 0, z: 0, w: 1}
        inSlope: {x: 0, y: 0, z: 0, w: 0}
        outSlope: {x: 0, y: 0, z: 0, w: 0}
        tangentMode: 0
      - time: .816666543
        value: {x: 0, y: 0, z: 0, w: 1}
        inSlope: {x: 0, y: 0, z: 0, w: 0}
        outSlope: {x: 0, y: 0, z: 0, w: 0}
        tangentMode: 0
      - time: .833333194
        value: {x: 0, y: 0, z: 0, w: 1}
        inSlope: {x: 0, y: 0, z: 0, w: 0}
        outSlope: {x: 0, y: 0, z: 0, w: 0}
        tangentMode: 0
      - time: .849999845
        value: {x: 0, y: 0, z: 0, w: 1}
        inSlope: {x: 0, y: 0, z: 0, w: 0}
        outSlope: {x: 0, y: 0, z: 0, w: 0}
        tangentMode: 0
      - time: .866666496
        value: {x: 0, y: 0, z: 0, w: 1}
        inSlope: {x: 0, y: 0, z: 0, w: 0}
        outSlope: {x: 0, y: 0, z: 0, w: 0}
        tangentMode: 1053049928
      - time: .883333147
        value: {x: 0, y: 0, z: 0, w: 1}
        inSlope: {x: 0, y: 0, z: 0, w: 0}
        outSlope: {x: 0, y: 0, z: 0, w: 0}
        tangentMode: 0
      - time: .899999797
        value: {x: 0, y: 0, z: 0, w: 1}
        inSlope: {x: 0, y: 0, z: 0, w: 0}
        outSlope: {x: 0, y: 0, z: 0, w: 0}
        tangentMode: 0
      - time: .916666448
        value: {x: 0, y: 0, z: 0, w: 1}
        inSlope: {x: 0, y: 0, z: 0, w: 0}
        outSlope: {x: 0, y: 0, z: 0, w: 0}
        tangentMode: 0
      - time: .933333099
        value: {x: 0, y: 0, z: 0, w: 1}
        inSlope: {x: 0, y: 0, z: 0, w: 0}
        outSlope: {x: 0, y: 0, z: 0, w: 0}
        tangentMode: 0
      - time: .94999975
        value: {x: 0, y: 0, z: 0, w: 1}
        inSlope: {x: 0, y: 0, z: 0, w: 0}
        outSlope: {x: 0, y: 0, z: 0, w: 0}
        tangentMode: 1058921951
      - time: .9666664
        value: {x: 0, y: 0, z: 0, w: 1}
        inSlope: {x: 0, y: 0, z: 0, w: 0}
        outSlope: {x: 0, y: 0, z: 0, w: 0}
        tangentMode: 0
      - time: .983333051
        value: {x: 0, y: 0, z: 0, w: 1}
        inSlope: {x: 0, y: 0, z: 0, w: 0}
        outSlope: {x: 0, y: 0, z: 0, w: 0}
        tangentMode: 0
      - time: 1
        value: {x: 0, y: 0, z: 0, w: 1}
        inSlope: {x: 0, y: 0, z: 0, w: 0}
        outSlope: {x: 0, y: 0, z: 0, w: 0}
        tangentMode: 0
      m_PreInfinity: 2
      m_PostInfinity: 2
    path: FrontLegShadow
  m_CompressedRotationCurves: []
  m_PositionCurves:
  - curve:
      serializedVersion: 2
      m_Curve:
      - time: 0
        value: {x: 0, y: 0, z: 0}
        inSlope: {x: 4.8931365, y: .640692174, z: 0}
        outSlope: {x: 4.8931365, y: .640692174, z: 0}
        tangentMode: 0
      - time: .25
        value: {x: 1.22328413, y: .160173044, z: 0}
        inSlope: {x: .45964551, y: 1.57483065, z: 0}
        outSlope: {x: .45964551, y: 1.57483065, z: 0}
        tangentMode: 1160671845
      - time: 1
        value: {x: -1.75709999, y: 2.04189992, z: 0}
        inSlope: {x: -3.97384548, y: 2.50896907, z: 0}
        outSlope: {x: -3.97384548, y: 2.50896907, z: 0}
        tangentMode: 3145782
      m_PreInfinity: 2
      m_PostInfinity: 2
    path: 
  - curve:
      serializedVersion: 2
      m_Curve:
      - time: 0
        value: {x: .5, y: .25, z: 0}
        inSlope: {x: 0, y: 0, z: 0}
        outSlope: {x: 0, y: 0, z: 0}
        tangentMode: 0
      - time: .25
        value: {x: .5, y: .25, z: 0}
        inSlope: {x: -.726666629, y: -.0333333313, z: 0}
        outSlope: {x: -.726666629, y: -.0333333313, z: 0}
        tangentMode: 120776648
      - time: 1
        value: {x: -.589999974, y: .200000003, z: 0}
        inSlope: {x: -1.45333326, y: -.0666666627, z: 0}
        outSlope: {x: -1.45333326, y: -.0666666627, z: 0}
        tangentMode: -392542
      m_PreInfinity: 2
      m_PostInfinity: 2
    path: FrontLegShadow
  - curve:
      serializedVersion: 2
      m_Curve:
      - time: 0
        value: {x: -1, y: 1.70000005, z: 1.20000005}
        inSlope: {x: -.0799999237, y: -2.4000001, z: 0}
        outSlope: {x: -.0799999237, y: -2.4000001, z: 0}
        tangentMode: 0
      - time: .25
        value: {x: -1.01999998, y: 1.10000002, z: 1.20000005}
        inSlope: {x: -.0799999237, y: -2.4000001, z: 0}
        outSlope: {x: -.0799999237, y: -2.4000001, z: 0}
        tangentMode: 3
      m_PreInfinity: 2
      m_PostInfinity: 2
    path: FrontLegShadow/Mesh
  m_ScaleCurves:
  - curve:
      serializedVersion: 2
      m_Curve:
      - time: 0
        value: {x: 1, y: 1, z: 1}
        inSlope: {x: -.422426283, y: -.422426283, z: -.422426283}
        outSlope: {x: -.422426283, y: -.422426283, z: -.422426283}
        tangentMode: 0
      - time: 1
        value: {x: .577573717, y: .577573717, z: .577573717}
        inSlope: {x: -.422426283, y: -.422426283, z: -.422426283}
        outSlope: {x: -.422426283, y: -.422426283, z: -.422426283}
        tangentMode: 84
      m_PreInfinity: 2
      m_PostInfinity: 2
    path: 
  - curve:
      serializedVersion: 2
      m_Curve:
      - time: 0
        value: {x: 1, y: 1, z: 1}
        inSlope: {x: 0, y: 0, z: 0}
        outSlope: {x: 0, y: 0, z: 0}
        tangentMode: -6245928
      - time: 1
        value: {x: 1, y: 1, z: 1}
        inSlope: {x: 0, y: 0, z: 0}
        outSlope: {x: 0, y: 0, z: 0}
        tangentMode: 125811424
      m_PreInfinity: 2
      m_PostInfinity: 2
    path: FrontLegShadow
  m_FloatCurves: []
  m_PPtrCurves: []
  m_SampleRate: 60
  m_WrapMode: 0
  m_Bounds:
    m_Center: {x: 0, y: 0, z: 0}
    m_Extent: {x: 0, y: 0, z: 0}
  m_ClipBindingConstant:
    genericBindings:
    - path: 0
      attribute: 1
      script: {fileID: 0}
      classID: 4
      customType: 0
      isPPtrCurve: 0
    - path: 940207605
      attribute: 1
      script: {fileID: 0}
      classID: 4
      customType: 0
      isPPtrCurve: 0
    - path: 3057306722
      attribute: 1
      script: {fileID: 0}
      classID: 4
      customType: 0
      isPPtrCurve: 0
    - path: 0
      attribute: 2
      script: {fileID: 0}
      classID: 4
      customType: 0
      isPPtrCurve: 0
    - path: 0
      attribute: 3
      script: {fileID: 0}
      classID: 4
      customType: 0
      isPPtrCurve: 0
    - path: 940207605
      attribute: 2
      script: {fileID: 0}
      classID: 4
      customType: 0
      isPPtrCurve: 0
    - path: 940207605
      attribute: 3
      script: {fileID: 0}
      classID: 4
      customType: 0
      isPPtrCurve: 0
    pptrCurveMapping: []
  m_AnimationClipSettings:
    serializedVersion: 2
    m_StartTime: 0
    m_StopTime: 1
    m_OrientationOffsetY: 0
    m_Level: 0
    m_CycleOffset: 0
    m_LoopTime: 0
    m_LoopBlend: 0
    m_LoopBlendOrientation: 0
    m_LoopBlendPositionY: 0
    m_LoopBlendPositionXZ: 0
    m_KeepOriginalOrientation: 0
    m_KeepOriginalPositionY: 1
    m_KeepOriginalPositionXZ: 0
    m_HeightFromFeet: 0
    m_Mirror: 0
  m_EditorCurves:
  - curve:
      serializedVersion: 2
      m_Curve:
      - time: 0
        value: 0
        inSlope: 4.8931365
        outSlope: 4.8931365
        tangentMode: 10
      - time: .25
        value: 1.22328413
        inSlope: .45964551
        outSlope: .45964551
        tangentMode: 10
      - time: 1
        value: -1.75709999
        inSlope: -3.97384548
        outSlope: -3.97384548
        tangentMode: 10
      m_PreInfinity: 2
      m_PostInfinity: 2
    attribute: m_LocalPosition.x
    path: 
    classID: 4
    script: {fileID: 0}
  - curve:
      serializedVersion: 2
      m_Curve:
      - time: 0
        value: 0
        inSlope: .640692174
        outSlope: .640692174
        tangentMode: 10
      - time: .25
        value: .160173044
        inSlope: 1.57483065
        outSlope: 1.57483065
        tangentMode: 10
      - time: 1
        value: 2.04189992
        inSlope: 2.50896907
        outSlope: 2.50896907
        tangentMode: 10
      m_PreInfinity: 2
      m_PostInfinity: 2
    attribute: m_LocalPosition.y
    path: 
    classID: 4
    script: {fileID: 0}
  - curve:
      serializedVersion: 2
      m_Curve:
      - time: 0
        value: 0
        inSlope: 0
        outSlope: 0
        tangentMode: 10
      - time: .25
        value: 0
        inSlope: 0
        outSlope: 0
        tangentMode: 10
      - time: 1
        value: 0
        inSlope: 0
        outSlope: 0
        tangentMode: 10
      m_PreInfinity: 2
      m_PostInfinity: 2
    attribute: m_LocalPosition.z
    path: 
    classID: 4
    script: {fileID: 0}
  - curve:
      serializedVersion: 2
      m_Curve:
      - time: 0
        value: 0
        inSlope: 0
        outSlope: 0
        tangentMode: 0
      - time: .0166666675
        value: 0
        inSlope: 0
        outSlope: 0
        tangentMode: 0
      - time: .0333333351
        value: 0
        inSlope: 0
        outSlope: 0
        tangentMode: 0
      - time: .0500000045
        value: 0
        inSlope: 0
        outSlope: 0
        tangentMode: 0
      - time: .0666666701
        value: 0
        inSlope: 0
        outSlope: 0
        tangentMode: 0
      - time: .0833333358
        value: 0
        inSlope: 0
        outSlope: 0
        tangentMode: 0
      - time: .100000001
        value: 0
        inSlope: 0
        outSlope: 0
        tangentMode: 0
      - time: .116666667
        value: 0
        inSlope: 0
        outSlope: 0
        tangentMode: 0
      - time: .13333334
        value: 0
        inSlope: 0
        outSlope: 0
        tangentMode: 0
      - time: .150000006
        value: 0
        inSlope: 0
        outSlope: 0
        tangentMode: 0
      - time: .166666672
        value: 0
        inSlope: 0
        outSlope: 0
        tangentMode: 0
      - time: .183333337
        value: 0
        inSlope: 0
        outSlope: 0
        tangentMode: 0
      - time: .200000003
        value: 0
        inSlope: 0
        outSlope: 0
        tangentMode: 0
      - time: .216666669
        value: 0
        inSlope: 0
        outSlope: 0
        tangentMode: 0
      - time: .233333334
        value: 0
        inSlope: 0
        outSlope: 0
        tangentMode: 0
      - time: .25
        value: 0
        inSlope: 0
        outSlope: 0
        tangentMode: 0
      - time: .266666681
        value: 0
        inSlope: 0
        outSlope: 0
        tangentMode: 0
      - time: .283333361
        value: 0
        inSlope: 0
        outSlope: 0
        tangentMode: 0
      - time: .300000042
        value: 0
        inSlope: 0
        outSlope: 0
        tangentMode: 0
      - time: .316666722
        value: 0
        inSlope: 0
        outSlope: 0
        tangentMode: 0
      - time: .333333403
        value: 0
        inSlope: 0
        outSlope: 0
        tangentMode: 0
      - time: .350000083
        value: 0
        inSlope: 0
        outSlope: 0
        tangentMode: 0
      - time: .366666764
        value: 0
        inSlope: 0
        outSlope: 0
        tangentMode: 0
      - time: .383333445
        value: 0
        inSlope: 0
        outSlope: 0
        tangentMode: 0
      - time: .400000125
        value: 0
        inSlope: 0
        outSlope: 0
        tangentMode: 0
      - time: .416666806
        value: 0
        inSlope: 0
        outSlope: 0
        tangentMode: 0
      - time: .433333486
        value: 0
        inSlope: 0
        outSlope: 0
        tangentMode: 0
      - time: .450000167
        value: 0
        inSlope: 0
        outSlope: 0
        tangentMode: 0
      - time: .466666847
        value: 0
        inSlope: 0
        outSlope: 0
        tangentMode: 0
      - time: .483333528
        value: 0
        inSlope: 0
        outSlope: 0
        tangentMode: 0
      - time: .500000179
        value: 0
        inSlope: 0
        outSlope: 0
        tangentMode: 0
      - time: .51666683
        value: 0
        inSlope: 0
        outSlope: 0
        tangentMode: 0
      - time: .53333348
        value: 0
        inSlope: 0
        outSlope: 0
        tangentMode: 0
      - time: .550000131
        value: 0
        inSlope: 0
        outSlope: 0
        tangentMode: 0
      - time: .566666782
        value: 0
        inSlope: 0
        outSlope: 0
        tangentMode: 0
      - time: .583333433
        value: 0
        inSlope: 0
        outSlope: 0
        tangentMode: 0
      - time: .600000083
        value: 0
        inSlope: 0
        outSlope: 0
        tangentMode: 0
      - time: .616666734
        value: 0
        inSlope: 0
        outSlope: 0
        tangentMode: 0
      - time: .633333385
        value: 0
        inSlope: 0
        outSlope: 0
        tangentMode: 0
      - time: .650000036
        value: 0
        inSlope: 0
        outSlope: 0
        tangentMode: 0
      - time: .666666687
        value: 0
        inSlope: 0
        outSlope: 0
        tangentMode: 0
      - time: .683333337
        value: 0
        inSlope: 0
        outSlope: 0
        tangentMode: 0
      - time: .699999988
        value: 0
        inSlope: 0
        outSlope: 0
        tangentMode: 0
      - time: .716666639
        value: 0
        inSlope: 0
        outSlope: 0
        tangentMode: 0
      - time: .73333329
        value: 0
        inSlope: 0
        outSlope: 0
        tangentMode: 0
      - time: .74999994
        value: 0
        inSlope: 0
        outSlope: 0
        tangentMode: 0
      - time: .766666591
        value: 0
        inSlope: 0
        outSlope: 0
        tangentMode: 0
      - time: .783333242
        value: 0
        inSlope: 0
        outSlope: 0
        tangentMode: 0
      - time: .799999893
        value: 0
        inSlope: 0
        outSlope: 0
        tangentMode: 0
      - time: .816666543
        value: 0
        inSlope: 0
        outSlope: 0
        tangentMode: 0
      - time: .833333194
        value: 0
        inSlope: 0
        outSlope: 0
        tangentMode: 0
      - time: .849999845
        value: 0
        inSlope: 0
        outSlope: 0
        tangentMode: 0
      - time: .866666496
        value: 0
        inSlope: 0
        outSlope: 0
        tangentMode: 0
      - time: .883333147
        value: 0
        inSlope: 0
        outSlope: 0
        tangentMode: 0
      - time: .899999797
        value: 0
        inSlope: 0
        outSlope: 0
        tangentMode: 0
      - time: .916666448
        value: 0
        inSlope: 0
        outSlope: 0
        tangentMode: 0
      - time: .933333099
        value: 0
        inSlope: 0
        outSlope: 0
        tangentMode: 0
      - time: .94999975
        value: 0
        inSlope: 0
        outSlope: 0
        tangentMode: 0
      - time: .9666664
        value: 0
        inSlope: 0
        outSlope: 0
        tangentMode: 0
      - time: .983333051
        value: 0
        inSlope: 0
        outSlope: 0
        tangentMode: 0
      - time: 1
        value: 0
        inSlope: 0
        outSlope: 0
        tangentMode: 0
      m_PreInfinity: 2
      m_PostInfinity: 2
    attribute: m_LocalRotation.x
    path: 
    classID: 4
    script: {fileID: 0}
  - curve:
      serializedVersion: 2
      m_Curve:
      - time: 0
        value: 0
        inSlope: 0
        outSlope: 0
        tangentMode: 0
      - time: .0166666675
        value: 0
        inSlope: 0
        outSlope: 0
        tangentMode: 0
      - time: .0333333351
        value: 0
        inSlope: 0
        outSlope: 0
        tangentMode: 0
      - time: .0500000045
        value: 0
        inSlope: 0
        outSlope: 0
        tangentMode: 0
      - time: .0666666701
        value: 0
        inSlope: 0
        outSlope: 0
        tangentMode: 0
      - time: .0833333358
        value: 0
        inSlope: 0
        outSlope: 0
        tangentMode: 0
      - time: .100000001
        value: 0
        inSlope: 0
        outSlope: 0
        tangentMode: 0
      - time: .116666667
        value: 0
        inSlope: 0
        outSlope: 0
        tangentMode: 0
      - time: .13333334
        value: 0
        inSlope: 0
        outSlope: 0
        tangentMode: 0
      - time: .150000006
        value: 0
        inSlope: 0
        outSlope: 0
        tangentMode: 0
      - time: .166666672
        value: 0
        inSlope: 0
        outSlope: 0
        tangentMode: 0
      - time: .183333337
        value: 0
        inSlope: 0
        outSlope: 0
        tangentMode: 0
      - time: .200000003
        value: 0
        inSlope: 0
        outSlope: 0
        tangentMode: 0
      - time: .216666669
        value: 0
        inSlope: 0
        outSlope: 0
        tangentMode: 0
      - time: .233333334
        value: 0
        inSlope: 0
        outSlope: 0
        tangentMode: 0
      - time: .25
        value: 0
        inSlope: 0
        outSlope: 0
        tangentMode: 0
      - time: .266666681
        value: 0
        inSlope: 0
        outSlope: 0
        tangentMode: 0
      - time: .283333361
        value: 0
        inSlope: 0
        outSlope: 0
        tangentMode: 0
      - time: .300000042
        value: 0
        inSlope: 0
        outSlope: 0
        tangentMode: 0
      - time: .316666722
        value: 0
        inSlope: 0
        outSlope: 0
        tangentMode: 0
      - time: .333333403
        value: 0
        inSlope: 0
        outSlope: 0
        tangentMode: 0
      - time: .350000083
        value: 0
        inSlope: 0
        outSlope: 0
        tangentMode: 0
      - time: .366666764
        value: 0
        inSlope: 0
        outSlope: 0
        tangentMode: 0
      - time: .383333445
        value: 0
        inSlope: 0
        outSlope: 0
        tangentMode: 0
      - time: .400000125
        value: 0
        inSlope: 0
        outSlope: 0
        tangentMode: 0
      - time: .416666806
        value: 0
        inSlope: 0
        outSlope: 0
        tangentMode: 0
      - time: .433333486
        value: 0
        inSlope: 0
        outSlope: 0
        tangentMode: 0
      - time: .450000167
        value: 0
        inSlope: 0
        outSlope: 0
        tangentMode: 0
      - time: .466666847
        value: 0
        inSlope: 0
        outSlope: 0
        tangentMode: 0
      - time: .483333528
        value: 0
        inSlope: 0
        outSlope: 0
        tangentMode: 0
      - time: .500000179
        value: 0
        inSlope: 0
        outSlope: 0
        tangentMode: 0
      - time: .51666683
        value: 0
        inSlope: 0
        outSlope: 0
        tangentMode: 0
      - time: .53333348
        value: 0
        inSlope: 0
        outSlope: 0
        tangentMode: 0
      - time: .550000131
        value: 0
        inSlope: 0
        outSlope: 0
        tangentMode: 0
      - time: .566666782
        value: 0
        inSlope: 0
        outSlope: 0
        tangentMode: 0
      - time: .583333433
        value: 0
        inSlope: 0
        outSlope: 0
        tangentMode: 0
      - time: .600000083
        value: 0
        inSlope: 0
        outSlope: 0
        tangentMode: 0
      - time: .616666734
        value: 0
        inSlope: 0
        outSlope: 0
        tangentMode: 0
      - time: .633333385
        value: 0
        inSlope: 0
        outSlope: 0
        tangentMode: 0
      - time: .650000036
        value: 0
        inSlope: 0
        outSlope: 0
        tangentMode: 0
      - time: .666666687
        value: 0
        inSlope: 0
        outSlope: 0
        tangentMode: 0
      - time: .683333337
        value: 0
        inSlope: 0
        outSlope: 0
        tangentMode: 0
      - time: .699999988
        value: 0
        inSlope: 0
        outSlope: 0
        tangentMode: 0
      - time: .716666639
        value: 0
        inSlope: 0
        outSlope: 0
        tangentMode: 0
      - time: .73333329
        value: 0
        inSlope: 0
        outSlope: 0
        tangentMode: 0
      - time: .74999994
        value: 0
        inSlope: 0
        outSlope: 0
        tangentMode: 0
      - time: .766666591
        value: 0
        inSlope: 0
        outSlope: 0
        tangentMode: 0
      - time: .783333242
        value: 0
        inSlope: 0
        outSlope: 0
        tangentMode: 0
      - time: .799999893
        value: 0
        inSlope: 0
        outSlope: 0
        tangentMode: 0
      - time: .816666543
        value: 0
        inSlope: 0
        outSlope: 0
        tangentMode: 0
      - time: .833333194
        value: 0
        inSlope: 0
        outSlope: 0
        tangentMode: 0
      - time: .849999845
        value: 0
        inSlope: 0
        outSlope: 0
        tangentMode: 0
      - time: .866666496
        value: 0
        inSlope: 0
        outSlope: 0
        tangentMode: 0
      - time: .883333147
        value: 0
        inSlope: 0
        outSlope: 0
        tangentMode: 0
      - time: .899999797
        value: 0
        inSlope: 0
        outSlope: 0
        tangentMode: 0
      - time: .916666448
        value: 0
        inSlope: 0
        outSlope: 0
        tangentMode: 0
      - time: .933333099
        value: 0
        inSlope: 0
        outSlope: 0
        tangentMode: 0
      - time: .94999975
        value: 0
        inSlope: 0
        outSlope: 0
        tangentMode: 0
      - time: .9666664
        value: 0
        inSlope: 0
        outSlope: 0
        tangentMode: 0
      - time: .983333051
        value: 0
        inSlope: 0
        outSlope: 0
        tangentMode: 0
      - time: 1
        value: 0
        inSlope: 0
        outSlope: 0
        tangentMode: 0
      m_PreInfinity: 2
      m_PostInfinity: 2
    attribute: m_LocalRotation.y
    path: 
    classID: 4
    script: {fileID: 0}
  - curve:
      serializedVersion: 2
      m_Curve:
      - time: 0
        value: 0
        inSlope: 3.84345293
        outSlope: 3.84345293
        tangentMode: 0
      - time: .0166666675
        value: .0640575513
        inSlope: 3.92206621
        outSlope: 3.92206621
        tangentMode: 0
      - time: .0333333351
        value: .130735546
        inSlope: 4.04721069
        outSlope: 4.04721069
        tangentMode: 0
      - time: .0500000045
        value: .198964596
        inSlope: 4.10721493
        outSlope: 4.10721493
        tangentMode: 0
      - time: .0666666701
        value: .267642707
        inSlope: 4.10118008
        outSlope: 4.10118008
        tangentMode: 0
      - time: .0833333358
        value: .33567059
        inSlope: 4.03039837
        outSlope: 4.03039837
        tangentMode: 0
      - time: .100000001
        value: .401989311
        inSlope: 3.898422
        outSlope: 3.898422
        tangentMode: 0
      - time: .116666667
        value: .465617985
        inSlope: 3.71094751
        outSlope: 3.71094751
        tangentMode: 0
      - time: .13333334
        value: .525687575
        inSlope: 3.4755156
        outSlope: 3.4755156
        tangentMode: 0
      - time: .150000006
        value: .581468523
        inSlope: 3.20106125
        outSlope: 3.20106125
        tangentMode: 0
      - time: .166666672
        value: .632389605
        inSlope: 2.89731693
        outSlope: 2.89731693
        tangentMode: 0
      - time: .183333337
        value: .67804575
        inSlope: 2.5741663
        outSlope: 2.5741663
        tangentMode: 0
      - time: .200000003
        value: .71819514
        inSlope: 2.24095011
        outSlope: 2.24095011
        tangentMode: 0
      - time: .216666669
        value: .752744079
        inSlope: 1.90576696
        outSlope: 1.90576696
        tangentMode: 0
      - time: .233333334
        value: .781720698
        inSlope: 1.5748198
        outSlope: 1.5748198
        tangentMode: 0
      - time: .25
        value: .805238068
        inSlope: 1.29531693
        outSlope: 1.29531693
        tangentMode: 0
      - time: .266666681
        value: .824897945
        inSlope: 1.11327314
        outSlope: 1.11327314
        tangentMode: 0
      - time: .283333361
        value: .842347205
        inSlope: .986909032
        outSlope: .986909032
        tangentMode: 0
      - time: .300000042
        value: .85779494
        inSlope: .872681022
        outSlope: .872681022
        tangentMode: 0
      - time: .316666722
        value: .871436596
        inSlope: .76975584
        outSlope: .76975584
        tangentMode: 0
      - time: .333333403
        value: .883453488
        inSlope: .677280426
        outSlope: .677280426
        tangentMode: 0
      - time: .350000083
        value: .89401263
        inSlope: .594407439
        outSlope: .594407439
        tangentMode: 0
      - time: .366666764
        value: .903267086
        inSlope: .520308733
        outSlope: .520308733
        tangentMode: 0
      - time: .383333445
        value: .91135627
        inSlope: .454174489
        outSlope: .454174489
        tangentMode: 0
      - time: .400000125
        value: .918406248
        inSlope: .395241052
        outSlope: .395241052
        tangentMode: 0
      - time: .416666806
        value: .924530983
        inSlope: .342787802
        outSlope: .342787802
        tangentMode: 0
      - time: .433333486
        value: .929832518
        inSlope: .296133518
        outSlope: .296133518
        tangentMode: 0
      - time: .450000167
        value: .934402108
        inSlope: .254661232
        outSlope: .254661232
        tangentMode: 0
      - time: .466666847
        value: .938321233
        inSlope: .217798769
        outSlope: .217798769
        tangentMode: 0
      - time: .483333528
        value: .941662073
        inSlope: .185024142
        outSlope: .185024142
        tangentMode: 0
      - time: .500000179
        value: .944488704
        inSlope: .155881196
        outSlope: .155881196
        tangentMode: 0
      - time: .51666683
        value: .946858108
        inSlope: .12995851
        outSlope: .12995851
        tangentMode: 0
      - time: .53333348
        value: .948820651
        inSlope: .106895074
        outSlope: .106895074
        tangentMode: 0
      - time: .550000131
        value: .950421274
        inSlope: .0863779411
        outSlope: .0863779411
        tangentMode: 0
      - time: .566666782
        value: .951699913
        inSlope: .0681371167
        outSlope: .0681371167
        tangentMode: 0
      - time: .583333433
        value: .952692509
        inSlope: .0519562252
        outSlope: .0519562252
        tangentMode: 0
      - time: .600000083
        value: .953431785
        inSlope: .0376510993
        outSlope: .0376510993
        tangentMode: 0
      - time: .616666734
        value: .953947544
        inSlope: .0250697378
        outSlope: .0250697378
        tangentMode: 0
      - time: .633333385
        value: .954267442
        inSlope: .0141066443
        outSlope: .0141066443
        tangentMode: 0
      - time: .650000036
        value: .954417765
        inSlope: .00467420043
        outSlope: .00467420043
        tangentMode: 0
      - time: .666666687
        value: .954423249
        inSlope: -.00329017942
        outSlope: -.00329017942
        tangentMode: 0
      - time: .683333337
        value: .954308093
        inSlope: -.00981510617
        outSlope: -.00981510617
        tangentMode: 0
      - time: .699999988
        value: .954096079
        inSlope: -.0149166733
        outSlope: -.0149166733
        tangentMode: 0
      - time: .716666639
        value: .953810871
        inSlope: -.0186020322
        outSlope: -.0186020322
        tangentMode: 0
      - time: .73333329
        value: .953476012
        inSlope: -.0208586641
        outSlope: -.0208586641
        tangentMode: 0
      - time: .74999994
        value: .953115582
        inSlope: -.0216669049
        outSlope: -.0216669049
        tangentMode: 0
      - time: .766666591
        value: .952753782
        inSlope: -.0210088678
        outSlope: -.0210088678
        tangentMode: 0
      - time: .783333242
        value: .952415287
        inSlope: -.0188631006
        outSlope: -.0188631006
        tangentMode: 0
      - time: .799999893
        value: .952125013
        inSlope: -.0152135044
        outSlope: -.0152135044
        tangentMode: 0
      - time: .816666543
        value: .951908171
        inSlope: -.0100529287
        outSlope: -.0100529287
        tangentMode: 0
      - time: .833333194
        value: .951789916
        inSlope: -.00337779848
        outSlope: -.00337779848
        tangentMode: 0
      - time: .849999845
        value: .951795578
        inSlope: .00479400577
        outSlope: .00479400577
        tangentMode: 0
      - time: .866666496
        value: .951949716
        inSlope: .0144249331
        outSlope: .0144249331
        tangentMode: 0
      - time: .883333147
        value: .952276409
        inSlope: .0254595522
        outSlope: .0254595522
        tangentMode: 0
      - time: .899999797
        value: .952798367
        inSlope: .0378120318
        outSlope: .0378120318
        tangentMode: 0
      - time: .916666448
        value: .953536808
        inSlope: .0513715036
        outSlope: .0513715036
        tangentMode: 0
      - time: .933333099
        value: .954510748
        inSlope: .0659895539
        outSlope: .0659895539
        tangentMode: 0
      - time: .94999975
        value: .955736458
        inSlope: .0814766437
        outSlope: .0814766437
        tangentMode: 0
      - time: .9666664
        value: .957226634
        inSlope: .0976074636
        outSlope: .0976074636
        tangentMode: 0
      - time: .983333051
        value: .958990037
        inSlope: .114110917
        outSlope: .114110917
        tangentMode: 0
      - time: 1
        value: .961030364
        inSlope: .122417524
        outSlope: .122417524
        tangentMode: 0
      m_PreInfinity: 2
      m_PostInfinity: 2
    attribute: m_LocalRotation.z
    path: 
    classID: 4
    script: {fileID: 0}
  - curve:
      serializedVersion: 2
      m_Curve:
      - time: 0
        value: 1
        inSlope: -.123227827
        outSlope: -.123227827
        tangentMode: 0
      - time: .0166666675
        value: .997946203
        inSlope: -.257481307
        outSlope: -.257481307
        tangentMode: 0
      - time: .0333333351
        value: .991417289
        inSlope: -.538185179
        outSlope: -.538185179
        tangentMode: 0
      - time: .0500000045
        value: .980006695
        inSlope: -.836970806
        outSlope: -.836970806
        tangentMode: 0
      - time: .0666666701
        value: .963518262
        inSlope: -1.14081872
        outSlope: -1.14081872
        tangentMode: 0
      - time: .0833333358
        value: .941979408
        inSlope: -1.43621755
        outSlope: -1.43621755
        tangentMode: 0
      - time: .100000001
        value: .915644348
        inSlope: -1.70980823
        outSlope: -1.70980823
        tangentMode: 0
      - time: .116666667
        value: .884985805
        inSlope: -1.94899821
        outSlope: -1.94899821
        tangentMode: 0
      - time: .13333334
        value: .850677729
        inSlope: -2.14250708
        outSlope: -2.14250708
        tangentMode: 0
      - time: .150000006
        value: .81356889
        inSlope: -2.28081656
        outSlope: -2.28081656
        tangentMode: 0
      - time: .166666672
        value: .774650514
        inSlope: -2.35647464
        outSlope: -2.35647464
        tangentMode: 0
      - time: .183333337
        value: .735019743
        inSlope: -2.3642621
        outSlope: -2.3642621
        tangentMode: 0
      - time: .200000003
        value: .695841789
        inSlope: -2.3011961
        outSlope: -2.3011961
        tangentMode: 0
      - time: .216666669
        value: .658313215
        inSlope: -2.16639376
        outSlope: -2.16639376
        tangentMode: 0
      - time: .233333334
        value: .623628676
        inSlope: -1.9608469
        outSlope: -1.9608469
        tangentMode: 0
      - time: .25
        value: .592951655
        inSlope: -1.75040889
        outSlope: -1.75040889
        tangentMode: 0
      - time: .266666681
        value: .565281689
        inSlope: -1.62049103
        outSlope: -1.62049103
        tangentMode: 0
      - time: .283333361
        value: .538935244
        inSlope: -1.53868723
        outSlope: -1.53868723
        tangentMode: 0
      - time: .300000042
        value: .513992071
        inSlope: -1.45281291
        outSlope: -1.45281291
        tangentMode: 0
      - time: .316666722
        value: .490508109
        inSlope: -1.36419451
        outSlope: -1.36419451
        tangentMode: 0
      - time: .333333403
        value: .468518883
        inSlope: -1.27399099
        outSlope: -1.27399099
        tangentMode: 0
      - time: .350000083
        value: .448041707
        inSlope: -1.1832037
        outSlope: -1.1832037
        tangentMode: 0
      - time: .366666764
        value: .429078728
        inSlope: -1.09269714
        outSlope: -1.09269714
        tangentMode: 0
      - time: .383333445
        value: .411618441
        inSlope: -1.00320077
        outSlope: -1.00320077
        tangentMode: 0
      - time: .400000125
        value: .395638674
        inSlope: -.915346861
        outSlope: -.915346861
        tangentMode: 0
      - time: .416666806
        value: .381106853
        inSlope: -.829669118
        outSlope: -.829669118
        tangentMode: 0
      - time: .433333486
        value: .367983013
        inSlope: -.7466048
        outSlope: -.7466048
        tangentMode: 0
      - time: .450000167
        value: .356220007
        inSlope: -.666545391
        outSlope: -.666545391
        tangentMode: 0
      - time: .466666847
        value: .345764816
        inSlope: -.589802027
        outSlope: -.589802027
        tangentMode: 0
      - time: .483333528
        value: .336559922
        inSlope: -.516628325
        outSlope: -.516628325
        tangentMode: 0
      - time: .500000179
        value: .328543872
        inSlope: -.447250724
        outSlope: -.447250724
        tangentMode: 0
      - time: .51666683
        value: .321651578
        inSlope: -.38185662
        outSlope: -.38185662
        tangentMode: 0
      - time: .53333348
        value: .31581533
        inSlope: -.320587754
        outSlope: -.320587754
        tangentMode: 0
      - time: .550000131
        value: .310965329
        inSlope: -.263564825
        outSlope: -.263564825
        tangentMode: 0
      - time: .566666782
        value: .307029843
        inSlope: -.210883528
        outSlope: -.210883528
        tangentMode: 0
      - time: .583333433
        value: .303935885
        inSlope: -.16263321
        outSlope: -.16263321
        tangentMode: 0
      - time: .600000083
        value: .301608741
        inSlope: -.118873835
        outSlope: -.118873835
        tangentMode: 0
      - time: .616666734
        value: .299973428
        inSlope: -.0796357542
        outSlope: -.0796357542
        tangentMode: 0
      - time: .633333385
        value: .298954219
        inSlope: -.044982478
        outSlope: -.044982478
        tangentMode: 0
      - time: .650000036
        value: .298474014
        inSlope: -.0149318725
        outSlope: -.0149318725
        tangentMode: 0
      - time: .666666687
        value: .29845649
        inSlope: .0105160568
        outSlope: .0105160568
        tangentMode: 0
      - time: .683333337
        value: .298824549
        inSlope: .0313291252
        outSlope: .0313291252
        tangentMode: 0
      - time: .699999988
        value: .299500793
        inSlope: .0474983901
        outSlope: .0474983901
        tangentMode: 0
      - time: .716666639
        value: .300407827
        inSlope: .0590408407
        outSlope: .0590408407
        tangentMode: 0
      - time: .73333329
        value: .301468819
        inSlope: .0659600496
        outSlope: .0659600496
        tangentMode: 0
      - time: .74999994
        value: .302606493
        inSlope: .068243511
        outSlope: .068243511
        tangentMode: 0
      - time: .766666591
        value: .303743601
        inSlope: .0659081936
        outSlope: .0659081936
        tangentMode: 0
      - time: .783333242
        value: .304803431
        inSlope: .0589612685
        outSlope: .0589612685
        tangentMode: 0
      - time: .799999893
        value: .305708975
        inSlope: .0474036187
        outSlope: .0474036187
        tangentMode: 0
      - time: .816666543
        value: .30638355
        inSlope: .031249553
        outSlope: .031249553
        tangentMode: 0
      - time: .833333194
        value: .306750625
        inSlope: .0104883406
        outSlope: .0104883406
        tangentMode: 0
      - time: .849999845
        value: .306733161
        inSlope: -.0148898512
        outSlope: -.0148898512
        tangentMode: 0
      - time: .866666496
        value: .306254297
        inSlope: -.0448814481
        outSlope: -.0448814481
        tangentMode: 0
      - time: .883333147
        value: .305237114
        inSlope: -.0795150548
        outSlope: -.0795150548
        tangentMode: 0
      - time: .899999797
        value: .303603798
        inSlope: -.118818402
        outSlope: -.118818402
        tangentMode: 0
      - time: .916666448
        value: .301276505
        inSlope: -.162816495
        outSlope: -.162816495
        tangentMode: 0
      - time: .933333099
        value: .298176587
        inSlope: -.211570174
        outSlope: -.211570174
        tangentMode: 0
      - time: .94999975
        value: .294224173
        inSlope: -.265123188
        outSlope: -.265123188
        tangentMode: 0
      - time: .9666664
        value: .289339155
        inSlope: -.323531926
        outSlope: -.323531926
        tangentMode: 0
      - time: .983333051
        value: .283439785
        inSlope: -.386888266
        outSlope: -.386888266
        tangentMode: 0
      - time: 1
        value: .276442766
        inSlope: -.41981405
        outSlope: -.41981405
        tangentMode: 0
      m_PreInfinity: 2
      m_PostInfinity: 2
    attribute: m_LocalRotation.w
    path: 
    classID: 4
    script: {fileID: 0}
  - curve:
      serializedVersion: 2
      m_Curve:
      - time: 0
        value: 1
        inSlope: -.422426283
        outSlope: -.422426283
        tangentMode: 10
      - time: 1
        value: .577573717
        inSlope: -.422426283
        outSlope: -.422426283
        tangentMode: 10
      m_PreInfinity: 2
      m_PostInfinity: 2
    attribute: m_LocalScale.x
    path: 
    classID: 4
    script: {fileID: 0}
  - curve:
      serializedVersion: 2
      m_Curve:
      - time: 0
        value: 1
        inSlope: -.422426283
        outSlope: -.422426283
        tangentMode: 10
      - time: 1
        value: .577573717
        inSlope: -.422426283
        outSlope: -.422426283
        tangentMode: 10
      m_PreInfinity: 2
      m_PostInfinity: 2
    attribute: m_LocalScale.y
    path: 
    classID: 4
    script: {fileID: 0}
  - curve:
      serializedVersion: 2
      m_Curve:
      - time: 0
        value: 1
        inSlope: -.422426283
        outSlope: -.422426283
        tangentMode: 10
      - time: 1
        value: .577573717
        inSlope: -.422426283
        outSlope: -.422426283
        tangentMode: 10
      m_PreInfinity: 2
      m_PostInfinity: 2
    attribute: m_LocalScale.z
    path: 
    classID: 4
    script: {fileID: 0}
  - curve:
      serializedVersion: 2
      m_Curve:
      - time: 0
        value: .5
        inSlope: 0
        outSlope: 0
        tangentMode: 10
      - time: .25
        value: .5
        inSlope: -.726666629
        outSlope: -.726666629
        tangentMode: 10
      - time: 1
        value: -.589999974
        inSlope: -1.45333326
        outSlope: -1.45333326
        tangentMode: 10
      m_PreInfinity: 2
      m_PostInfinity: 2
    attribute: m_LocalPosition.x
    path: FrontLegShadow
    classID: 4
    script: {fileID: 0}
  - curve:
      serializedVersion: 2
      m_Curve:
      - time: 0
        value: .25
        inSlope: 0
        outSlope: 0
        tangentMode: 10
      - time: .25
        value: .25
        inSlope: -.0333333313
        outSlope: -.0333333313
        tangentMode: 10
      - time: 1
        value: .200000003
        inSlope: -.0666666627
        outSlope: -.0666666627
        tangentMode: 10
      m_PreInfinity: 2
      m_PostInfinity: 2
    attribute: m_LocalPosition.y
    path: FrontLegShadow
    classID: 4
    script: {fileID: 0}
  - curve:
      serializedVersion: 2
      m_Curve:
      - time: 0
        value: 0
        inSlope: 0
        outSlope: 0
        tangentMode: 10
      - time: .25
        value: 0
        inSlope: 0
        outSlope: 0
        tangentMode: 10
      - time: 1
        value: 0
        inSlope: 0
        outSlope: 0
        tangentMode: 10
      m_PreInfinity: 2
      m_PostInfinity: 2
    attribute: m_LocalPosition.z
    path: FrontLegShadow
    classID: 4
    script: {fileID: 0}
  - curve:
      serializedVersion: 2
      m_Curve:
      - time: 0
        value: 1
        inSlope: 0
        outSlope: 0
        tangentMode: 10
      - time: 1
        value: 1
        inSlope: 0
        outSlope: 0
        tangentMode: 10
      m_PreInfinity: 2
      m_PostInfinity: 2
    attribute: m_LocalScale.z
    path: FrontLegShadow
    classID: 4
    script: {fileID: 0}
  - curve:
      serializedVersion: 2
      m_Curve:
      - time: 0
        value: 1
        inSlope: 0
        outSlope: 0
        tangentMode: 10
      - time: 1
        value: 1
        inSlope: 0
        outSlope: 0
        tangentMode: 10
      m_PreInfinity: 2
      m_PostInfinity: 2
    attribute: m_LocalScale.y
    path: FrontLegShadow
    classID: 4
    script: {fileID: 0}
  - curve:
      serializedVersion: 2
      m_Curve:
      - time: 0
        value: 1
        inSlope: 0
        outSlope: 0
        tangentMode: 10
      - time: 1
        value: 1
        inSlope: 0
        outSlope: 0
        tangentMode: 10
      m_PreInfinity: 2
      m_PostInfinity: 2
    attribute: m_LocalScale.x
    path: FrontLegShadow
    classID: 4
    script: {fileID: 0}
  - curve:
      serializedVersion: 2
      m_Curve:
      - time: 0
        value: 0
        inSlope: 0
        outSlope: 0
        tangentMode: 0
      - time: .0166666675
        value: 0
        inSlope: 0
        outSlope: 0
        tangentMode: 0
      - time: .0333333351
        value: 0
        inSlope: 0
        outSlope: 0
        tangentMode: 0
      - time: .0500000045
        value: 0
        inSlope: 0
        outSlope: 0
        tangentMode: 0
      - time: .0666666701
        value: 0
        inSlope: 0
        outSlope: 0
        tangentMode: 0
      - time: .0833333358
        value: 0
        inSlope: 0
        outSlope: 0
        tangentMode: 0
      - time: .100000001
        value: 0
        inSlope: 0
        outSlope: 0
        tangentMode: 0
      - time: .116666667
        value: 0
        inSlope: 0
        outSlope: 0
        tangentMode: 0
      - time: .13333334
        value: 0
        inSlope: 0
        outSlope: 0
        tangentMode: 0
      - time: .150000006
        value: 0
        inSlope: 0
        outSlope: 0
        tangentMode: 0
      - time: .166666672
        value: 0
        inSlope: 0
        outSlope: 0
        tangentMode: 0
      - time: .183333337
        value: 0
        inSlope: 0
        outSlope: 0
        tangentMode: 0
      - time: .200000003
        value: 0
        inSlope: 0
        outSlope: 0
        tangentMode: 0
      - time: .216666669
        value: 0
        inSlope: 0
        outSlope: 0
        tangentMode: 0
      - time: .233333334
        value: 0
        inSlope: 0
        outSlope: 0
        tangentMode: 0
      - time: .25
        value: 0
        inSlope: 0
        outSlope: 0
        tangentMode: 0
      - time: .266666681
        value: 0
        inSlope: 0
        outSlope: 0
        tangentMode: 0
      - time: .283333361
        value: 0
        inSlope: 0
        outSlope: 0
        tangentMode: 0
      - time: .300000042
        value: 0
        inSlope: 0
        outSlope: 0
        tangentMode: 0
      - time: .316666722
        value: 0
        inSlope: 0
        outSlope: 0
        tangentMode: 0
      - time: .333333403
        value: 0
        inSlope: 0
        outSlope: 0
        tangentMode: 0
      - time: .350000083
        value: 0
        inSlope: 0
        outSlope: 0
        tangentMode: 0
      - time: .366666764
        value: 0
        inSlope: 0
        outSlope: 0
        tangentMode: 0
      - time: .383333445
        value: 0
        inSlope: 0
        outSlope: 0
        tangentMode: 0
      - time: .400000125
        value: 0
        inSlope: 0
        outSlope: 0
        tangentMode: 0
      - time: .416666806
        value: 0
        inSlope: 0
        outSlope: 0
        tangentMode: 0
      - time: .433333486
        value: 0
        inSlope: 0
        outSlope: 0
        tangentMode: 0
      - time: .450000167
        value: 0
        inSlope: 0
        outSlope: 0
        tangentMode: 0
      - time: .466666847
        value: 0
        inSlope: 0
        outSlope: 0
        tangentMode: 0
      - time: .483333528
        value: 0
        inSlope: 0
        outSlope: 0
        tangentMode: 0
      - time: .500000179
        value: 0
        inSlope: 0
        outSlope: 0
        tangentMode: 0
      - time: .51666683
        value: 0
        inSlope: 0
        outSlope: 0
        tangentMode: 0
      - time: .53333348
        value: 0
        inSlope: 0
        outSlope: 0
        tangentMode: 0
      - time: .550000131
        value: 0
        inSlope: 0
        outSlope: 0
        tangentMode: 0
      - time: .566666782
        value: 0
        inSlope: 0
        outSlope: 0
        tangentMode: 0
      - time: .583333433
        value: 0
        inSlope: 0
        outSlope: 0
        tangentMode: 0
      - time: .600000083
        value: 0
        inSlope: 0
        outSlope: 0
        tangentMode: 0
      - time: .616666734
        value: 0
        inSlope: 0
        outSlope: 0
        tangentMode: 0
      - time: .633333385
        value: 0
        inSlope: 0
        outSlope: 0
        tangentMode: 0
      - time: .650000036
        value: 0
        inSlope: 0
        outSlope: 0
        tangentMode: 0
      - time: .666666687
        value: 0
        inSlope: 0
        outSlope: 0
        tangentMode: 0
      - time: .683333337
        value: 0
        inSlope: 0
        outSlope: 0
        tangentMode: 0
      - time: .699999988
        value: 0
        inSlope: 0
        outSlope: 0
        tangentMode: 0
      - time: .716666639
        value: 0
        inSlope: 0
        outSlope: 0
        tangentMode: 0
      - time: .73333329
        value: 0
        inSlope: 0
        outSlope: 0
        tangentMode: 0
      - time: .74999994
        value: 0
        inSlope: 0
        outSlope: 0
        tangentMode: 0
      - time: .766666591
        value: 0
        inSlope: 0
        outSlope: 0
        tangentMode: 0
      - time: .783333242
        value: 0
        inSlope: 0
        outSlope: 0
        tangentMode: 0
      - time: .799999893
        value: 0
        inSlope: 0
        outSlope: 0
        tangentMode: 0
      - time: .816666543
        value: 0
        inSlope: 0
        outSlope: 0
        tangentMode: 0
      - time: .833333194
        value: 0
        inSlope: 0
        outSlope: 0
        tangentMode: 0
      - time: .849999845
        value: 0
        inSlope: 0
        outSlope: 0
        tangentMode: 0
      - time: .866666496
        value: 0
        inSlope: 0
        outSlope: 0
        tangentMode: 0
      - time: .883333147
        value: 0
        inSlope: 0
        outSlope: 0
        tangentMode: 0
      - time: .899999797
        value: 0
        inSlope: 0
        outSlope: 0
        tangentMode: 0
      - time: .916666448
        value: 0
        inSlope: 0
        outSlope: 0
        tangentMode: 0
      - time: .933333099
        value: 0
        inSlope: 0
        outSlope: 0
        tangentMode: 0
      - time: .94999975
        value: 0
        inSlope: 0
        outSlope: 0
        tangentMode: 0
      - time: .9666664
        value: 0
        inSlope: 0
        outSlope: 0
        tangentMode: 0
      - time: .983333051
        value: 0
        inSlope: 0
        outSlope: 0
        tangentMode: 0
      - time: 1
        value: 0
        inSlope: 0
        outSlope: 0
        tangentMode: 0
      m_PreInfinity: 2
      m_PostInfinity: 2
    attribute: m_LocalRotation.x
    path: FrontLegShadow
    classID: 4
    script: {fileID: 0}
  - curve:
      serializedVersion: 2
      m_Curve:
      - time: 0
        value: 0
        inSlope: 0
        outSlope: 0
        tangentMode: 0
      - time: .0166666675
        value: 0
        inSlope: 0
        outSlope: 0
        tangentMode: 0
      - time: .0333333351
        value: 0
        inSlope: 0
        outSlope: 0
        tangentMode: 0
      - time: .0500000045
        value: 0
        inSlope: 0
        outSlope: 0
        tangentMode: 0
      - time: .0666666701
        value: 0
        inSlope: 0
        outSlope: 0
        tangentMode: 0
      - time: .0833333358
        value: 0
        inSlope: 0
        outSlope: 0
        tangentMode: 0
      - time: .100000001
        value: 0
        inSlope: 0
        outSlope: 0
        tangentMode: 0
      - time: .116666667
        value: 0
        inSlope: 0
        outSlope: 0
        tangentMode: 0
      - time: .13333334
        value: 0
        inSlope: 0
        outSlope: 0
        tangentMode: 0
      - time: .150000006
        value: 0
        inSlope: 0
        outSlope: 0
        tangentMode: 0
      - time: .166666672
        value: 0
        inSlope: 0
        outSlope: 0
        tangentMode: 0
      - time: .183333337
        value: 0
        inSlope: 0
        outSlope: 0
        tangentMode: 0
      - time: .200000003
        value: 0
        inSlope: 0
        outSlope: 0
        tangentMode: 0
      - time: .216666669
        value: 0
        inSlope: 0
        outSlope: 0
        tangentMode: 0
      - time: .233333334
        value: 0
        inSlope: 0
        outSlope: 0
        tangentMode: 0
      - time: .25
        value: 0
        inSlope: 0
        outSlope: 0
        tangentMode: 0
      - time: .266666681
        value: 0
        inSlope: 0
        outSlope: 0
        tangentMode: 0
      - time: .283333361
        value: 0
        inSlope: 0
        outSlope: 0
        tangentMode: 0
      - time: .300000042
        value: 0
        inSlope: 0
        outSlope: 0
        tangentMode: 0
      - time: .316666722
        value: 0
        inSlope: 0
        outSlope: 0
        tangentMode: 0
      - time: .333333403
        value: 0
        inSlope: 0
        outSlope: 0
        tangentMode: 0
      - time: .350000083
        value: 0
        inSlope: 0
        outSlope: 0
        tangentMode: 0
      - time: .366666764
        value: 0
        inSlope: 0
        outSlope: 0
        tangentMode: 0
      - time: .383333445
        value: 0
        inSlope: 0
        outSlope: 0
        tangentMode: 0
      - time: .400000125
        value: 0
        inSlope: 0
        outSlope: 0
        tangentMode: 0
      - time: .416666806
        value: 0
        inSlope: 0
        outSlope: 0
        tangentMode: 0
      - time: .433333486
        value: 0
        inSlope: 0
        outSlope: 0
        tangentMode: 0
      - time: .450000167
        value: 0
        inSlope: 0
        outSlope: 0
        tangentMode: 0
      - time: .466666847
        value: 0
        inSlope: 0
        outSlope: 0
        tangentMode: 0
      - time: .483333528
        value: 0
        inSlope: 0
        outSlope: 0
        tangentMode: 0
      - time: .500000179
        value: 0
        inSlope: 0
        outSlope: 0
        tangentMode: 0
      - time: .51666683
        value: 0
        inSlope: 0
        outSlope: 0
        tangentMode: 0
      - time: .53333348
        value: 0
        inSlope: 0
        outSlope: 0
        tangentMode: 0
      - time: .550000131
        value: 0
        inSlope: 0
        outSlope: 0
        tangentMode: 0
      - time: .566666782
        value: 0
        inSlope: 0
        outSlope: 0
        tangentMode: 0
      - time: .583333433
        value: 0
        inSlope: 0
        outSlope: 0
        tangentMode: 0
      - time: .600000083
        value: 0
        inSlope: 0
        outSlope: 0
        tangentMode: 0
      - time: .616666734
        value: 0
        inSlope: 0
        outSlope: 0
        tangentMode: 0
      - time: .633333385
        value: 0
        inSlope: 0
        outSlope: 0
        tangentMode: 0
      - time: .650000036
        value: 0
        inSlope: 0
        outSlope: 0
        tangentMode: 0
      - time: .666666687
        value: 0
        inSlope: 0
        outSlope: 0
        tangentMode: 0
      - time: .683333337
        value: 0
        inSlope: 0
        outSlope: 0
        tangentMode: 0
      - time: .699999988
        value: 0
        inSlope: 0
        outSlope: 0
        tangentMode: 0
      - time: .716666639
        value: 0
        inSlope: 0
        outSlope: 0
        tangentMode: 0
      - time: .73333329
        value: 0
        inSlope: 0
        outSlope: 0
        tangentMode: 0
      - time: .74999994
        value: 0
        inSlope: 0
        outSlope: 0
        tangentMode: 0
      - time: .766666591
        value: 0
        inSlope: 0
        outSlope: 0
        tangentMode: 0
      - time: .783333242
        value: 0
        inSlope: 0
        outSlope: 0
        tangentMode: 0
      - time: .799999893
        value: 0
        inSlope: 0
        outSlope: 0
        tangentMode: 0
      - time: .816666543
        value: 0
        inSlope: 0
        outSlope: 0
        tangentMode: 0
      - time: .833333194
        value: 0
        inSlope: 0
        outSlope: 0
        tangentMode: 0
      - time: .849999845
        value: 0
        inSlope: 0
        outSlope: 0
        tangentMode: 0
      - time: .866666496
        value: 0
        inSlope: 0
        outSlope: 0
        tangentMode: 0
      - time: .883333147
        value: 0
        inSlope: 0
        outSlope: 0
        tangentMode: 0
      - time: .899999797
        value: 0
        inSlope: 0
        outSlope: 0
        tangentMode: 0
      - time: .916666448
        value: 0
        inSlope: 0
        outSlope: 0
        tangentMode: 0
      - time: .933333099
        value: 0
        inSlope: 0
        outSlope: 0
        tangentMode: 0
      - time: .94999975
        value: 0
        inSlope: 0
        outSlope: 0
        tangentMode: 0
      - time: .9666664
        value: 0
        inSlope: 0
        outSlope: 0
        tangentMode: 0
      - time: .983333051
        value: 0
        inSlope: 0
        outSlope: 0
        tangentMode: 0
      - time: 1
        value: 0
        inSlope: 0
        outSlope: 0
        tangentMode: 0
      m_PreInfinity: 2
      m_PostInfinity: 2
    attribute: m_LocalRotation.y
    path: FrontLegShadow
    classID: 4
    script: {fileID: 0}
  - curve:
      serializedVersion: 2
      m_Curve:
      - time: 0
        value: 0
        inSlope: 0
        outSlope: 0
        tangentMode: 0
      - time: .0166666675
        value: 0
        inSlope: 0
        outSlope: 0
        tangentMode: 0
      - time: .0333333351
        value: 0
        inSlope: 0
        outSlope: 0
        tangentMode: 0
      - time: .0500000045
        value: 0
        inSlope: 0
        outSlope: 0
        tangentMode: 0
      - time: .0666666701
        value: 0
        inSlope: 0
        outSlope: 0
        tangentMode: 0
      - time: .0833333358
        value: 0
        inSlope: 0
        outSlope: 0
        tangentMode: 0
      - time: .100000001
        value: 0
        inSlope: 0
        outSlope: 0
        tangentMode: 0
      - time: .116666667
        value: 0
        inSlope: 0
        outSlope: 0
        tangentMode: 0
      - time: .13333334
        value: 0
        inSlope: 0
        outSlope: 0
        tangentMode: 0
      - time: .150000006
        value: 0
        inSlope: 0
        outSlope: 0
        tangentMode: 0
      - time: .166666672
        value: 0
        inSlope: 0
        outSlope: 0
        tangentMode: 0
      - time: .183333337
        value: 0
        inSlope: 0
        outSlope: 0
        tangentMode: 0
      - time: .200000003
        value: 0
        inSlope: 0
        outSlope: 0
        tangentMode: 0
      - time: .216666669
        value: 0
        inSlope: 0
        outSlope: 0
        tangentMode: 0
      - time: .233333334
        value: 0
        inSlope: 0
        outSlope: 0
        tangentMode: 0
      - time: .25
        value: 0
        inSlope: 0
        outSlope: 0
        tangentMode: 0
      - time: .266666681
        value: 0
        inSlope: 0
        outSlope: 0
        tangentMode: 0
      - time: .283333361
        value: 0
        inSlope: 0
        outSlope: 0
        tangentMode: 0
      - time: .300000042
        value: 0
        inSlope: 0
        outSlope: 0
        tangentMode: 0
      - time: .316666722
        value: 0
        inSlope: 0
        outSlope: 0
        tangentMode: 0
      - time: .333333403
        value: 0
        inSlope: 0
        outSlope: 0
        tangentMode: 0
      - time: .350000083
        value: 0
        inSlope: 0
        outSlope: 0
        tangentMode: 0
      - time: .366666764
        value: 0
        inSlope: 0
        outSlope: 0
        tangentMode: 0
      - time: .383333445
        value: 0
        inSlope: 0
        outSlope: 0
        tangentMode: 0
      - time: .400000125
        value: 0
        inSlope: 0
        outSlope: 0
        tangentMode: 0
      - time: .416666806
        value: 0
        inSlope: 0
        outSlope: 0
        tangentMode: 0
      - time: .433333486
        value: 0
        inSlope: 0
        outSlope: 0
        tangentMode: 0
      - time: .450000167
        value: 0
        inSlope: 0
        outSlope: 0
        tangentMode: 0
      - time: .466666847
        value: 0
        inSlope: 0
        outSlope: 0
        tangentMode: 0
      - time: .483333528
        value: 0
        inSlope: 0
        outSlope: 0
        tangentMode: 0
      - time: .500000179
        value: 0
        inSlope: 0
        outSlope: 0
        tangentMode: 0
      - time: .51666683
        value: 0
        inSlope: 0
        outSlope: 0
        tangentMode: 0
      - time: .53333348
        value: 0
        inSlope: 0
        outSlope: 0
        tangentMode: 0
      - time: .550000131
        value: 0
        inSlope: 0
        outSlope: 0
        tangentMode: 0
      - time: .566666782
        value: 0
        inSlope: 0
        outSlope: 0
        tangentMode: 0
      - time: .583333433
        value: 0
        inSlope: 0
        outSlope: 0
        tangentMode: 0
      - time: .600000083
        value: 0
        inSlope: 0
        outSlope: 0
        tangentMode: 0
      - time: .616666734
        value: 0
        inSlope: 0
        outSlope: 0
        tangentMode: 0
      - time: .633333385
        value: 0
        inSlope: 0
        outSlope: 0
        tangentMode: 0
      - time: .650000036
        value: 0
        inSlope: 0
        outSlope: 0
        tangentMode: 0
      - time: .666666687
        value: 0
        inSlope: 0
        outSlope: 0
        tangentMode: 0
      - time: .683333337
        value: 0
        inSlope: 0
        outSlope: 0
        tangentMode: 0
      - time: .699999988
        value: 0
        inSlope: 0
        outSlope: 0
        tangentMode: 0
      - time: .716666639
        value: 0
        inSlope: 0
        outSlope: 0
        tangentMode: 0
      - time: .73333329
        value: 0
        inSlope: 0
        outSlope: 0
        tangentMode: 0
      - time: .74999994
        value: 0
        inSlope: 0
        outSlope: 0
        tangentMode: 0
      - time: .766666591
        value: 0
        inSlope: 0
        outSlope: 0
        tangentMode: 0
      - time: .783333242
        value: 0
        inSlope: 0
        outSlope: 0
        tangentMode: 0
      - time: .799999893
        value: 0
        inSlope: 0
        outSlope: 0
        tangentMode: 0
      - time: .816666543
        value: 0
        inSlope: 0
        outSlope: 0
        tangentMode: 0
      - time: .833333194
        value: 0
        inSlope: 0
        outSlope: 0
        tangentMode: 0
      - time: .849999845
        value: 0
        inSlope: 0
        outSlope: 0
        tangentMode: 0
      - time: .866666496
        value: 0
        inSlope: 0
        outSlope: 0
        tangentMode: 0
      - time: .883333147
        value: 0
        inSlope: 0
        outSlope: 0
        tangentMode: 0
      - time: .899999797
        value: 0
        inSlope: 0
        outSlope: 0
        tangentMode: 0
      - time: .916666448
        value: 0
        inSlope: 0
        outSlope: 0
        tangentMode: 0
      - time: .933333099
        value: 0
        inSlope: 0
        outSlope: 0
        tangentMode: 0
      - time: .94999975
        value: 0
        inSlope: 0
        outSlope: 0
        tangentMode: 0
      - time: .9666664
        value: 0
        inSlope: 0
        outSlope: 0
        tangentMode: 0
      - time: .983333051
        value: 0
        inSlope: 0
        outSlope: 0
        tangentMode: 0
      - time: 1
        value: 0
        inSlope: 0
        outSlope: 0
        tangentMode: 0
      m_PreInfinity: 2
      m_PostInfinity: 2
    attribute: m_LocalRotation.z
    path: FrontLegShadow
    classID: 4
    script: {fileID: 0}
  - curve:
      serializedVersion: 2
      m_Curve:
      - time: 0
        value: 1
        inSlope: 0
        outSlope: 0
        tangentMode: 0
      - time: .0166666675
        value: 1
        inSlope: 0
        outSlope: 0
        tangentMode: 0
      - time: .0333333351
        value: 1
        inSlope: 0
        outSlope: 0
        tangentMode: 0
      - time: .0500000045
        value: 1
        inSlope: 0
        outSlope: 0
        tangentMode: 0
      - time: .0666666701
        value: 1
        inSlope: 0
        outSlope: 0
        tangentMode: 0
      - time: .0833333358
        value: 1
        inSlope: 0
        outSlope: 0
        tangentMode: 0
      - time: .100000001
        value: 1
        inSlope: 0
        outSlope: 0
        tangentMode: 0
      - time: .116666667
        value: 1
        inSlope: 0
        outSlope: 0
        tangentMode: 0
      - time: .13333334
        value: 1
        inSlope: 0
        outSlope: 0
        tangentMode: 0
      - time: .150000006
        value: 1
        inSlope: 0
        outSlope: 0
        tangentMode: 0
      - time: .166666672
        value: 1
        inSlope: 0
        outSlope: 0
        tangentMode: 0
      - time: .183333337
        value: 1
        inSlope: 0
        outSlope: 0
        tangentMode: 0
      - time: .200000003
        value: 1
        inSlope: 0
        outSlope: 0
        tangentMode: 0
      - time: .216666669
        value: 1
        inSlope: 0
        outSlope: 0
        tangentMode: 0
      - time: .233333334
        value: 1
        inSlope: 0
        outSlope: 0
        tangentMode: 0
      - time: .25
        value: 1
        inSlope: 0
        outSlope: 0
        tangentMode: 0
      - time: .266666681
        value: 1
        inSlope: 0
        outSlope: 0
        tangentMode: 0
      - time: .283333361
        value: 1
        inSlope: 0
        outSlope: 0
        tangentMode: 0
      - time: .300000042
        value: 1
        inSlope: 0
        outSlope: 0
        tangentMode: 0
      - time: .316666722
        value: 1
        inSlope: 0
        outSlope: 0
        tangentMode: 0
      - time: .333333403
        value: 1
        inSlope: 0
        outSlope: 0
        tangentMode: 0
      - time: .350000083
        value: 1
        inSlope: 0
        outSlope: 0
        tangentMode: 0
      - time: .366666764
        value: 1
        inSlope: 0
        outSlope: 0
        tangentMode: 0
      - time: .383333445
        value: 1
        inSlope: 0
        outSlope: 0
        tangentMode: 0
      - time: .400000125
        value: 1
        inSlope: 0
        outSlope: 0
        tangentMode: 0
      - time: .416666806
        value: 1
        inSlope: 0
        outSlope: 0
        tangentMode: 0
      - time: .433333486
        value: 1
        inSlope: 0
        outSlope: 0
        tangentMode: 0
      - time: .450000167
        value: 1
        inSlope: 0
        outSlope: 0
        tangentMode: 0
      - time: .466666847
        value: 1
        inSlope: 0
        outSlope: 0
        tangentMode: 0
      - time: .483333528
        value: 1
        inSlope: 0
        outSlope: 0
        tangentMode: 0
      - time: .500000179
        value: 1
        inSlope: 0
        outSlope: 0
        tangentMode: 0
      - time: .51666683
        value: 1
        inSlope: 0
        outSlope: 0
        tangentMode: 0
      - time: .53333348
        value: 1
        inSlope: 0
        outSlope: 0
        tangentMode: 0
      - time: .550000131
        value: 1
        inSlope: 0
        outSlope: 0
        tangentMode: 0
      - time: .566666782
        value: 1
        inSlope: 0
        outSlope: 0
        tangentMode: 0
      - time: .583333433
        value: 1
        inSlope: 0
        outSlope: 0
        tangentMode: 0
      - time: .600000083
        value: 1
        inSlope: 0
        outSlope: 0
        tangentMode: 0
      - time: .616666734
        value: 1
        inSlope: 0
        outSlope: 0
        tangentMode: 0
      - time: .633333385
        value: 1
        inSlope: 0
        outSlope: 0
        tangentMode: 0
      - time: .650000036
        value: 1
        inSlope: 0
        outSlope: 0
        tangentMode: 0
      - time: .666666687
        value: 1
        inSlope: 0
        outSlope: 0
        tangentMode: 0
      - time: .683333337
        value: 1
        inSlope: 0
        outSlope: 0
        tangentMode: 0
      - time: .699999988
        value: 1
        inSlope: 0
        outSlope: 0
        tangentMode: 0
      - time: .716666639
        value: 1
        inSlope: 0
        outSlope: 0
        tangentMode: 0
      - time: .73333329
        value: 1
        inSlope: 0
        outSlope: 0
        tangentMode: 0
      - time: .74999994
        value: 1
        inSlope: 0
        outSlope: 0
        tangentMode: 0
      - time: .766666591
        value: 1
        inSlope: 0
        outSlope: 0
        tangentMode: 0
      - time: .783333242
        value: 1
        inSlope: 0
        outSlope: 0
        tangentMode: 0
      - time: .799999893
        value: 1
        inSlope: 0
        outSlope: 0
        tangentMode: 0
      - time: .816666543
        value: 1
        inSlope: 0
        outSlope: 0
        tangentMode: 0
      - time: .833333194
        value: 1
        inSlope: 0
        outSlope: 0
        tangentMode: 0
      - time: .849999845
        value: 1
        inSlope: 0
        outSlope: 0
        tangentMode: 0
      - time: .866666496
        value: 1
        inSlope: 0
        outSlope: 0
        tangentMode: 0
      - time: .883333147
        value: 1
        inSlope: 0
        outSlope: 0
        tangentMode: 0
      - time: .899999797
        value: 1
        inSlope: 0
        outSlope: 0
        tangentMode: 0
      - time: .916666448
        value: 1
        inSlope: 0
        outSlope: 0
        tangentMode: 0
      - time: .933333099
        value: 1
        inSlope: 0
        outSlope: 0
        tangentMode: 0
      - time: .94999975
        value: 1
        inSlope: 0
        outSlope: 0
        tangentMode: 0
      - time: .9666664
        value: 1
        inSlope: 0
        outSlope: 0
        tangentMode: 0
      - time: .983333051
        value: 1
        inSlope: 0
        outSlope: 0
        tangentMode: 0
      - time: 1
        value: 1
        inSlope: 0
        outSlope: 0
        tangentMode: 0
      m_PreInfinity: 2
      m_PostInfinity: 2
    attribute: m_LocalRotation.w
    path: FrontLegShadow
    classID: 4
    script: {fileID: 0}
  - curve:
      serializedVersion: 2
      m_Curve:
      - time: 0
        value: -1
        inSlope: -.0799999237
        outSlope: -.0799999237
        tangentMode: 10
      - time: .25
        value: -1.01999998
        inSlope: -.0799999237
        outSlope: -.0799999237
        tangentMode: 10
      m_PreInfinity: 2
      m_PostInfinity: 2
    attribute: m_LocalPosition.x
    path: FrontLegShadow/Mesh
    classID: 4
    script: {fileID: 0}
  - curve:
      serializedVersion: 2
      m_Curve:
      - time: 0
        value: 1.70000005
        inSlope: -2.4000001
        outSlope: -2.4000001
        tangentMode: 10
      - time: .25
        value: 1.10000002
        inSlope: -2.4000001
        outSlope: -2.4000001
        tangentMode: 10
      m_PreInfinity: 2
      m_PostInfinity: 2
    attribute: m_LocalPosition.y
    path: FrontLegShadow/Mesh
    classID: 4
    script: {fileID: 0}
  - curve:
      serializedVersion: 2
      m_Curve:
      - time: 0
        value: 1.20000005
        inSlope: 0
        outSlope: 0
        tangentMode: 10
      - time: .25
        value: 1.20000005
        inSlope: 0
        outSlope: 0
        tangentMode: 10
      m_PreInfinity: 2
      m_PostInfinity: 2
    attribute: m_LocalPosition.z
    path: FrontLegShadow/Mesh
    classID: 4
    script: {fileID: 0}
  m_EulerEditorCurves:
  - curve:
      serializedVersion: 2
      m_Curve:
      - time: 0
        value: 0
        inSlope: 0
        outSlope: 0
        tangentMode: 10
      - time: .25
        value: 0
        inSlope: 0
        outSlope: 0
        tangentMode: 10
      - time: 1
        value: 0
        inSlope: 0
        outSlope: 0
        tangentMode: 10
      m_PreInfinity: 2
      m_PostInfinity: 2
    attribute: localEulerAnglesBaked.x
    path: 
    classID: 4
    script: {fileID: 0}
  - curve:
      serializedVersion: 2
      m_Curve:
      - time: 0
        value: 0
        inSlope: 0
        outSlope: 0
        tangentMode: 10
      - time: .25
        value: 0
        inSlope: 0
        outSlope: 0
        tangentMode: 10
      - time: 1
        value: 0
        inSlope: 0
        outSlope: 0
        tangentMode: 10
      m_PreInfinity: 2
      m_PostInfinity: 2
    attribute: localEulerAnglesBaked.y
    path: 
    classID: 4
    script: {fileID: 0}
  - curve:
      serializedVersion: 2
      m_Curve:
      - time: 0
        value: 0
        inSlope: 429.06604
        outSlope: 429.06604
        tangentMode: 10
      - time: .25
        value: 107.26651
        inSlope: 241.624664
        outSlope: 241.624664
        tangentMode: 10
      - time: 1
        value: 147.903976
        inSlope: 54.1832886
        outSlope: 54.1832886
        tangentMode: 10
      m_PreInfinity: 2
      m_PostInfinity: 2
    attribute: localEulerAnglesBaked.z
    path: 
    classID: 4
    script: {fileID: 0}
  - curve:
      serializedVersion: 2
      m_Curve:
      - time: 0
        value: 0
        inSlope: 0
        outSlope: 0
        tangentMode: 10
      - time: .25
        value: 0
        inSlope: 0
        outSlope: 0
        tangentMode: 10
      - time: 1
        value: 0
        inSlope: 0
        outSlope: 0
        tangentMode: 10
      m_PreInfinity: 2
      m_PostInfinity: 2
    attribute: localEulerAnglesBaked.x
    path: FrontLegShadow
    classID: 4
    script: {fileID: 0}
  - curve:
      serializedVersion: 2
      m_Curve:
      - time: 0
        value: 0
        inSlope: 0
        outSlope: 0
        tangentMode: 10
      - time: .25
        value: 0
        inSlope: 0
        outSlope: 0
        tangentMode: 10
      - time: 1
        value: 0
        inSlope: 0
        outSlope: 0
        tangentMode: 10
      m_PreInfinity: 2
      m_PostInfinity: 2
    attribute: localEulerAnglesBaked.y
    path: FrontLegShadow
    classID: 4
    script: {fileID: 0}
  - curve:
      serializedVersion: 2
      m_Curve:
      - time: 0
        value: 0
        inSlope: 0
        outSlope: 0
        tangentMode: 10
      - time: .25
        value: 0
        inSlope: 0
        outSlope: 0
        tangentMode: 10
      - time: 1
        value: 0
        inSlope: 0
        outSlope: 0
        tangentMode: 10
      m_PreInfinity: 2
      m_PostInfinity: 2
    attribute: localEulerAnglesBaked.z
    path: FrontLegShadow
    classID: 4
    script: {fileID: 0}
  m_Events: []
