%YAML 1.1
%TAG !u! tag:unity3d.com,2011:
--- !u!74 &7400000
AnimationClip:
  m_ObjectHideFlags: 0
  m_PrefabParentObject: {fileID: 0}
  m_PrefabInternal: {fileID: 0}
  m_Name: impact
  serializedVersion: 4
  m_AnimationType: 2
  m_Compressed: 0
  m_UseHighQualityCurve: 1
  m_RotationCurves: []
  m_CompressedRotationCurves: []
  m_PositionCurves:
  - curve:
      serializedVersion: 2
      m_Curve:
      - time: 0
        value: {x: 13.8999996, y: 3.9000001, z: 0}
        inSlope: {x: 0, y: 43.1999969, z: 0}
        outSlope: {x: 0, y: 43.1999969, z: 0}
        tangentMode: 1104674816
      - time: .0833333358
        value: {x: 13.8999996, y: 7.5, z: 0}
        inSlope: {x: 0, y: 73.1999969, z: 0}
        outSlope: {x: 0, y: 73.1999969, z: 0}
        tangentMode: 0
      - time: .166666672
        value: {x: 13.8999996, y: 16.1000004, z: 0}
        inSlope: {x: 0, y: 97.2000122, z: 0}
        outSlope: {x: 0, y: 97.2000122, z: 0}
        tangentMode: 1119485952
      - time: .25
        value: {x: 13.8999996, y: 23.7000008, z: 0}
        inSlope: {x: 0, y: 91.2000122, z: 0}
        outSlope: {x: 0, y: 91.2000122, z: 0}
        tangentMode: 0
      m_PreInfinity: 2
      m_PostInfinity: 2
    path: Strike_orb
  - curve:
      serializedVersion: 2
      m_Curve:
      - time: 0
        value: {x: 14.6999998, y: 4.69999981, z: 0}
        inSlope: {x: 0, y: 432, z: 0}
        outSlope: {x: 0, y: 432, z: 0}
        tangentMode: 0
      - time: .0833333358
        value: {x: 14.6999998, y: 40.7000008, z: 0}
        inSlope: {x: 0, y: 306, z: 0}
        outSlope: {x: 0, y: 306, z: 0}
        tangentMode: 133181696
      - time: .166666672
        value: {x: 14.6999998, y: 55.7000008, z: 0}
        inSlope: {x: 0, y: 228.600021, z: 0}
        outSlope: {x: 0, y: 228.600021, z: 0}
        tangentMode: 1095762030
      - time: .25
        value: {x: 14.6999998, y: 78.8000031, z: 0}
        inSlope: {x: 0, y: 277.200043, z: 0}
        outSlope: {x: 0, y: 277.200043, z: 0}
        tangentMode: 1093664834
      m_PreInfinity: 2
      m_PostInfinity: 2
    path: Strike_beam_01
  - curve:
      serializedVersion: 2
      m_Curve:
      - time: 0
        value: {x: 20.1000061, y: 3.10000038, z: 0}
        inSlope: {x: 647.999878, y: 278.399963, z: 0}
        outSlope: {x: 647.999878, y: 278.399963, z: 0}
        tangentMode: 0
      - time: .0833333358
        value: {x: 74.0999985, y: 26.2999992, z: 0}
        inSlope: {x: 333.599915, y: 143.399994, z: 0}
        outSlope: {x: 333.599915, y: 143.399994, z: 0}
        tangentMode: 0
      - time: .166666672
        value: {x: 75.6999969, y: 27, z: 0}
        inSlope: {x: 50.400013, y: 21.6000042, z: 0}
        outSlope: {x: 50.400013, y: 21.6000042, z: 0}
        tangentMode: 0
      - time: .25
        value: {x: 82.5, y: 29.8999996, z: 0}
        inSlope: {x: 81.6000443, y: 34.7999992, z: 0}
        outSlope: {x: 81.6000443, y: 34.7999992, z: 0}
        tangentMode: 139092088
      m_PreInfinity: 2
      m_PostInfinity: 2
    path: Strike_beam_02
  - curve:
      serializedVersion: 2
      m_Curve:
      - time: 0
        value: {x: 9.8999939, y: 1.79999924, z: 0}
        inSlope: {x: -31.1999245, y: 13.2000103, z: 0}
        outSlope: {x: -31.1999245, y: 13.2000103, z: 0}
        tangentMode: 0
      - time: .0833333358
        value: {x: 7.30000019, y: 2.9000001, z: 0}
        inSlope: {x: -145.199951, y: 61.2000084, z: 0}
        outSlope: {x: -145.199951, y: 61.2000084, z: 0}
        tangentMode: 0
      - time: .166666672
        value: {x: -14.3000002, y: 12, z: 0}
        inSlope: {x: -226.199982, y: 95.4000015, z: 0}
        outSlope: {x: -226.199982, y: 95.4000015, z: 0}
        tangentMode: 0
      - time: .25
        value: {x: -30.3999996, y: 18.7999992, z: 0}
        inSlope: {x: -193.199997, y: 81.5999985, z: 0}
        outSlope: {x: -193.199997, y: 81.5999985, z: 0}
        tangentMode: 4
      m_PreInfinity: 2
      m_PostInfinity: 2
    path: Strike_beam_03
  - curve:
      serializedVersion: 2
      m_Curve:
      - time: 0
        value: {x: 14.6000004, y: 1.70000005, z: 0}
        inSlope: {x: 370.799988, y: 346.799988, z: 0}
        outSlope: {x: 370.799988, y: 346.799988, z: 0}
        tangentMode: 0
      - time: .0833333358
        value: {x: 45.5, y: 30.6000004, z: 0}
        inSlope: {x: 236.399994, y: 216, z: 0}
        outSlope: {x: 236.399994, y: 216, z: 0}
        tangentMode: 139029188
      - time: .166666672
        value: {x: 54, y: 37.7000008, z: 0}
        inSlope: {x: 100.200012, y: 83.4000015, z: 0}
        outSlope: {x: 100.200012, y: 83.4000015, z: 0}
        tangentMode: 7235840
      - time: .25
        value: {x: 62.2000008, y: 44.5, z: 0}
        inSlope: {x: 98.4000168, y: 81.5999985, z: 0}
        outSlope: {x: 98.4000168, y: 81.5999985, z: 0}
        tangentMode: 139042304
      m_PreInfinity: 2
      m_PostInfinity: 2
    path: Strike_streak_01
  - curve:
      serializedVersion: 2
      m_Curve:
      - time: 0
        value: {x: 12, y: 2.0999999, z: 0}
        inSlope: {x: -195.599991, y: 283.199982, z: 0}
        outSlope: {x: -195.599991, y: 283.199982, z: 0}
        tangentMode: 1104674816
      - time: .0833333358
        value: {x: -4.30000019, y: 25.7000008, z: 0}
        inSlope: {x: -245.399994, y: 356.399963, z: 0}
        outSlope: {x: -245.399994, y: 356.399963, z: 0}
        tangentMode: 0
      - time: .166666672
        value: {x: -28.8999996, y: 61.5, z: 0}
        inSlope: {x: -190.799988, y: 277.200012, z: 0}
        outSlope: {x: -190.799988, y: 277.200012, z: 0}
        tangentMode: 1119485952
      - time: .25
        value: {x: -36.0999985, y: 71.9000015, z: 0}
        inSlope: {x: -86.3999939, y: 124.800026, z: 0}
        outSlope: {x: -86.3999939, y: 124.800026, z: 0}
        tangentMode: 0
      m_PreInfinity: 2
      m_PostInfinity: 2
    path: Strike_streak_02
  - curve:
      serializedVersion: 2
      m_Curve:
      - time: 0
        value: {x: 13.5900002, y: 1.75999999, z: 0}
        inSlope: {x: .120002747, y: -6.71999931, z: 0}
        outSlope: {x: .120002747, y: -6.71999931, z: 0}
        tangentMode: 0
      - time: .0833333358
        value: {x: 13.6000004, y: 1.20000005, z: 0}
        inSlope: {x: .0600013733, y: 48.8399963, z: 0}
        outSlope: {x: .0600013733, y: 48.8399963, z: 0}
        tangentMode: 137345176
      - time: .166666672
        value: {x: 13.6000004, y: 9.89999962, z: 0}
        inSlope: {x: 0, y: 87, z: 0}
        outSlope: {x: 0, y: 87, z: 0}
        tangentMode: 55
      - time: .25
        value: {x: 13.6000004, y: 15.6999998, z: 0}
        inSlope: {x: 0, y: 69.6000061, z: 0}
        outSlope: {x: 0, y: 69.6000061, z: 0}
        tangentMode: 3
      m_PreInfinity: 2
      m_PostInfinity: 2
    path: Strike_orb_02
  m_ScaleCurves:
  - curve:
      serializedVersion: 2
      m_Curve:
      - time: 0
        value: {x: .178386301, y: .178386331, z: .178386331}
        inSlope: {x: 1.55164504, y: 1.55164504, z: 1.55164504}
        outSlope: {x: 1.55164504, y: 1.55164504, z: 1.55164504}
        tangentMode: 0
      - time: .0833333358
        value: {x: .307690054, y: .307690084, z: .307690084}
        inSlope: {x: 1.88259923, y: 1.88259828, z: 1.88259828}
        outSlope: {x: 1.88259923, y: 1.88259828, z: 1.88259828}
        tangentMode: 138013748
      - time: .166666672
        value: {x: .49215284, y: .492152721, z: .492152721}
        inSlope: {x: 2.36665702, y: 2.36665606, z: 2.36665606}
        outSlope: {x: 2.36665702, y: 2.36665606, z: 2.36665606}
        tangentMode: 1086324736
      - time: .25
        value: {x: .702132881, y: .702132761, z: .702132761}
        inSlope: {x: 2.51976061, y: 2.51976061, z: 2.51976061}
        outSlope: {x: 2.51976061, y: 2.51976061, z: 2.51976061}
        tangentMode: 3473458
      m_PreInfinity: 2
      m_PostInfinity: 2
    path: Strike_orb
  - curve:
      serializedVersion: 2
      m_Curve:
      - time: 0
        value: {x: .210395873, y: .0999380276, z: .210395887}
        inSlope: {x: -.597877264, y: 6.85292149, z: .27795589}
        outSlope: {x: -.597877264, y: 6.85292149, z: .27795589}
        tangentMode: 0
      - time: .0833333358
        value: {x: .160572767, y: .671014845, z: .233558878}
        inSlope: {x: -.386522144, y: 4.52090025, z: .138977945}
        outSlope: {x: -.386522144, y: 4.52090025, z: .138977945}
        tangentMode: 0
      - time: .166666672
        value: {x: .145975515, y: .85342145, z: .233558878}
        inSlope: {x: .437917143, y: 4.1254406, z: 0}
        outSlope: {x: .437917143, y: 4.1254406, z: 0}
        tangentMode: 0
      - time: .25
        value: {x: .233558953, y: 1.35858822, z: .233558878}
        inSlope: {x: 1.05100131, y: 6.06200171, z: 0}
        outSlope: {x: 1.05100131, y: 6.06200171, z: 0}
        tangentMode: 1093665025
      m_PreInfinity: 2
      m_PostInfinity: 2
    path: Strike_beam_01
  - curve:
      serializedVersion: 2
      m_Curve:
      - time: 0
        value: {x: .214235291, y: .10311386, z: .214235291}
        inSlope: {x: 0, y: 16.3233166, z: 0}
        outSlope: {x: 0, y: 16.3233166, z: 0}
        tangentMode: 0
      - time: .0833333358
        value: {x: .214235291, y: 1.46339035, z: .214235291}
        inSlope: {x: -.339223534, y: 7.61492968, z: 0}
        outSlope: {x: -.339223534, y: 7.61492968, z: 0}
        tangentMode: 137345176
      - time: .166666672
        value: {x: .157698035, y: 1.37226892, z: .214235291}
        inSlope: {x: -.216831118, y: -.0175816417, z: 0}
        outSlope: {x: -.216831118, y: -.0175816417, z: 0}
        tangentMode: 55
      - time: .25
        value: {x: .178096771, y: 1.46046007, z: .214235291}
        inSlope: {x: .244784847, y: 1.05829394, z: 0}
        outSlope: {x: .244784847, y: 1.05829394, z: 0}
        tangentMode: 1086324736
      m_PreInfinity: 2
      m_PostInfinity: 2
    path: Strike_beam_02
  - curve:
      serializedVersion: 2
      m_Curve:
      - time: 0
        value: {x: .150173783, y: .100832418, z: .150173783}
        inSlope: {x: 0, y: 1.0803262, z: 0}
        outSlope: {x: 0, y: 1.0803262, z: 0}
        tangentMode: 130220033
      - time: .0833333358
        value: {x: .150173783, y: .190859601, z: .150173783}
        inSlope: {x: 0, y: 2.7498579, z: 0}
        outSlope: {x: 0, y: 2.7498579, z: 0}
        tangentMode: 0
      - time: .166666672
        value: {x: .150173783, y: .559142113, z: .150173783}
        inSlope: {x: 0, y: 3.4055438, z: 0}
        outSlope: {x: 0, y: 3.4055438, z: 0}
        tangentMode: 6357075
      - time: .25
        value: {x: .150173783, y: .75845027, z: .150173783}
        inSlope: {x: 0, y: 2.39169812, z: 0}
        outSlope: {x: 0, y: 2.39169812, z: 0}
        tangentMode: 3145782
      m_PreInfinity: 2
      m_PostInfinity: 2
    path: Strike_beam_03
  - curve:
      serializedVersion: 2
      m_Curve:
      - time: 0
        value: {x: .195381641, y: .094052501, z: .195381641}
        inSlope: {x: 2.13909173, y: 19.7801914, z: 2.13909245}
        outSlope: {x: 2.13909173, y: 19.7801914, z: 2.13909245}
        tangentMode: 1042983595
      - time: .0833333358
        value: {x: .373639286, y: 1.74240196, z: .373639345}
        inSlope: {x: .377158284, y: 9.89009571, z: 1.06954622}
        outSlope: {x: .377158284, y: 9.89009571, z: 1.06954622}
        tangentMode: 59
      - time: .166666672
        value: {x: .258241355, y: 1.74240196, z: .373639345}
        inSlope: {x: -.86108458, y: 0, z: 0}
        outSlope: {x: -.86108458, y: 0, z: 0}
        tangentMode: 138800612
      - time: .25
        value: {x: .230125189, y: 1.74240196, z: .373639345}
        inSlope: {x: -.337394029, y: 0, z: 0}
        outSlope: {x: -.337394029, y: 0, z: 0}
        tangentMode: 0
      m_PreInfinity: 2
      m_PostInfinity: 2
    path: Strike_streak_01
  - curve:
      serializedVersion: 2
      m_Curve:
      - time: 0
        value: {x: .221595183, y: .185658216, z: .479118049}
        inSlope: {x: 1.92839611, y: 5.552526, z: 14.3291016}
        outSlope: {x: 1.92839611, y: 5.552526, z: 14.3291016}
        tangentMode: 1104674816
      - time: .0833333358
        value: {x: .382294863, y: .648368716, z: 1.67320979}
        inSlope: {x: .964198053, y: 4.9272809, z: 7.16455078}
        outSlope: {x: .964198053, y: 4.9272809, z: 7.16455078}
        tangentMode: 0
      - time: .166666672
        value: {x: .382294863, y: 1.0068717, z: 1.67320979}
        inSlope: {x: -.500577867, y: 2.1510179, z: 0}
        outSlope: {x: -.500577867, y: 2.1510179, z: 0}
        tangentMode: 1119617024
      - time: .25
        value: {x: .298865229, y: 1.0068717, z: 1.67320979}
        inSlope: {x: -1.00115573, y: 0, z: 0}
        outSlope: {x: -1.00115573, y: 0, z: 0}
        tangentMode: 0
      m_PreInfinity: 2
      m_PostInfinity: 2
    path: Strike_streak_02
  - curve:
      serializedVersion: 2
      m_Curve:
      - time: 0
        value: {x: .119778343, y: .119778328, z: .119778328}
        inSlope: {x: .34844926, y: 1.15205193, z: .348449975}
        outSlope: {x: .34844926, y: 1.15205193, z: .348449975}
        tangentMode: 1093664769
      - time: .0833333358
        value: {x: .148815781, y: .215782657, z: .148815826}
        inSlope: {x: -.0824826211, y: 1.96781814, z: .174224988}
        outSlope: {x: -.0824826211, y: 1.96781814, z: .174224988}
        tangentMode: 0
      - time: .166666672
        value: {x: .106031239, y: .447748035, z: .148815826}
        inSlope: {x: -.638419747, y: 2.66786981, z: 0}
        outSlope: {x: -.638419747, y: 2.66786981, z: 0}
        tangentMode: 7602259
      - time: .25
        value: {x: .0424124971, y: .66042763, z: .148815826}
        inSlope: {x: -.763424933, y: 2.55215526, z: 0}
        outSlope: {x: -.763424933, y: 2.55215526, z: 0}
        tangentMode: 6619244
      m_PreInfinity: 2
      m_PostInfinity: 2
    path: Strike_orb_02
  m_FloatCurves: []
  m_PPtrCurves: []
  m_SampleRate: 60
  m_WrapMode: 0
  m_Bounds:
    m_Center: {x: 0, y: 0, z: 0}
    m_Extent: {x: 0, y: 0, z: 0}
  m_ClipBindingConstant:
    genericBindings:
    - path: 2970408818
      attribute: 1
      script: {fileID: 0}
      classID: 4
      customType: 0
      isPPtrCurve: 0
    - path: 1626800385
      attribute: 1
      script: {fileID: 0}
      classID: 4
      customType: 0
      isPPtrCurve: 0
    - path: 4194193595
      attribute: 1
      script: {fileID: 0}
      classID: 4
      customType: 0
      isPPtrCurve: 0
    - path: 2398707757
      attribute: 1
      script: {fileID: 0}
      classID: 4
      customType: 0
      isPPtrCurve: 0
    - path: 1355173569
      attribute: 1
      script: {fileID: 0}
      classID: 4
      customType: 0
      isPPtrCurve: 0
    - path: 3385794427
      attribute: 1
      script: {fileID: 0}
      classID: 4
      customType: 0
      isPPtrCurve: 0
    - path: 529167504
      attribute: 1
      script: {fileID: 0}
      classID: 4
      customType: 0
      isPPtrCurve: 0
    - path: 2970408818
      attribute: 3
      script: {fileID: 0}
      classID: 4
      customType: 0
      isPPtrCurve: 0
    - path: 1626800385
      attribute: 3
      script: {fileID: 0}
      classID: 4
      customType: 0
      isPPtrCurve: 0
    - path: 4194193595
      attribute: 3
      script: {fileID: 0}
      classID: 4
      customType: 0
      isPPtrCurve: 0
    - path: 2398707757
      attribute: 3
      script: {fileID: 0}
      classID: 4
      customType: 0
      isPPtrCurve: 0
    - path: 1355173569
      attribute: 3
      script: {fileID: 0}
      classID: 4
      customType: 0
      isPPtrCurve: 0
    - path: 3385794427
      attribute: 3
      script: {fileID: 0}
      classID: 4
      customType: 0
      isPPtrCurve: 0
    - path: 529167504
      attribute: 3
      script: {fileID: 0}
      classID: 4
      customType: 0
      isPPtrCurve: 0
    pptrCurveMapping: []
  m_AnimationClipSettings:
    serializedVersion: 2
    m_StartTime: 0
    m_StopTime: .25
    m_OrientationOffsetY: 0
    m_Level: 0
    m_CycleOffset: 0
    m_LoopTime: 1
    m_LoopBlend: 0
    m_LoopBlendOrientation: 0
    m_LoopBlendPositionY: 0
    m_LoopBlendPositionXZ: 0
    m_KeepOriginalOrientation: 0
    m_KeepOriginalPositionY: 1
    m_KeepOriginalPositionXZ: 0
    m_HeightFromFeet: 0
    m_Mirror: 0
  m_EditorCurves:
  - curve:
      serializedVersion: 2
      m_Curve:
      - time: 0
        value: .178386301
        inSlope: 1.55164504
        outSlope: 1.55164504
        tangentMode: 10
      - time: .0833333358
        value: .307690054
        inSlope: 1.88259923
        outSlope: 1.88259923
        tangentMode: 10
      - time: .166666672
        value: .49215284
        inSlope: 2.36665702
        outSlope: 2.36665702
        tangentMode: 10
      - time: .25
        value: .702132881
        inSlope: 2.51976061
        outSlope: 2.51976061
        tangentMode: 10
      m_PreInfinity: 2
      m_PostInfinity: 2
    attribute: m_LocalScale.x
    path: Strike_orb
    classID: 4
    script: {fileID: 0}
  - curve:
      serializedVersion: 2
      m_Curve:
      - time: 0
        value: .178386331
        inSlope: 1.55164504
        outSlope: 1.55164504
        tangentMode: 10
      - time: .0833333358
        value: .307690084
        inSlope: 1.88259828
        outSlope: 1.88259828
        tangentMode: 10
      - time: .166666672
        value: .492152721
        inSlope: 2.36665606
        outSlope: 2.36665606
        tangentMode: 10
      - time: .25
        value: .702132761
        inSlope: 2.51976061
        outSlope: 2.51976061
        tangentMode: 10
      m_PreInfinity: 2
      m_PostInfinity: 2
    attribute: m_LocalScale.y
    path: Strike_orb
    classID: 4
    script: {fileID: 0}
  - curve:
      serializedVersion: 2
      m_Curve:
      - time: 0
        value: .178386331
        inSlope: 1.55164504
        outSlope: 1.55164504
        tangentMode: 10
      - time: .0833333358
        value: .307690084
        inSlope: 1.88259828
        outSlope: 1.88259828
        tangentMode: 10
      - time: .166666672
        value: .492152721
        inSlope: 2.36665606
        outSlope: 2.36665606
        tangentMode: 10
      - time: .25
        value: .702132761
        inSlope: 2.51976061
        outSlope: 2.51976061
        tangentMode: 10
      m_PreInfinity: 2
      m_PostInfinity: 2
    attribute: m_LocalScale.z
    path: Strike_orb
    classID: 4
    script: {fileID: 0}
  - curve:
      serializedVersion: 2
      m_Curve:
      - time: 0
        value: 13.8999996
        inSlope: 0
        outSlope: 0
        tangentMode: 10
      - time: .0833333358
        value: 13.8999996
        inSlope: 0
        outSlope: 0
        tangentMode: 10
      - time: .166666672
        value: 13.8999996
        inSlope: 0
        outSlope: 0
        tangentMode: 10
      - time: .25
        value: 13.8999996
        inSlope: 0
        outSlope: 0
        tangentMode: 10
      m_PreInfinity: 2
      m_PostInfinity: 2
    attribute: m_LocalPosition.x
    path: Strike_orb
    classID: 4
    script: {fileID: 0}
  - curve:
      serializedVersion: 2
      m_Curve:
      - time: 0
        value: 3.9000001
        inSlope: 43.1999969
        outSlope: 43.1999969
        tangentMode: 10
      - time: .0833333358
        value: 7.5
        inSlope: 73.1999969
        outSlope: 73.1999969
        tangentMode: 10
      - time: .166666672
        value: 16.1000004
        inSlope: 97.2000122
        outSlope: 97.2000122
        tangentMode: 10
      - time: .25
        value: 23.7000008
        inSlope: 91.2000122
        outSlope: 91.2000122
        tangentMode: 10
      m_PreInfinity: 2
      m_PostInfinity: 2
    attribute: m_LocalPosition.y
    path: Strike_orb
    classID: 4
    script: {fileID: 0}
  - curve:
      serializedVersion: 2
      m_Curve:
      - time: 0
        value: 0
        inSlope: 0
        outSlope: 0
        tangentMode: 10
      - time: .0833333358
        value: 0
        inSlope: 0
        outSlope: 0
        tangentMode: 10
      - time: .166666672
        value: 0
        inSlope: 0
        outSlope: 0
        tangentMode: 10
      - time: .25
        value: 0
        inSlope: 0
        outSlope: 0
        tangentMode: 10
      m_PreInfinity: 2
      m_PostInfinity: 2
    attribute: m_LocalPosition.z
    path: Strike_orb
    classID: 4
    script: {fileID: 0}
  - curve:
      serializedVersion: 2
      m_Curve:
      - time: 0
        value: .210395873
        inSlope: -.597877264
        outSlope: -.597877264
        tangentMode: 10
      - time: .0833333358
        value: .160572767
        inSlope: -.386522144
        outSlope: -.386522144
        tangentMode: 10
      - time: .166666672
        value: .145975515
        inSlope: .437917143
        outSlope: .437917143
        tangentMode: 10
      - time: .25
        value: .233558953
        inSlope: 1.05100131
        outSlope: 1.05100131
        tangentMode: 10
      m_PreInfinity: 2
      m_PostInfinity: 2
    attribute: m_LocalScale.x
    path: Strike_beam_01
    classID: 4
    script: {fileID: 0}
  - curve:
      serializedVersion: 2
      m_Curve:
      - time: 0
        value: .0999380276
        inSlope: 6.85292149
        outSlope: 6.85292149
        tangentMode: 10
      - time: .0833333358
        value: .671014845
        inSlope: 4.52090025
        outSlope: 4.52090025
        tangentMode: 10
      - time: .166666672
        value: .85342145
        inSlope: 4.1254406
        outSlope: 4.1254406
        tangentMode: 10
      - time: .25
        value: 1.35858822
        inSlope: 6.06200171
        outSlope: 6.06200171
        tangentMode: 10
      m_PreInfinity: 2
      m_PostInfinity: 2
    attribute: m_LocalScale.y
    path: Strike_beam_01
    classID: 4
    script: {fileID: 0}
  - curve:
      serializedVersion: 2
      m_Curve:
      - time: 0
        value: .210395887
        inSlope: .27795589
        outSlope: .27795589
        tangentMode: 10
      - time: .0833333358
        value: .233558878
        inSlope: .138977945
        outSlope: .138977945
        tangentMode: 10
      - time: .166666672
        value: .233558878
        inSlope: 0
        outSlope: 0
        tangentMode: 10
      - time: .25
        value: .233558878
        inSlope: 0
        outSlope: 0
        tangentMode: 10
      m_PreInfinity: 2
      m_PostInfinity: 2
    attribute: m_LocalScale.z
    path: Strike_beam_01
    classID: 4
    script: {fileID: 0}
  - curve:
      serializedVersion: 2
      m_Curve:
      - time: 0
        value: 14.6999998
        inSlope: 0
        outSlope: 0
        tangentMode: 10
      - time: .0833333358
        value: 14.6999998
        inSlope: 0
        outSlope: 0
        tangentMode: 10
      - time: .166666672
        value: 14.6999998
        inSlope: 0
        outSlope: 0
        tangentMode: 10
      - time: .25
        value: 14.6999998
        inSlope: 0
        outSlope: 0
        tangentMode: 10
      m_PreInfinity: 2
      m_PostInfinity: 2
    attribute: m_LocalPosition.x
    path: Strike_beam_01
    classID: 4
    script: {fileID: 0}
  - curve:
      serializedVersion: 2
      m_Curve:
      - time: 0
        value: 4.69999981
        inSlope: 432
        outSlope: 432
        tangentMode: 10
      - time: .0833333358
        value: 40.7000008
        inSlope: 306
        outSlope: 306
        tangentMode: 10
      - time: .166666672
        value: 55.7000008
        inSlope: 228.600021
        outSlope: 228.600021
        tangentMode: 10
      - time: .25
        value: 78.8000031
        inSlope: 277.200043
        outSlope: 277.200043
        tangentMode: 10
      m_PreInfinity: 2
      m_PostInfinity: 2
    attribute: m_LocalPosition.y
    path: Strike_beam_01
    classID: 4
    script: {fileID: 0}
  - curve:
      serializedVersion: 2
      m_Curve:
      - time: 0
        value: 0
        inSlope: 0
        outSlope: 0
        tangentMode: 10
      - time: .0833333358
        value: 0
        inSlope: 0
        outSlope: 0
        tangentMode: 10
      - time: .166666672
        value: 0
        inSlope: 0
        outSlope: 0
        tangentMode: 10
      - time: .25
        value: 0
        inSlope: 0
        outSlope: 0
        tangentMode: 10
      m_PreInfinity: 2
      m_PostInfinity: 2
    attribute: m_LocalPosition.z
    path: Strike_beam_01
    classID: 4
    script: {fileID: 0}
  - curve:
      serializedVersion: 2
      m_Curve:
      - time: 0
        value: 20.1000061
        inSlope: 647.999878
        outSlope: 647.999878
        tangentMode: 10
      - time: .0833333358
        value: 74.0999985
        inSlope: 333.599915
        outSlope: 333.599915
        tangentMode: 10
      - time: .166666672
        value: 75.6999969
        inSlope: 50.400013
        outSlope: 50.400013
        tangentMode: 10
      - time: .25
        value: 82.5
        inSlope: 81.6000443
        outSlope: 81.6000443
        tangentMode: 10
      m_PreInfinity: 2
      m_PostInfinity: 2
    attribute: m_LocalPosition.x
    path: Strike_beam_02
    classID: 4
    script: {fileID: 0}
  - curve:
      serializedVersion: 2
      m_Curve:
      - time: 0
        value: 3.10000038
        inSlope: 278.399963
        outSlope: 278.399963
        tangentMode: 10
      - time: .0833333358
        value: 26.2999992
        inSlope: 143.399994
        outSlope: 143.399994
        tangentMode: 10
      - time: .166666672
        value: 27
        inSlope: 21.6000042
        outSlope: 21.6000042
        tangentMode: 10
      - time: .25
        value: 29.8999996
        inSlope: 34.7999992
        outSlope: 34.7999992
        tangentMode: 10
      m_PreInfinity: 2
      m_PostInfinity: 2
    attribute: m_LocalPosition.y
    path: Strike_beam_02
    classID: 4
    script: {fileID: 0}
  - curve:
      serializedVersion: 2
      m_Curve:
      - time: 0
        value: 0
        inSlope: 0
        outSlope: 0
        tangentMode: 10
      - time: .0833333358
        value: 0
        inSlope: 0
        outSlope: 0
        tangentMode: 10
      - time: .166666672
        value: 0
        inSlope: 0
        outSlope: 0
        tangentMode: 10
      - time: .25
        value: 0
        inSlope: 0
        outSlope: 0
        tangentMode: 10
      m_PreInfinity: 2
      m_PostInfinity: 2
    attribute: m_LocalPosition.z
    path: Strike_beam_02
    classID: 4
    script: {fileID: 0}
  - curve:
      serializedVersion: 2
      m_Curve:
      - time: 0
        value: .214235291
        inSlope: 0
        outSlope: 0
        tangentMode: 10
      - time: .0833333358
        value: .214235291
        inSlope: -.339223534
        outSlope: -.339223534
        tangentMode: 10
      - time: .166666672
        value: .157698035
        inSlope: -.216831118
        outSlope: -.216831118
        tangentMode: 10
      - time: .25
        value: .178096771
        inSlope: .244784847
        outSlope: .244784847
        tangentMode: 10
      m_PreInfinity: 2
      m_PostInfinity: 2
    attribute: m_LocalScale.x
    path: Strike_beam_02
    classID: 4
    script: {fileID: 0}
  - curve:
      serializedVersion: 2
      m_Curve:
      - time: 0
        value: .10311386
        inSlope: 16.3233166
        outSlope: 16.3233166
        tangentMode: 10
      - time: .0833333358
        value: 1.46339035
        inSlope: 7.61492968
        outSlope: 7.61492968
        tangentMode: 10
      - time: .166666672
        value: 1.37226892
        inSlope: -.0175816417
        outSlope: -.0175816417
        tangentMode: 10
      - time: .25
        value: 1.46046007
        inSlope: 1.05829394
        outSlope: 1.05829394
        tangentMode: 10
      m_PreInfinity: 2
      m_PostInfinity: 2
    attribute: m_LocalScale.y
    path: Strike_beam_02
    classID: 4
    script: {fileID: 0}
  - curve:
      serializedVersion: 2
      m_Curve:
      - time: 0
        value: .214235291
        inSlope: 0
        outSlope: 0
        tangentMode: 10
      - time: .0833333358
        value: .214235291
        inSlope: 0
        outSlope: 0
        tangentMode: 10
      - time: .166666672
        value: .214235291
        inSlope: 0
        outSlope: 0
        tangentMode: 10
      - time: .25
        value: .214235291
        inSlope: 0
        outSlope: 0
        tangentMode: 10
      m_PreInfinity: 2
      m_PostInfinity: 2
    attribute: m_LocalScale.z
    path: Strike_beam_02
    classID: 4
    script: {fileID: 0}
  - curve:
      serializedVersion: 2
      m_Curve:
      - time: 0
        value: 9.8999939
        inSlope: -31.1999245
        outSlope: -31.1999245
        tangentMode: 10
      - time: .0833333358
        value: 7.30000019
        inSlope: -145.199951
        outSlope: -145.199951
        tangentMode: 10
      - time: .166666672
        value: -14.3000002
        inSlope: -226.199982
        outSlope: -226.199982
        tangentMode: 10
      - time: .25
        value: -30.3999996
        inSlope: -193.199997
        outSlope: -193.199997
        tangentMode: 10
      m_PreInfinity: 2
      m_PostInfinity: 2
    attribute: m_LocalPosition.x
    path: Strike_beam_03
    classID: 4
    script: {fileID: 0}
  - curve:
      serializedVersion: 2
      m_Curve:
      - time: 0
        value: 1.79999924
        inSlope: 13.2000103
        outSlope: 13.2000103
        tangentMode: 10
      - time: .0833333358
        value: 2.9000001
        inSlope: 61.2000084
        outSlope: 61.2000084
        tangentMode: 10
      - time: .166666672
        value: 12
        inSlope: 95.4000015
        outSlope: 95.4000015
        tangentMode: 10
      - time: .25
        value: 18.7999992
        inSlope: 81.5999985
        outSlope: 81.5999985
        tangentMode: 10
      m_PreInfinity: 2
      m_PostInfinity: 2
    attribute: m_LocalPosition.y
    path: Strike_beam_03
    classID: 4
    script: {fileID: 0}
  - curve:
      serializedVersion: 2
      m_Curve:
      - time: 0
        value: 0
        inSlope: 0
        outSlope: 0
        tangentMode: 10
      - time: .0833333358
        value: 0
        inSlope: 0
        outSlope: 0
        tangentMode: 10
      - time: .166666672
        value: 0
        inSlope: 0
        outSlope: 0
        tangentMode: 10
      - time: .25
        value: 0
        inSlope: 0
        outSlope: 0
        tangentMode: 10
      m_PreInfinity: 2
      m_PostInfinity: 2
    attribute: m_LocalPosition.z
    path: Strike_beam_03
    classID: 4
    script: {fileID: 0}
  - curve:
      serializedVersion: 2
      m_Curve:
      - time: 0
        value: .150173783
        inSlope: 0
        outSlope: 0
        tangentMode: 10
      - time: .0833333358
        value: .150173783
        inSlope: 0
        outSlope: 0
        tangentMode: 10
      - time: .166666672
        value: .150173783
        inSlope: 0
        outSlope: 0
        tangentMode: 10
      - time: .25
        value: .150173783
        inSlope: 0
        outSlope: 0
        tangentMode: 10
      m_PreInfinity: 2
      m_PostInfinity: 2
    attribute: m_LocalScale.x
    path: Strike_beam_03
    classID: 4
    script: {fileID: 0}
  - curve:
      serializedVersion: 2
      m_Curve:
      - time: 0
        value: .100832418
        inSlope: 1.0803262
        outSlope: 1.0803262
        tangentMode: 10
      - time: .0833333358
        value: .190859601
        inSlope: 2.7498579
        outSlope: 2.7498579
        tangentMode: 10
      - time: .166666672
        value: .559142113
        inSlope: 3.4055438
        outSlope: 3.4055438
        tangentMode: 10
      - time: .25
        value: .75845027
        inSlope: 2.39169812
        outSlope: 2.39169812
        tangentMode: 10
      m_PreInfinity: 2
      m_PostInfinity: 2
    attribute: m_LocalScale.y
    path: Strike_beam_03
    classID: 4
    script: {fileID: 0}
  - curve:
      serializedVersion: 2
      m_Curve:
      - time: 0
        value: .150173783
        inSlope: 0
        outSlope: 0
        tangentMode: 10
      - time: .0833333358
        value: .150173783
        inSlope: 0
        outSlope: 0
        tangentMode: 10
      - time: .166666672
        value: .150173783
        inSlope: 0
        outSlope: 0
        tangentMode: 10
      - time: .25
        value: .150173783
        inSlope: 0
        outSlope: 0
        tangentMode: 10
      m_PreInfinity: 2
      m_PostInfinity: 2
    attribute: m_LocalScale.z
    path: Strike_beam_03
    classID: 4
    script: {fileID: 0}
  - curve:
      serializedVersion: 2
      m_Curve:
      - time: 0
        value: .195381641
        inSlope: 2.13909173
        outSlope: 2.13909173
        tangentMode: 10
      - time: .0833333358
        value: .373639286
        inSlope: .377158284
        outSlope: .377158284
        tangentMode: 10
      - time: .166666672
        value: .258241355
        inSlope: -.86108458
        outSlope: -.86108458
        tangentMode: 10
      - time: .25
        value: .230125189
        inSlope: -.337394029
        outSlope: -.337394029
        tangentMode: 10
      m_PreInfinity: 2
      m_PostInfinity: 2
    attribute: m_LocalScale.x
    path: Strike_streak_01
    classID: 4
    script: {fileID: 0}
  - curve:
      serializedVersion: 2
      m_Curve:
      - time: 0
        value: .094052501
        inSlope: 19.7801914
        outSlope: 19.7801914
        tangentMode: 10
      - time: .0833333358
        value: 1.74240196
        inSlope: 9.89009571
        outSlope: 9.89009571
        tangentMode: 10
      - time: .166666672
        value: 1.74240196
        inSlope: 0
        outSlope: 0
        tangentMode: 10
      - time: .25
        value: 1.74240196
        inSlope: 0
        outSlope: 0
        tangentMode: 10
      m_PreInfinity: 2
      m_PostInfinity: 2
    attribute: m_LocalScale.y
    path: Strike_streak_01
    classID: 4
    script: {fileID: 0}
  - curve:
      serializedVersion: 2
      m_Curve:
      - time: 0
        value: .195381641
        inSlope: 2.13909245
        outSlope: 2.13909245
        tangentMode: 10
      - time: .0833333358
        value: .373639345
        inSlope: 1.06954622
        outSlope: 1.06954622
        tangentMode: 10
      - time: .166666672
        value: .373639345
        inSlope: 0
        outSlope: 0
        tangentMode: 10
      - time: .25
        value: .373639345
        inSlope: 0
        outSlope: 0
        tangentMode: 10
      m_PreInfinity: 2
      m_PostInfinity: 2
    attribute: m_LocalScale.z
    path: Strike_streak_01
    classID: 4
    script: {fileID: 0}
  - curve:
      serializedVersion: 2
      m_Curve:
      - time: 0
        value: 14.6000004
        inSlope: 370.799988
        outSlope: 370.799988
        tangentMode: 10
      - time: .0833333358
        value: 45.5
        inSlope: 236.399994
        outSlope: 236.399994
        tangentMode: 10
      - time: .166666672
        value: 54
        inSlope: 100.200012
        outSlope: 100.200012
        tangentMode: 10
      - time: .25
        value: 62.2000008
        inSlope: 98.4000168
        outSlope: 98.4000168
        tangentMode: 10
      m_PreInfinity: 2
      m_PostInfinity: 2
    attribute: m_LocalPosition.x
    path: Strike_streak_01
    classID: 4
    script: {fileID: 0}
  - curve:
      serializedVersion: 2
      m_Curve:
      - time: 0
        value: 1.70000005
        inSlope: 346.799988
        outSlope: 346.799988
        tangentMode: 10
      - time: .0833333358
        value: 30.6000004
        inSlope: 216
        outSlope: 216
        tangentMode: 10
      - time: .166666672
        value: 37.7000008
        inSlope: 83.4000015
        outSlope: 83.4000015
        tangentMode: 10
      - time: .25
        value: 44.5
        inSlope: 81.5999985
        outSlope: 81.5999985
        tangentMode: 10
      m_PreInfinity: 2
      m_PostInfinity: 2
    attribute: m_LocalPosition.y
    path: Strike_streak_01
    classID: 4
    script: {fileID: 0}
  - curve:
      serializedVersion: 2
      m_Curve:
      - time: 0
        value: 0
        inSlope: 0
        outSlope: 0
        tangentMode: 10
      - time: .0833333358
        value: 0
        inSlope: 0
        outSlope: 0
        tangentMode: 10
      - time: .166666672
        value: 0
        inSlope: 0
        outSlope: 0
        tangentMode: 10
      - time: .25
        value: 0
        inSlope: 0
        outSlope: 0
        tangentMode: 10
      m_PreInfinity: 2
      m_PostInfinity: 2
    attribute: m_LocalPosition.z
    path: Strike_streak_01
    classID: 4
    script: {fileID: 0}
  - curve:
      serializedVersion: 2
      m_Curve:
      - time: 0
        value: 12
        inSlope: -195.599991
        outSlope: -195.599991
        tangentMode: 10
      - time: .0833333358
        value: -4.30000019
        inSlope: -245.399994
        outSlope: -245.399994
        tangentMode: 10
      - time: .166666672
        value: -28.8999996
        inSlope: -190.799988
        outSlope: -190.799988
        tangentMode: 10
      - time: .25
        value: -36.0999985
        inSlope: -86.3999939
        outSlope: -86.3999939
        tangentMode: 10
      m_PreInfinity: 2
      m_PostInfinity: 2
    attribute: m_LocalPosition.x
    path: Strike_streak_02
    classID: 4
    script: {fileID: 0}
  - curve:
      serializedVersion: 2
      m_Curve:
      - time: 0
        value: 2.0999999
        inSlope: 283.199982
        outSlope: 283.199982
        tangentMode: 10
      - time: .0833333358
        value: 25.7000008
        inSlope: 356.399963
        outSlope: 356.399963
        tangentMode: 10
      - time: .166666672
        value: 61.5
        inSlope: 277.200012
        outSlope: 277.200012
        tangentMode: 10
      - time: .25
        value: 71.9000015
        inSlope: 124.800026
        outSlope: 124.800026
        tangentMode: 10
      m_PreInfinity: 2
      m_PostInfinity: 2
    attribute: m_LocalPosition.y
    path: Strike_streak_02
    classID: 4
    script: {fileID: 0}
  - curve:
      serializedVersion: 2
      m_Curve:
      - time: 0
        value: 0
        inSlope: 0
        outSlope: 0
        tangentMode: 10
      - time: .0833333358
        value: 0
        inSlope: 0
        outSlope: 0
        tangentMode: 10
      - time: .166666672
        value: 0
        inSlope: 0
        outSlope: 0
        tangentMode: 10
      - time: .25
        value: 0
        inSlope: 0
        outSlope: 0
        tangentMode: 10
      m_PreInfinity: 2
      m_PostInfinity: 2
    attribute: m_LocalPosition.z
    path: Strike_streak_02
    classID: 4
    script: {fileID: 0}
  - curve:
      serializedVersion: 2
      m_Curve:
      - time: 0
        value: .221595183
        inSlope: 1.92839611
        outSlope: 1.92839611
        tangentMode: 10
      - time: .0833333358
        value: .382294863
        inSlope: .964198053
        outSlope: .964198053
        tangentMode: 10
      - time: .166666672
        value: .382294863
        inSlope: -.500577867
        outSlope: -.500577867
        tangentMode: 10
      - time: .25
        value: .298865229
        inSlope: -1.00115573
        outSlope: -1.00115573
        tangentMode: 10
      m_PreInfinity: 2
      m_PostInfinity: 2
    attribute: m_LocalScale.x
    path: Strike_streak_02
    classID: 4
    script: {fileID: 0}
  - curve:
      serializedVersion: 2
      m_Curve:
      - time: 0
        value: .185658216
        inSlope: 5.552526
        outSlope: 5.552526
        tangentMode: 10
      - time: .0833333358
        value: .648368716
        inSlope: 4.9272809
        outSlope: 4.9272809
        tangentMode: 10
      - time: .166666672
        value: 1.0068717
        inSlope: 2.1510179
        outSlope: 2.1510179
        tangentMode: 10
      - time: .25
        value: 1.0068717
        inSlope: 0
        outSlope: 0
        tangentMode: 10
      m_PreInfinity: 2
      m_PostInfinity: 2
    attribute: m_LocalScale.y
    path: Strike_streak_02
    classID: 4
    script: {fileID: 0}
  - curve:
      serializedVersion: 2
      m_Curve:
      - time: 0
        value: .479118049
        inSlope: 14.3291016
        outSlope: 14.3291016
        tangentMode: 10
      - time: .0833333358
        value: 1.67320979
        inSlope: 7.16455078
        outSlope: 7.16455078
        tangentMode: 10
      - time: .166666672
        value: 1.67320979
        inSlope: 0
        outSlope: 0
        tangentMode: 10
      - time: .25
        value: 1.67320979
        inSlope: 0
        outSlope: 0
        tangentMode: 10
      m_PreInfinity: 2
      m_PostInfinity: 2
    attribute: m_LocalScale.z
    path: Strike_streak_02
    classID: 4
    script: {fileID: 0}
  - curve:
      serializedVersion: 2
      m_Curve:
      - time: 0
        value: .119778343
        inSlope: .34844926
        outSlope: .34844926
        tangentMode: 10
      - time: .0833333358
        value: .148815781
        inSlope: -.0824826211
        outSlope: -.0824826211
        tangentMode: 10
      - time: .166666672
        value: .106031239
        inSlope: -.638419747
        outSlope: -.638419747
        tangentMode: 10
      - time: .25
        value: .0424124971
        inSlope: -.763424933
        outSlope: -.763424933
        tangentMode: 10
      m_PreInfinity: 2
      m_PostInfinity: 2
    attribute: m_LocalScale.x
    path: Strike_orb_02
    classID: 4
    script: {fileID: 0}
  - curve:
      serializedVersion: 2
      m_Curve:
      - time: 0
        value: .119778328
        inSlope: 1.15205193
        outSlope: 1.15205193
        tangentMode: 10
      - time: .0833333358
        value: .215782657
        inSlope: 1.96781814
        outSlope: 1.96781814
        tangentMode: 10
      - time: .166666672
        value: .447748035
        inSlope: 2.66786981
        outSlope: 2.66786981
        tangentMode: 10
      - time: .25
        value: .66042763
        inSlope: 2.55215526
        outSlope: 2.55215526
        tangentMode: 10
      m_PreInfinity: 2
      m_PostInfinity: 2
    attribute: m_LocalScale.y
    path: Strike_orb_02
    classID: 4
    script: {fileID: 0}
  - curve:
      serializedVersion: 2
      m_Curve:
      - time: 0
        value: .119778328
        inSlope: .348449975
        outSlope: .348449975
        tangentMode: 10
      - time: .0833333358
        value: .148815826
        inSlope: .174224988
        outSlope: .174224988
        tangentMode: 10
      - time: .166666672
        value: .148815826
        inSlope: 0
        outSlope: 0
        tangentMode: 10
      - time: .25
        value: .148815826
        inSlope: 0
        outSlope: 0
        tangentMode: 10
      m_PreInfinity: 2
      m_PostInfinity: 2
    attribute: m_LocalScale.z
    path: Strike_orb_02
    classID: 4
    script: {fileID: 0}
  - curve:
      serializedVersion: 2
      m_Curve:
      - time: 0
        value: 13.5900002
        inSlope: .120002747
        outSlope: .120002747
        tangentMode: 10
      - time: .0833333358
        value: 13.6000004
        inSlope: .0600013733
        outSlope: .0600013733
        tangentMode: 10
      - time: .166666672
        value: 13.6000004
        inSlope: 0
        outSlope: 0
        tangentMode: 10
      - time: .25
        value: 13.6000004
        inSlope: 0
        outSlope: 0
        tangentMode: 10
      m_PreInfinity: 2
      m_PostInfinity: 2
    attribute: m_LocalPosition.x
    path: Strike_orb_02
    classID: 4
    script: {fileID: 0}
  - curve:
      serializedVersion: 2
      m_Curve:
      - time: 0
        value: 1.75999999
        inSlope: -6.71999931
        outSlope: -6.71999931
        tangentMode: 10
      - time: .0833333358
        value: 1.20000005
        inSlope: 48.8399963
        outSlope: 48.8399963
        tangentMode: 10
      - time: .166666672
        value: 9.89999962
        inSlope: 87
        outSlope: 87
        tangentMode: 10
      - time: .25
        value: 15.6999998
        inSlope: 69.6000061
        outSlope: 69.6000061
        tangentMode: 10
      m_PreInfinity: 2
      m_PostInfinity: 2
    attribute: m_LocalPosition.y
    path: Strike_orb_02
    classID: 4
    script: {fileID: 0}
  - curve:
      serializedVersion: 2
      m_Curve:
      - time: 0
        value: 0
        inSlope: 0
        outSlope: 0
        tangentMode: 10
      - time: .0833333358
        value: 0
        inSlope: 0
        outSlope: 0
        tangentMode: 10
      - time: .166666672
        value: 0
        inSlope: 0
        outSlope: 0
        tangentMode: 10
      - time: .25
        value: 0
        inSlope: 0
        outSlope: 0
        tangentMode: 10
      m_PreInfinity: 2
      m_PostInfinity: 2
    attribute: m_LocalPosition.z
    path: Strike_orb_02
    classID: 4
    script: {fileID: 0}
  m_EulerEditorCurves: []
  m_Events: []
